Lab3/simulation/qsim/Lab3.msim.vcd
$comment
	File created using the following command:
		vcd file Lab3.msim.vcd -direction
$end
$date
	Thu Oct 27 17:19:14 2022
$end
$version
	ModelSim Version 2020.1
$end
$timescale
	1ps
$end

$scope module Lab3_vlg_vec_tst $end
$var reg 1 ! Clk $end
$var reg 1 " D $end
$var wire 1 # Qa $end
$var wire 1 $ Qb $end
$var wire 1 % Qc $end

$scope module i1 $end
$var wire 1 & gnd $end
$var wire 1 ' vcc $end
$var wire 1 ( unknown $end
$var tri1 1 ) devclrn $end
$var tri1 1 * devpor $end
$var tri1 1 + devoe $end
$var wire 1 , Clk~input_o $end
$var wire 1 - D~input_o $end
$var wire 1 . Qa~output_o $end
$var wire 1 / Qb~output_o $end
$var wire 1 0 Qc~output_o $end
$upscope $end
$upscope $end
$enddefinitions $end
#0
$dumpvars
0!
0"
0#
0$
0%
0&
1'
x(
1)
1*
1+
0,
0-
0.
0/
00
$end
#5000
1!
1"
1,
1-
#10000
0!
0,
#15000
1!
1,
#20000
0"
0!
0-
0,
#25000
1!
1,
#30000
0!
0,
#35000
1"
1!
1-
1,
#40000
0"
0!
0-
0,
#45000
1!
1,
#50000
1"
0!
1-
0,
#55000
1!
1,
#60000
0"
0!
0-
0,
#65000
1"
1!
1-
1,
#70000
0"
0!
0-
0,
#75000
1"
1!
1-
1,
#80000
0"
0!
0-
0,
#85000
1"
1!
1-
1,
#90000
0"
0!
0-
0,
#95000
1"
1!
1-
1,
#100000
0"
0!
0-
0,
#105000
1!
1,
#110000
1"
0!
1-
0,
#115000
1!
1,
#120000
0!
0,
#125000
0"
1!
0-
1,
#130000
0!
0,
#135000
1!
1,
#140000
1"
0!
1-
0,
#145000
1!
1,
#150000
0!
0,
#155000
0"
1!
0-
1,
