Lab3/simulation/qsim/Lab3.msim.vcd
$comment
	File created using the following command:
		vcd file Lab3.msim.vcd -direction
$end
$date
	Thu Oct 27 20:47:52 2022
$end
$version
	ModelSim Version 2020.1
$end
$timescale
	1ps
$end

$scope module Lab3_vlg_vec_tst $end
$var reg 2 ! SW [1:0] $end
$var wire 1 " LEDR [1] $end
$var wire 1 # LEDR [0] $end

$scope module i1 $end
$var wire 1 $ gnd $end
$var wire 1 % vcc $end
$var wire 1 & unknown $end
$var tri1 1 ' devclrn $end
$var tri1 1 ( devpor $end
$var tri1 1 ) devoe $end
$var wire 1 * LEDR[1]~output_o $end
$var wire 1 + LEDR[0]~output_o $end
$var wire 1 , SW[1]~input_o $end
$var wire 1 - SW[0]~input_o $end
$var wire 1 . inst|D0|master|R_g~combout $end
$var wire 1 / inst|D0|master|S_g~combout $end
$var wire 1 0 inst|D0|master|Qb~combout $end
$var wire 1 1 inst|D0|master|Qa~combout $end
$var wire 1 2 inst|D0|slave|R_g~combout $end
$var wire 1 3 inst|D0|slave|S_g~combout $end
$var wire 1 4 inst|D0|slave|Qb~combout $end
$var wire 1 5 inst|D0|slave|Qa~combout $end
$upscope $end
$upscope $end
$enddefinitions $end
#0
$dumpvars
b0 !
x#
0"
0$
1%
x&
1'
1(
1)
0*
x+
0,
0-
0.
1/
00
11
12
13
x4
x5
$end
#20000
b10 !
1,
03
1.
14
05
0+
0#
#40000
b11 !
b1 !
1-
0,
0/
13
10
01
#60000
b11 !
1,
02
1/
15
1+
04
1#
#80000
b10 !
b0 !
0-
0,
0.
12
11
00
#100000
b10 !
1,
03
1.
14
05
0+
0#
#120000
b11 !
b1 !
1-
0,
0/
13
10
01
#140000
b11 !
1,
02
1/
15
1+
04
1#
#160000
b10 !
b0 !
0-
0,
0.
12
11
00
#180000
b10 !
1,
03
1.
14
05
0+
0#
#200000
b11 !
b1 !
1-
0,
0/
13
10
01
#220000
b11 !
1,
02
1/
15
1+
04
1#
#240000
b10 !
b0 !
0-
0,
0.
12
11
00
#260000
b10 !
1,
03
1.
14
05
0+
0#
#280000
b11 !
b1 !
1-
0,
0/
13
10
01
