Lab7/simulation/qsim/Lab7.msim.vcd
$comment
	File created using the following command:
		vcd file Lab7.msim.vcd -direction
$end
$date
	Fri Dec 16 02:28:18 2022
$end
$version
	ModelSim Version 2020.1
$end
$timescale
	1ps
$end

$scope module roll_over_test_vlg_vec_tst $end
$var reg 1 ! clock $end
$var reg 1 " rst_neg $end
$var wire 1 # Q [3] $end
$var wire 1 $ Q [2] $end
$var wire 1 % Q [1] $end
$var wire 1 & Q [0] $end
$var wire 1 ' roll_over $end

$scope module i1 $end
$var wire 1 ( gnd $end
$var wire 1 ) vcc $end
$var wire 1 * unknown $end
$var tri1 1 + devclrn $end
$var tri1 1 , devpor $end
$var tri1 1 - devoe $end
$var wire 1 . roll_over~output_o $end
$var wire 1 / Q[3]~output_o $end
$var wire 1 0 Q[2]~output_o $end
$var wire 1 1 Q[1]~output_o $end
$var wire 1 2 Q[0]~output_o $end
$var wire 1 3 clock~input_o $end
$var wire 1 4 inst|Q~3_combout $end
$var wire 1 5 rst_neg~input_o $end
$var wire 1 6 inst|Q~0_combout $end
$var wire 1 7 inst|Q~2_combout $end
$var wire 1 8 inst|Q~1_combout $end
$var wire 1 9 inst|roll_over~0_combout $end
$var wire 1 : inst|roll_over~1_combout $end
$var wire 1 ; inst|roll_over~q $end
$var wire 1 < inst|Q [3] $end
$var wire 1 = inst|Q [2] $end
$var wire 1 > inst|Q [1] $end
$var wire 1 ? inst|Q [0] $end
$upscope $end
$upscope $end
$enddefinitions $end
#0
$dumpvars
0!
1"
0&
0%
0$
0#
0'
0(
1)
x*
1+
1,
1-
0.
0/
00
01
02
03
14
15
06
07
08
09
0:
0;
0?
0>
0=
0<
$end
#10000
1!
13
1?
12
1&
17
04
#20000
0!
03
#30000
1!
13
1>
0?
02
11
1%
0&
14
#40000
0!
03
#50000
1!
13
1?
12
1&
18
07
04
#60000
0!
03
#70000
1!
13
1=
0>
0?
02
01
10
1$
0%
0&
14
#80000
0!
03
#90000
1!
13
1?
12
1&
17
04
#100000
0!
03
#110000
1!
13
1>
0?
02
11
1%
0&
14
#120000
0!
03
#130000
0"
1!
05
13
0>
0=
00
01
0%
0$
08
07
#140000
0!
03
#150000
1!
13
#160000
0!
03
#170000
1!
13
#180000
1"
0!
15
03
#190000
1!
13
1?
12
1&
17
04
#200000
0!
03
#210000
1!
13
1>
0?
02
11
1%
0&
14
#220000
0!
03
#230000
1!
13
1?
12
1&
18
07
04
#240000
0!
03
#250000
1!
13
1=
0>
0?
02
01
10
1$
0%
0&
14
#260000
0!
03
#270000
1!
13
1?
12
1&
17
04
#280000
0!
03
#290000
1!
13
1>
0?
02
11
1%
0&
14
#300000
0!
03
#310000
1!
13
1?
12
1&
08
07
16
04
#320000
0!
03
#330000
1!
13
0=
0>
1<
0?
02
1/
01
00
0$
0%
1#
0&
14
#340000
0!
03
#350000
1!
13
1?
12
19
1&
17
04
1:
#360000
0!
03
#370000
1!
13
1;
1>
0?
02
11
1.
09
1'
1%
0&
07
06
0:
#380000
0!
03
#390000
1!
13
0;
0>
0<
0/
01
0.
0'
0%
0#
14
#400000
0!
03
#410000
1!
13
1?
12
1&
17
04
#420000
0!
03
#430000
1!
13
1>
0?
02
11
1%
0&
14
#440000
0!
03
#450000
1!
13
1?
12
1&
18
07
04
#460000
0!
03
#470000
1!
13
1=
0>
0?
02
01
10
1$
0%
0&
14
#480000
0!
03
#490000
1!
13
1?
12
1&
17
04
#500000
0!
03
#510000
1!
13
1>
0?
02
11
1%
0&
14
#520000
0!
03
#530000
1!
13
1?
12
1&
08
07
16
04
#540000
0!
03
#550000
1!
13
0=
0>
1<
0?
02
1/
01
00
0$
0%
1#
0&
14
#560000
0!
03
#570000
1!
13
1?
12
19
1&
17
04
1:
#580000
0!
03
#590000
1!
13
1;
1>
0?
02
11
1.
09
1'
1%
0&
07
06
0:
#600000
0!
03
#610000
1!
13
0;
0>
0<
0/
01
0.
0'
0%
0#
14
#620000
0!
03
#630000
1!
13
1?
12
1&
17
04
#640000
0!
03
#650000
1!
13
1>
0?
02
11
1%
0&
14
#660000
0!
03
#670000
1!
13
1?
12
1&
18
07
04
#680000
0!
03
#690000
1!
13
1=
0>
0?
02
01
10
1$
0%
0&
14
#700000
0!
03
#710000
1!
13
1?
12
1&
17
04
#720000
0!
03
#730000
1!
13
1>
0?
02
11
1%
0&
14
#740000
0!
03
#750000
1!
13
1?
12
1&
08
07
16
04
#760000
0!
03
#770000
1!
13
0=
0>
1<
0?
02
1/
01
00
0$
0%
1#
0&
14
#780000
0!
03
#790000
1!
13
1?
12
19
1&
17
04
1:
#800000
0!
03
#810000
1!
13
1;
1>
0?
02
11
1.
09
1'
1%
0&
07
06
0:
#820000
0!
03
#830000
1!
13
0;
0>
0<
0/
01
0.
0'
0%
0#
14
#840000
0!
03
#850000
1!
13
1?
12
1&
17
04
#860000
0!
03
#870000
1!
13
1>
0?
02
11
1%
0&
14
#880000
0!
03
#890000
1!
13
1?
12
1&
18
07
04
#900000
0!
03
#910000
1!
13
1=
0>
0?
02
01
10
1$
0%
0&
14
#920000
0!
03
#930000
1!
13
1?
12
1&
17
04
#940000
0!
03
#950000
1!
13
1>
0?
02
11
1%
0&
14
#960000
0!
03
#970000
1!
13
1?
12
1&
08
07
16
04
#980000
0!
03
#990000
1!
13
0=
0>
1<
0?
02
1/
01
00
0$
0%
1#
0&
14
