Lab7/simulation/qsim/Lab7.msim.vcd
$comment
	File created using the following command:
		vcd file Lab7.msim.vcd -direction
$end
$date
	Fri Dec 16 02:09:14 2022
$end
$version
	ModelSim Version 2020.1
$end
$timescale
	1ps
$end

$scope module Lab7Part4_vlg_vec_tst $end
$var reg 1 ! clk $end
$var reg 1 " en $end
$var reg 1 # rst $end
$var reg 3 $ sel [2:0] $end
$var wire 1 % Q $end

$scope module i1 $end
$var wire 1 & gnd $end
$var wire 1 ' vcc $end
$var wire 1 ( unknown $end
$var tri1 1 ) devclrn $end
$var tri1 1 * devpor $end
$var tri1 1 + devoe $end
$var wire 1 , Q~output_o $end
$var wire 1 - clk~input_o $end
$var wire 1 . inst|M0|y_Q~11_combout $end
$var wire 1 / rst~input_o $end
$var wire 1 0 inst|M0|y_Q~4_q $end
$var wire 1 1 inst|M0|y_Q~10_combout $end
$var wire 1 2 inst|M0|y_Q~7_q $end
$var wire 1 3 inst|M0|y_Q~9_combout $end
$var wire 1 4 inst|M0|y_Q~6_q $end
$var wire 1 5 inst|M0|y_Q~8_combout $end
$var wire 1 6 inst|M0|y_Q~5_q $end
$var wire 1 7 en~input_o $end
$var wire 1 8 sel[1]~input_o $end
$var wire 1 9 sel[0]~input_o $end
$var wire 1 : sel[2]~input_o $end
$var wire 1 ; inst|S0|WideOr0~0_combout $end
$var wire 1 < inst|M0|Selector0~0_combout $end
$var wire 1 = inst|S0|signal~0_combout $end
$var wire 1 > inst|S0|Decoder0~0_combout $end
$var wire 1 ? inst|S0|Decoder0~1_combout $end
$var wire 1 @ inst|M0|Selector0~1_combout $end
$var wire 1 A inst|S0|Decoder0~2_combout $end
$var wire 1 B inst|M0|Selector0~2_combout $end
$var wire 1 C inst|M0|Selector0~3_combout $end
$var wire 1 D inst|M0|Selector0~4_combout $end
$var wire 1 E inst|S0|signal~1_combout $end
$var wire 1 F inst|S0|Decoder0~3_combout $end
$var wire 1 G inst|M0|Selector0~5_combout $end
$var wire 1 H inst|M0|Selector0~6_combout $end
$var wire 1 I inst|M0|Selector0~7_combout $end
$var wire 1 J inst|M0|Selector0~8_combout $end
$var wire 1 K inst|S0|signal [13] $end
$var wire 1 L inst|S0|signal [12] $end
$var wire 1 M inst|S0|signal [11] $end
$var wire 1 N inst|S0|signal [10] $end
$var wire 1 O inst|S0|signal [9] $end
$var wire 1 P inst|S0|signal [8] $end
$var wire 1 Q inst|S0|signal [7] $end
$var wire 1 R inst|S0|signal [6] $end
$var wire 1 S inst|S0|signal [5] $end
$var wire 1 T inst|S0|signal [4] $end
$var wire 1 U inst|S0|signal [3] $end
$var wire 1 V inst|S0|signal [2] $end
$var wire 1 W inst|S0|signal [1] $end
$var wire 1 X inst|S0|signal [0] $end
$upscope $end
$upscope $end
$enddefinitions $end
#0
$dumpvars
0!
0"
0#
b0 $
0%
0&
1'
x(
1)
1*
1+
0,
0-
1.
0/
00
01
02
03
04
05
06
07
08
09
0:
0;
0<
0=
0>
0?
0@
1A
0B
0C
0D
0E
1F
0G
0H
0I
0J
zX
0W
zV
0U
zT
0S
0R
0Q
0P
zO
0N
zM
zL
zK
$end
#5000
1!
1-
10
15
0.
#10000
1"
0!
17
0-
1P
1Q
1G
1H
1I
#15000
1!
1-
16
00
1C
1.
1D
1J
1,
1%
#20000
0"
0!
07
0-
#25000
1!
1-
10
0I
1@
05
13
0.
0D
0J
0,
0%
#30000
0!
0-
#35000
1!
1-
06
14
00
1I
0C
0@
1.
1J
1,
1%
#40000
0!
0-
#45000
1!
1-
10
15
0.
#50000
0!
0-
#55000
1!
1-
16
00
1C
1.
1D
#60000
0!
0-
#65000
1!
1-
10
0I
1@
05
03
11
0.
0D
0J
0,
0%
#70000
0!
0-
#75000
1!
1-
06
04
12
00
1I
0C
1B
0@
0H
1.
0I
#80000
0!
0-
#85000
1!
1-
10
15
0.
#90000
0!
0-
#95000
1!
1-
16
00
1C
1.
#100000
0!
0-
#105000
1!
1-
10
1@
05
13
0.
#110000
0!
0-
#115000
1!
1-
06
14
00
0C
0B
0@
1.
#120000
0!
0-
#125000
1!
1-
10
03
01
0.
#130000
0!
0-
#135000
1!
1-
04
02
00
1H
1.
1I
#140000
b1 $
0!
19
0-
0F
1?
1=
1;
#145000
1!
1-
10
15
0.
#150000
1"
0!
17
0-
0P
1S
1U
1N
0G
0H
0I
#155000
1!
1-
16
00
1C
1<
1G
1.
1D
1H
1J
1,
1I
1%
#160000
0"
0!
07
0-
#165000
1!
1-
10
0I
0G
1@
05
13
0.
0H
0D
#170000
0!
0-
#175000
1!
1-
06
14
00
0C
0<
1G
1.
1H
0J
0,
1I
0%
1J
1,
1%
#180000
0!
0-
#185000
1!
1-
10
0G
0@
15
0.
0H
0I
0J
0,
0%
#190000
0!
0-
#195000
1!
1-
16
00
1C
1G
1.
1D
1H
1I
1J
1,
1%
#200000
0!
0-
#205000
1!
1-
10
0I
0G
1@
05
03
11
0.
0H
0D
0J
0,
0%
#210000
0!
0-
#215000
1!
1-
06
04
12
00
0C
1B
1G
1.
1D
1J
1,
1%
#220000
0!
0-
#225000
1!
1-
10
0G
0@
15
0.
0D
0J
0,
0%
#230000
0!
0-
#235000
1!
1-
16
00
1C
1G
1.
1D
1J
1,
1%
#240000
0!
0-
#245000
1!
1-
10
0G
1@
05
13
0.
0D
0J
0,
0%
#250000
0!
0-
#255000
1!
1-
06
14
00
0C
0B
1G
1.
#260000
0!
0-
#265000
1!
1-
10
0G
0@
03
01
0.
#270000
0!
0-
#275000
1!
1-
04
02
00
1G
1@
1.
1H
1I
#280000
b11 $
b10 $
0!
09
18
0-
1>
#285000
1!
1-
10
0G
0@
15
0.
0H
0I
#290000
1"
0!
17
0-
1W
1@
#295000
1!
1-
16
00
1C
0@
1<
1G
1.
1D
1H
1J
1,
1I
1%
#300000
0"
0!
07
0-
#305000
1!
1-
10
0I
0G
1@
05
13
0.
0H
0D
#310000
0!
0-
#315000
1!
1-
06
14
00
0C
0<
1G
1.
1H
0J
0,
1I
0%
1J
1,
1%
#320000
0!
0-
#325000
1!
1-
10
0G
15
0.
0H
0I
0J
0,
0%
#330000
0!
0-
#335000
1!
1-
16
00
1C
0@
1G
1.
1D
1H
1I
1J
1,
1%
#340000
0!
0-
#345000
1!
1-
10
0I
0G
1@
05
03
11
0.
0H
0D
0J
0,
0%
#350000
0!
0-
#355000
1!
1-
06
04
12
00
0C
1B
1H
1G
1.
1D
1I
1J
1,
1%
#360000
0!
0-
#365000
1!
1-
10
0H
0G
15
0.
0I
#370000
0!
0-
#375000
1!
1-
16
00
1C
0@
1H
1G
1.
1I
#380000
0!
0-
#385000
1!
1-
10
0I
0H
0G
1@
05
13
0.
0D
0J
0,
0%
#390000
0!
0-
#395000
1!
1-
06
14
00
0C
0B
1H
1G
1.
1I
1J
1,
1%
#400000
0!
0-
#405000
1!
1-
10
0H
0G
03
01
0.
0I
0J
0,
0%
#410000
0!
0-
#415000
1!
1-
04
02
00
1G
1.
1H
1I
#420000
b11 $
0!
19
0-
0>
0=
#425000
1!
1-
10
0G
15
0.
0H
0I
#430000
1"
0!
17
0-
0W
0U
0@
#435000
1!
1-
16
00
1C
1<
1G
1.
1D
1H
1J
1,
1I
1%
#440000
0"
0!
07
0-
#445000
1!
1-
10
0I
0G
1@
05
13
0.
0H
0D
#450000
0!
0-
#455000
1!
1-
06
14
00
0C
0<
1G
1.
1H
0J
0,
1I
0%
1J
1,
1%
#460000
0!
0-
#465000
1!
1-
10
0G
0@
15
0.
0H
0I
0J
0,
0%
#470000
0!
0-
#475000
1!
1-
16
00
1C
1G
1.
1D
1H
1I
1J
1,
1%
#480000
0!
0-
#485000
1!
1-
10
0I
0G
1@
05
03
11
0.
0H
0D
0J
0,
0%
#490000
0!
0-
#495000
1!
1-
06
04
12
00
0C
1B
1G
1.
1D
1J
1,
1%
#500000
0!
0-
#505000
1!
1-
10
0G
0@
15
0.
0D
0J
0,
0%
#510000
0!
0-
#515000
1!
1-
16
00
1C
1G
1.
#520000
0!
0-
#525000
1!
1-
10
0G
1@
05
13
0.
#530000
0!
0-
#535000
1!
1-
06
14
00
0C
0B
1G
1.
#540000
0!
0-
#545000
1!
1-
10
0G
0@
03
01
0.
#550000
0!
0-
#555000
1!
1-
04
02
00
1G
1@
1.
1H
1I
#560000
b111 $
b101 $
b100 $
0!
09
08
1:
0-
0A
0?
0;
#565000
1!
1-
10
0G
0@
15
0.
0H
0I
#570000
1"
0!
17
0-
0Q
0S
0N
#575000
1!
1-
16
00
1C
1.
1D
1J
1,
1%
#580000
0"
0!
07
0-
#585000
1!
1-
10
1@
05
13
0.
0D
0J
0,
0%
#590000
0!
0-
#595000
1!
1-
06
14
00
0C
0@
1.
#600000
0!
0-
#605000
1!
1-
10
15
0.
#610000
0!
0-
#615000
1!
1-
16
00
1.
#620000
0!
0-
#625000
1!
1-
10
1@
05
03
11
0.
#630000
0!
0-
#635000
1!
1-
06
04
12
00
1B
0@
1.
#640000
0!
0-
#645000
1!
1-
10
15
0.
#650000
0!
0-
#655000
1!
1-
16
00
1C
1.
#660000
0!
0-
#665000
1!
1-
10
1@
05
13
0.
#670000
0!
0-
#675000
1!
1-
06
14
00
0C
0B
0@
1.
#680000
0!
0-
#685000
1!
1-
10
03
01
0.
#690000
0!
0-
#695000
1!
1-
04
02
00
1.
#700000
b101 $
0!
19
0-
1E
1A
1?
1=
#705000
1!
1-
10
15
0.
#710000
1"
0!
17
0-
1R
1Q
1S
1U
#715000
1!
1-
16
00
1C
1G
1.
1D
1H
1I
1J
1,
1%
#720000
0"
0!
07
0-
#725000
1!
1-
10
0G
1@
05
13
0.
0H
0D
0J
0,
0%
#730000
0!
0-
#735000
1!
1-
06
14
00
0I
0C
1G
1J
1.
1,
1H
1%
0J
0,
1I
0%
1J
1,
1%
#740000
0!
0-
#745000
1!
1-
10
0G
0@
15
0.
0H
0I
0J
0,
0%
#750000
0!
0-
#755000
1!
1-
16
00
1C
1G
1.
1D
1H
1I
1J
1,
1%
#760000
0!
0-
#765000
1!
1-
10
0G
1@
05
03
11
0.
0H
0D
#770000
0!
0-
#775000
1!
1-
06
04
12
00
0I
0C
1B
1G
0J
1.
0,
1D
0%
1J
1,
1%
#780000
0!
0-
#785000
1!
1-
10
0G
0@
15
0.
0D
0J
0,
0%
#790000
0!
0-
#795000
1!
1-
16
00
1C
1G
1.
1D
1J
1,
1%
#800000
0!
0-
#805000
1!
1-
10
1I
0G
1@
05
13
0.
0D
0J
0,
0%
#810000
0!
0-
#815000
1!
1-
06
14
00
0I
0C
0B
1G
1J
1.
1,
1%
0J
0,
0%
#820000
0!
0-
#825000
1!
1-
10
0G
0@
03
01
0.
#830000
0!
0-
#835000
1!
1-
04
02
00
1G
1@
1.
1H
1I
#840000
b111 $
b110 $
0!
09
18
0-
1;
#845000
1!
1-
10
0G
0@
15
0.
0H
0I
#850000
1"
0!
17
0-
1N
#855000
1!
1-
16
00
1C
1<
1G
1.
1D
1H
1J
1,
1I
1%
#860000
0"
0!
07
0-
#865000
1!
1-
10
0G
1@
05
13
0.
0H
0D
#870000
0!
0-
#875000
1!
1-
06
14
00
0I
0C
0<
1G
1.
1H
0J
0,
1I
0%
1J
1,
1%
#880000
0!
0-
#885000
1!
1-
10
0G
0@
15
0.
0H
0I
0J
0,
0%
#890000
0!
0-
#895000
1!
1-
16
00
1C
1G
1.
1D
1H
1I
1J
1,
1%
#900000
0!
0-
#905000
1!
1-
10
0G
1@
05
03
11
0.
0H
0D
#910000
0!
0-
#915000
1!
1-
06
04
12
00
0I
0C
1B
1G
0J
1.
0,
1D
0%
1J
1,
1%
#920000
0!
0-
#925000
1!
1-
10
0G
0@
15
0.
0D
0J
0,
0%
#930000
0!
0-
#935000
1!
1-
16
00
1C
1G
1.
1D
1J
1,
1%
#940000
0!
0-
#945000
1!
1-
10
1I
0G
1@
05
13
0.
0D
0J
0,
0%
#950000
0!
0-
#955000
1!
1-
06
14
00
0I
0C
0B
1G
1J
1.
1,
1%
0J
0,
0%
#960000
0!
0-
#965000
1!
1-
10
0G
0@
03
01
0.
#970000
0!
0-
#975000
1!
1-
04
02
00
1G
1@
1.
1H
1I
#980000
b111 $
0!
19
0-
0E
0=
0;
#985000
1!
1-
10
0G
0@
15
0.
0H
0I
#990000
0!
0-
#995000
1!
1-
16
00
1C
1<
1G
1.
1D
1H
1J
1,
1I
1%
