Lab7/simulation/qsim/Lab7.msim.vcd
$comment
	File created using the following command:
		vcd file Lab7.msim.vcd -direction
$end
$date
	Fri Dec 16 00:58:03 2022
$end
$version
	ModelSim Version 2020.1
$end
$timescale
	1ps
$end

$scope module Lab7Part1_vlg_vec_tst $end
$var reg 1 ! clk $end
$var reg 1 " rst $end
$var reg 1 # w $end
$var wire 1 $ Q [8] $end
$var wire 1 % Q [7] $end
$var wire 1 & Q [6] $end
$var wire 1 ' Q [5] $end
$var wire 1 ( Q [4] $end
$var wire 1 ) Q [3] $end
$var wire 1 * Q [2] $end
$var wire 1 + Q [1] $end
$var wire 1 , Q [0] $end
$var wire 1 - z $end

$scope module i1 $end
$var wire 1 . gnd $end
$var wire 1 / vcc $end
$var wire 1 0 unknown $end
$var tri1 1 1 devclrn $end
$var tri1 1 2 devpor $end
$var tri1 1 3 devoe $end
$var wire 1 4 z~output_o $end
$var wire 1 5 Q[8]~output_o $end
$var wire 1 6 Q[7]~output_o $end
$var wire 1 7 Q[6]~output_o $end
$var wire 1 8 Q[5]~output_o $end
$var wire 1 9 Q[4]~output_o $end
$var wire 1 : Q[3]~output_o $end
$var wire 1 ; Q[2]~output_o $end
$var wire 1 < Q[1]~output_o $end
$var wire 1 = Q[0]~output_o $end
$var wire 1 > w~input_o $end
$var wire 1 ? clk~input_o $end
$var wire 1 @ rst~input_o $end
$var wire 1 A inst|FF|D8|Q~0_combout $end
$var wire 1 B inst|FF|D8|Q~q $end
$var wire 1 C inst|D~2_combout $end
$var wire 1 D inst|FF|D1|Q~0_combout $end
$var wire 1 E inst|FF|D1|Q~q $end
$var wire 1 F inst|FF|D2|Q~0_combout $end
$var wire 1 G inst|FF|D2|Q~q $end
$var wire 1 H inst|FF|D3|Q~0_combout $end
$var wire 1 I inst|FF|D3|Q~q $end
$var wire 1 J inst|FF|D4|Q~0_combout $end
$var wire 1 K inst|FF|D4|Q~q $end
$var wire 1 L inst|D~1_combout $end
$var wire 1 M inst|FF|D0|Q~0_combout $end
$var wire 1 N inst|FF|D0|Q~q $end
$var wire 1 O inst|FF|D5|Q~0_combout $end
$var wire 1 P inst|FF|D5|Q~q $end
$var wire 1 Q inst|FF|D6|Q~0_combout $end
$var wire 1 R inst|FF|D6|Q~q $end
$var wire 1 S inst|FF|D7|Q~0_combout $end
$var wire 1 T inst|FF|D7|Q~q $end
$var wire 1 U inst|D[8]~0_combout $end
$var wire 1 V inst|z~0_combout $end
$upscope $end
$upscope $end
$enddefinitions $end
#0
$dumpvars
0!
1"
0#
0,
0+
0*
0)
0(
0'
0&
0%
0$
0-
0.
1/
x0
11
12
13
04
05
06
07
08
09
0:
0;
0<
0=
0>
0?
1@
0A
0B
0C
1D
0E
0F
0G
0H
0I
0J
0K
1L
1M
0N
0O
0P
0Q
0R
0S
0T
0U
0V
$end
#10000
1!
1?
1N
1E
1<
1=
1C
0L
1,
1+
1F
0D
#20000
0!
0?
#30000
1!
1?
1G
0E
0<
1;
1*
0+
1H
0F
#40000
0"
0!
0@
0?
0M
0H
#50000
1!
1?
0N
0G
0;
0=
0C
1L
0,
0*
#60000
0!
0?
#70000
1!
1?
#80000
1"
0!
1@
0?
1M
1D
#90000
1!
1?
1N
1E
1<
1=
1C
0L
1,
1+
1F
0D
#100000
0!
0?
#110000
1!
1?
1G
0E
0<
1;
1*
0+
1H
0F
#120000
0!
0?
#130000
1!
1?
1I
0G
0;
1:
1)
0*
1V
1J
0H
14
1-
#140000
0!
0?
#150000
1!
1?
1K
0I
0:
19
1(
0)
#160000
0!
0?
#170000
1#
1!
1>
1?
0V
1O
0J
04
0-
#180000
0!
0?
#190000
1!
1?
1P
0K
09
18
0C
1L
1'
0(
1Q
0O
#200000
0!
0?
#210000
1!
1?
1R
0P
08
17
1C
1&
0'
1S
0Q
#220000
0!
0?
#230000
1!
1?
1T
0R
07
16
1U
0C
1%
0&
1A
0S
0M
1V
1M
14
1-
#240000
0!
0?
#250000
1!
1?
0T
1B
15
06
0%
1$
#260000
0!
0?
#270000
1!
1?
#280000
0#
0!
0>
0?
0U
1D
0A
0V
04
0-
#290000
1!
1?
1E
0B
05
1<
0L
1C
1+
0$
1F
0D
#300000
0!
0?
#310000
1!
1?
1G
0E
0<
1;
1*
0+
1H
0F
#320000
0!
0?
#330000
1!
1?
1I
0G
0;
1:
1)
0*
1V
1J
0H
14
1-
#340000
0!
0?
#350000
1!
1?
1K
0I
0:
19
1(
0)
#360000
0"
0!
0@
0?
0M
0J
#370000
1!
1?
0N
0K
09
0=
0C
1L
0,
0(
0V
04
0-
#380000
0!
0?
#390000
1!
1?
#400000
0!
0?
#410000
1!
1?
#420000
0!
0?
#430000
1"
1!
1@
1?
1M
1D
#440000
0!
0?
#450000
1!
1?
1N
1E
1<
1=
1C
0L
1,
1+
1F
0D
#460000
0!
0?
#470000
1!
1?
1G
0E
0<
1;
1*
0+
1H
0F
#480000
1#
0!
1>
0?
1O
0H
#490000
1!
1?
1P
0G
0;
18
0C
1L
1'
0*
1Q
0O
#500000
0!
0?
#510000
1!
1?
1R
0P
08
17
1C
1&
0'
1S
0Q
#520000
0!
0?
#530000
1!
1?
1T
0R
07
16
1U
0C
1%
0&
1A
0S
0M
1V
1M
14
1-
#540000
0!
0?
#550000
1!
1?
0T
1B
15
06
0%
1$
#560000
0#
0!
0>
0?
0U
1D
0A
0V
04
0-
#570000
1!
1?
1E
0B
05
1<
0L
1C
1+
0$
1F
0D
#580000
0!
0?
#590000
1!
1?
1G
0E
0<
1;
1*
0+
1H
0F
#600000
0!
0?
#610000
1!
1?
1I
0G
0;
1:
1)
0*
1V
1J
0H
14
1-
#620000
0!
0?
#630000
1!
1?
1K
0I
0:
19
1(
0)
#640000
0!
0?
#650000
1!
1?
#660000
0!
0?
#670000
1!
1?
#680000
0!
0?
#690000
1!
1?
#700000
0!
0?
#710000
1!
1?
#720000
0!
0?
#730000
1!
1?
#740000
0!
0?
#750000
1#
1!
1>
1?
0V
1O
0J
04
0-
#760000
0!
0?
#770000
1!
1?
1P
0K
09
18
0C
1L
1'
0(
1Q
0O
#780000
0"
0!
0@
0?
0Q
0M
#790000
1!
1?
0P
0N
0=
08
0'
0,
#800000
0!
0?
#810000
1!
1?
#820000
1"
0!
1@
0?
1O
1M
#830000
1!
1?
1P
1N
1=
18
1'
1,
1Q
0O
#840000
0#
0!
0>
0?
0Q
1D
#850000
1!
1?
0P
1E
1<
08
1C
0L
0'
1+
1F
0D
#860000
0!
0?
#870000
1!
1?
1G
0E
0<
1;
1*
0+
1H
0F
#880000
0!
0?
#890000
1!
1?
1I
0G
0;
1:
1)
0*
1V
1J
0H
14
1-
#900000
0!
0?
#910000
1!
1?
1K
0I
0:
19
1(
0)
#920000
0!
0?
#930000
1!
1?
#940000
0!
0?
#950000
1!
1?
#960000
0!
0?
#970000
1!
1?
#980000
0!
0?
#990000
1!
1?
