Lab8/simulation/qsim/Lab8.msim.vcd
$comment
	File created using the following command:
		vcd file Lab8.msim.vcd -direction
$end
$date
	Fri Dec 16 12:54:18 2022
$end
$version
	ModelSim Version 2020.1
$end
$timescale
	1ps
$end

$scope module two_port_ram_test_vlg_vec_tst $end
$var reg 1 ! clock $end
$var reg 4 " data [3:0] $end
$var reg 5 # rdaddress [4:0] $end
$var reg 5 $ wraddress [4:0] $end
$var reg 1 % wren $end
$var wire 1 & q [3] $end
$var wire 1 ' q [2] $end
$var wire 1 ( q [1] $end
$var wire 1 ) q [0] $end

$scope module i1 $end
$var wire 1 * gnd $end
$var wire 1 + vcc $end
$var wire 1 , unknown $end
$var tri1 1 - devclrn $end
$var tri1 1 . devpor $end
$var tri1 1 / devoe $end
$var wire 1 0 q[3]~output_o $end
$var wire 1 1 q[2]~output_o $end
$var wire 1 2 q[1]~output_o $end
$var wire 1 3 q[0]~output_o $end
$var wire 1 4 wren~input_o $end
$var wire 1 5 clock~input_o $end
$var wire 1 6 data[3]~input_o $end
$var wire 1 7 wraddress[0]~input_o $end
$var wire 1 8 wraddress[1]~input_o $end
$var wire 1 9 wraddress[2]~input_o $end
$var wire 1 : wraddress[3]~input_o $end
$var wire 1 ; wraddress[4]~input_o $end
$var wire 1 < rdaddress[0]~input_o $end
$var wire 1 = rdaddress[1]~input_o $end
$var wire 1 > rdaddress[2]~input_o $end
$var wire 1 ? rdaddress[3]~input_o $end
$var wire 1 @ rdaddress[4]~input_o $end
$var wire 1 A data[2]~input_o $end
$var wire 1 B data[1]~input_o $end
$var wire 1 C data[0]~input_o $end
$var wire 1 D inst|altsyncram_component|auto_generated|q_b [3] $end
$var wire 1 E inst|altsyncram_component|auto_generated|q_b [2] $end
$var wire 1 F inst|altsyncram_component|auto_generated|q_b [1] $end
$var wire 1 G inst|altsyncram_component|auto_generated|q_b [0] $end
$var wire 1 H inst|altsyncram_component|auto_generated|ram_block1a3_PORTBDATAOUT_bus [0] $end
$var wire 1 I inst|altsyncram_component|auto_generated|ram_block1a2_PORTBDATAOUT_bus [0] $end
$var wire 1 J inst|altsyncram_component|auto_generated|ram_block1a1_PORTBDATAOUT_bus [0] $end
$var wire 1 K inst|altsyncram_component|auto_generated|ram_block1a0_PORTBDATAOUT_bus [0] $end
$upscope $end
$upscope $end
$enddefinitions $end
#0
$dumpvars
0!
b0 "
b0 #
b0 $
0%
0)
0(
0'
0&
0*
1+
x,
1-
1.
1/
00
01
02
03
04
05
06
07
08
09
0:
0;
0<
0=
0>
0?
0@
0A
0B
0C
0G
0F
0E
0D
0H
0I
0J
0K
$end
#5000
1!
15
#10000
0!
05
#15000
1!
15
#20000
b1 #
0!
1<
05
#25000
1!
15
#25001
1K
1G
13
1)
#30000
0!
05
#35000
1!
15
#40000
b11 #
b10 #
0!
0<
1=
05
#45000
1!
15
#45001
1J
0K
1F
0G
03
12
1(
0)
#50000
0!
05
#55000
1!
15
#60000
b11 #
0!
1<
05
#65000
1!
15
#65001
1K
1G
13
1)
#70000
0!
05
#75000
1!
15
#80000
b111 #
b101 #
b100 #
0!
0<
0=
1>
05
#85000
1!
15
#85001
1I
0J
0K
1E
0F
0G
03
02
11
1'
0(
0)
#90000
0!
05
#95000
1!
15
#100000
b101 #
0!
1<
05
#105000
1!
15
#105001
1K
1G
13
1)
#110000
0!
05
#115000
1!
15
#120000
b111 #
b110 #
0!
0<
1=
05
#125000
1!
15
#125001
1J
0K
1F
0G
03
12
1(
0)
#130000
0!
05
#135000
1!
15
#140000
b111 #
0!
1<
05
#145000
1!
15
#145001
1K
1G
13
1)
#150000
0!
05
#155000
1!
15
#160000
b1111 #
b1011 #
b1001 #
b1000 #
0!
0<
0=
0>
1?
05
#165000
1!
15
#165001
1H
0I
0J
0K
1D
0E
0F
0G
03
02
01
10
1&
0'
0(
0)
#170000
0!
05
#175000
1!
15
#180000
b1001 #
0!
1<
05
#185000
1!
15
#185001
1K
1G
13
1)
#190000
0!
05
#195000
1!
15
#200000
b1011 #
b1010 #
0!
0<
1=
05
#205000
1!
15
#205001
1J
0K
1F
0G
03
12
1(
0)
#210000
0!
05
#215000
1!
15
#220000
b1011 #
0!
1<
05
#225000
1!
15
#225001
1K
1G
13
1)
#230000
0!
05
#235000
1!
15
#240000
b1111 #
b1101 #
b1100 #
0!
0<
0=
1>
05
#245000
1!
15
#245001
1I
0J
0K
1E
0F
0G
03
02
11
1'
0(
0)
#250000
0!
05
#255000
1!
15
#260000
b1101 #
0!
1<
05
#265000
1!
15
#265001
1K
1G
13
1)
#270000
0!
05
#275000
1!
15
#280000
b1111 #
b1110 #
0!
0<
1=
05
#285000
1!
15
#285001
1J
0K
1F
0G
03
12
1(
0)
#290000
0!
05
#295000
1!
15
#300000
b1111 #
0!
1<
05
#305000
1!
15
#305001
1K
1G
13
1)
#310000
0!
05
#315000
1!
15
#320000
b11111 #
b10111 #
b10011 #
b10001 #
b10000 #
0!
0<
0=
0>
0?
1@
05
#325000
1!
15
#325001
0H
0I
0J
0K
0D
0E
0F
0G
03
02
01
00
0&
0'
0(
0)
#330000
b1 "
b10000 $
b0 #
0!
0@
1;
1C
05
#335000
1!
15
#340000
1%
0!
14
05
#345000
1!
15
#350000
b11 "
b10001 $
b10 "
0!
17
0C
1B
05
#355000
1!
15
#360000
0!
05
#365000
1!
15
#370000
b10011 $
b10010 $
b11 "
0!
1C
07
18
05
#375000
1!
15
#380000
0!
05
#385000
1!
15
#390000
b111 "
b101 "
b10011 $
b100 "
0!
17
0C
0B
1A
05
#395000
1!
15
#400000
0!
05
#405000
1!
15
#410000
b10111 $
b10101 $
b10100 $
b101 "
0!
1C
07
08
19
05
#415000
1!
15
#420000
0!
05
#425000
1!
15
#430000
b111 "
b10101 $
b110 "
0!
17
0C
1B
05
#435000
1!
15
#440000
0!
05
#445000
1!
15
#450000
b10111 $
b10110 $
b111 "
0!
1C
07
18
05
#455000
1!
15
#460000
0!
05
#465000
1!
15
#470000
b1111 "
b1011 "
b1001 "
b10111 $
b1000 "
0!
17
0C
0B
0A
16
05
#475000
1!
15
#480000
0!
05
#485000
1!
15
#490000
b11111 $
b11011 $
b11001 $
b11000 $
b1001 "
0!
1C
07
08
09
1:
05
#495000
1!
15
#500000
0!
05
#505000
1!
15
#510000
b1011 "
b11001 $
b1010 "
0!
17
0C
1B
05
#515000
1!
15
#520000
0!
05
#525000
1!
15
#530000
b11011 $
b11010 $
b1011 "
0!
1C
07
18
05
#535000
1!
15
#540000
0!
05
#545000
1!
15
#550000
b1111 "
b1101 "
b11011 $
b1100 "
0!
17
0C
0B
1A
05
#555000
1!
15
#560000
0!
05
#565000
1!
15
#570000
b11111 $
b11101 $
b11100 $
b1101 "
0!
1C
07
08
19
05
#575000
1!
15
#580000
0!
05
#585000
1!
15
#590000
b1111 "
b11101 $
b1110 "
0!
17
0C
1B
05
#595000
1!
15
#600000
0!
05
#605000
1!
15
#610000
b11111 $
b11110 $
b1111 "
0!
1C
07
18
05
#615000
1!
15
#620000
0!
05
#625000
1!
15
#630000
b111 "
b11 "
b1 "
b11111 $
b0 "
0!
17
0C
0B
0A
06
05
#635000
1!
15
#640000
0!
05
#645000
1!
15
#650000
b1111 $
b111 $
b11 $
b1 $
b0 $
b1 "
0!
1C
07
08
09
0:
0;
05
#655000
1!
15
#660000
0!
05
#665000
1!
15
#665001
1K
1G
13
1)
#670000
b11 "
b1 $
b10 "
0!
17
0C
1B
05
#675000
1!
15
#680000
0!
05
#685000
1!
15
#690000
b10000 #
0%
b0 "
b0 $
0!
04
07
0B
1@
05
#695000
1!
15
#700000
0!
05
#705000
1!
15
#710000
b10001 #
0!
1<
05
#715000
1!
15
#715001
1J
0K
1F
0G
03
12
1(
0)
#720000
0!
05
#725000
1!
15
#730000
b10011 #
b10010 #
0!
0<
1=
05
#735000
1!
15
#735001
1K
1G
13
1)
#740000
0!
05
#745000
1!
15
#750000
b10011 #
0!
1<
05
#755000
1!
15
#755001
1I
0J
0K
1E
0F
0G
03
02
11
1'
0(
0)
#760000
0!
05
#765000
1!
15
#770000
b10111 #
b10101 #
b10100 #
0!
0<
0=
1>
05
#775000
1!
15
#775001
1K
1G
13
1)
#780000
0!
05
#785000
1!
15
#790000
b10101 #
0!
1<
05
#795000
1!
15
#795001
1J
0K
1F
0G
03
12
1(
0)
#800000
0!
05
#805000
1!
15
#810000
b10111 #
b10110 #
0!
0<
1=
05
#815000
1!
15
#815001
1K
1G
13
1)
#820000
0!
05
#825000
1!
15
#830000
b10111 #
0!
1<
05
#835000
1!
15
#835001
1H
0I
0J
0K
1D
0E
0F
0G
03
02
01
10
1&
0'
0(
0)
#840000
0!
05
#845000
1!
15
#850000
b11111 #
b11011 #
b11001 #
b11000 #
0!
0<
0=
0>
1?
05
#855000
1!
15
#855001
1K
1G
13
1)
#860000
0!
05
#865000
1!
15
#870000
b11001 #
0!
1<
05
#875000
1!
15
#875001
1J
0K
1F
0G
03
12
1(
0)
#880000
0!
05
#885000
1!
15
#890000
b11011 #
b11010 #
0!
0<
1=
05
#895000
1!
15
#895001
1K
1G
13
1)
#900000
0!
05
#905000
1!
15
#910000
b11011 #
0!
1<
05
#915000
1!
15
#915001
1I
0J
0K
1E
0F
0G
03
02
11
1'
0(
0)
#920000
0!
05
#925000
1!
15
#930000
b11111 #
b11101 #
b11100 #
0!
0<
0=
1>
05
#935000
1!
15
#935001
1K
1G
13
1)
#940000
0!
05
#945000
1!
15
#950000
b11101 #
0!
1<
05
#955000
1!
15
#955001
1J
0K
1F
0G
03
12
1(
0)
#960000
0!
05
#965000
1!
15
#970000
b11111 #
b11110 #
0!
0<
1=
05
#975000
1!
15
#975001
1K
1G
13
1)
#980000
0!
05
#985000
1!
15
#990000
b11111 #
0!
1<
05
#995000
1!
15
#995001
0H
0I
0J
0K
0D
0E
0F
0G
03
02
01
00
0&
0'
0(
0)
