Lab8/simulation/qsim/Lab8.msim.vcd
$comment
	File created using the following command:
		vcd file Lab8.msim.vcd -direction
$end
$date
	Fri Dec 16 03:03:54 2022
$end
$version
	ModelSim Version 2020.1
$end
$timescale
	1ps
$end

$scope module part1_vlg_vec_tst $end
$var reg 5 ! Address [4:0] $end
$var reg 1 " Clock $end
$var reg 4 # DataIn [3:0] $end
$var reg 1 $ Write $end
$var wire 1 % DataOut [3] $end
$var wire 1 & DataOut [2] $end
$var wire 1 ' DataOut [1] $end
$var wire 1 ( DataOut [0] $end

$scope module i1 $end
$var wire 1 ) gnd $end
$var wire 1 * vcc $end
$var wire 1 + unknown $end
$var tri1 1 , devclrn $end
$var tri1 1 - devpor $end
$var tri1 1 . devoe $end
$var wire 1 / DataOut[0]~output_o $end
$var wire 1 0 DataOut[1]~output_o $end
$var wire 1 1 DataOut[2]~output_o $end
$var wire 1 2 DataOut[3]~output_o $end
$var wire 1 3 Write~input_o $end
$var wire 1 4 Clock~input_o $end
$var wire 1 5 DataIn[0]~input_o $end
$var wire 1 6 Address[0]~input_o $end
$var wire 1 7 Address[1]~input_o $end
$var wire 1 8 Address[2]~input_o $end
$var wire 1 9 Address[3]~input_o $end
$var wire 1 : Address[4]~input_o $end
$var wire 1 ; DataIn[1]~input_o $end
$var wire 1 < DataIn[2]~input_o $end
$var wire 1 = DataIn[3]~input_o $end
$var wire 1 > R0|altsyncram_component|auto_generated|q_a [3] $end
$var wire 1 ? R0|altsyncram_component|auto_generated|q_a [2] $end
$var wire 1 @ R0|altsyncram_component|auto_generated|q_a [1] $end
$var wire 1 A R0|altsyncram_component|auto_generated|q_a [0] $end
$var wire 1 B R0|altsyncram_component|auto_generated|ram_block1a0_PORTADATAOUT_bus [0] $end
$var wire 1 C R0|altsyncram_component|auto_generated|ram_block1a1_PORTADATAOUT_bus [0] $end
$var wire 1 D R0|altsyncram_component|auto_generated|ram_block1a2_PORTADATAOUT_bus [0] $end
$var wire 1 E R0|altsyncram_component|auto_generated|ram_block1a3_PORTADATAOUT_bus [0] $end
$upscope $end
$upscope $end
$enddefinitions $end
#0
$dumpvars
b0 !
0"
b0 #
0$
0(
0'
0&
0%
0)
1*
x+
1,
1-
1.
0/
00
01
02
03
04
05
06
07
08
09
0:
0;
0<
0=
0A
0@
0?
0>
0B
0C
0D
0E
$end
#10000
1"
14
#20000
0"
04
#30000
b1 !
1$
1"
16
13
14
#40000
b1 #
0"
15
04
#50000
1"
14
#50001
1B
1A
1/
1(
#60000
b11 !
b10 !
0$
0"
06
17
03
04
#70000
1"
14
#70001
0B
0A
0/
0(
#80000
b11 #
b10 #
0"
05
1;
04
#90000
b11 !
1"
16
14
#100000
0"
04
#110000
1"
14
#120000
b111 !
b101 !
b11 #
b100 !
0"
15
06
07
18
04
#130000
1"
14
#140000
0"
04
#150000
b101 !
1"
16
14
#160000
b111 #
b101 #
b100 #
0"
05
0;
1<
04
#170000
1"
14
#180000
b111 !
b110 !
0"
06
17
04
#190000
1"
14
#200000
b101 #
0"
15
04
#210000
b111 !
1"
16
14
#220000
0"
04
#230000
1$
1"
13
14
#230001
1D
1B
1?
1A
1/
11
1&
1(
#240000
b1111 !
b1011 !
b111 #
b1001 !
b110 #
b1000 !
0"
05
1;
06
07
08
19
04
#250000
1"
14
#250001
1C
0B
1@
0A
0/
10
1'
0(
#260000
0"
04
#270000
b1001 !
1"
16
14
#280000
b111 #
0"
15
04
#290000
1"
14
#290001
1B
1A
1/
1(
#300000
0$
b1011 !
b1010 !
0"
03
06
17
04
#310000
1"
14
#310001
0D
0C
0B
0?
0@
0A
0/
00
01
0&
0'
0(
#320000
b1111 #
b1011 #
b1001 #
b1000 #
0"
05
0;
0<
1=
04
#330000
b1011 !
1"
16
14
#340000
0"
04
#350000
1"
14
#360000
b1111 !
b1101 !
b1001 #
b1100 !
0"
15
06
07
18
04
#370000
1"
14
#380000
0"
04
#390000
b1101 !
1"
16
14
#400000
b1011 #
b1010 #
0"
05
1;
04
#410000
1"
14
#420000
b1111 !
b1110 !
0"
06
17
04
#430000
1"
14
#440000
b1011 #
0"
15
04
#450000
b1111 !
1"
16
14
#460000
0"
04
#470000
1"
14
#480000
b11111 !
b10111 !
b1111 #
b10011 !
b1101 #
b10001 !
b1100 #
b10000 !
0"
05
0;
1<
06
07
08
09
1:
04
#490000
1"
14
#500000
0"
04
#510000
b10001 !
1"
16
14
#520000
1$
b1101 #
0"
13
15
04
#530000
1"
14
#530001
1E
1D
1B
1>
1?
1A
1/
11
12
1%
1&
1(
#540000
b10011 !
b10010 !
0"
06
17
04
#550000
1"
14
#560000
b1111 #
b1110 #
0"
05
1;
04
#570000
b10011 !
1"
16
14
#570001
1C
0B
1@
0A
0/
10
1'
0(
#580000
0$
0"
03
04
#590000
1"
14
#600000
b10111 !
b10101 !
b1111 #
b10100 !
0"
15
06
07
18
04
#610000
1"
14
#610001
0E
0D
0C
0>
0?
0@
00
01
02
0%
0&
0'
#620000
0"
04
#630000
b10101 !
1"
16
14
#640000
b111 #
b11 #
b1 #
b0 #
0"
05
0;
0<
0=
04
#650000
1"
14
#660000
b10111 !
b10110 !
0"
06
17
04
#670000
1"
14
#680000
b1 #
0"
15
04
#690000
b10111 !
1"
16
14
#700000
0"
04
#710000
1"
14
#720000
b11111 !
b11011 !
b11 #
b11001 !
b10 #
b11000 !
0"
05
1;
06
07
08
19
04
#730000
1"
14
#740000
0"
04
#750000
b11001 !
1"
16
14
#760000
b11 #
0"
15
04
#770000
1"
14
#780000
b11011 !
b11010 !
0"
06
17
04
#790000
1"
14
#800000
b111 #
b101 #
b100 #
0"
05
0;
1<
04
#810000
b11011 !
1"
16
14
#820000
0"
04
#830000
1"
14
#840000
b11111 !
b11101 !
b101 #
b11100 !
0"
15
06
07
18
04
#850000
1$
1"
13
14
#850001
1D
1B
1?
1A
1/
11
1&
1(
#860000
0"
04
#870000
b11101 !
1"
16
14
#880000
b111 #
b110 #
0"
05
1;
04
#890000
0$
1"
03
14
#900000
b11111 !
b11110 !
0"
06
17
04
#910000
1"
14
#910001
0D
0B
0?
0A
0/
01
0&
0(
#920000
b111 #
0"
15
04
#930000
b11111 !
1"
16
14
#940000
0"
04
#950000
1"
14
#960000
b1111 !
b1111 #
b111 !
b1011 #
b11 !
b1001 #
b1 !
b1000 #
b0 !
0"
05
0;
0<
1=
06
07
08
09
0:
04
#970000
1"
14
#980000
0"
04
#990000
b1 !
1"
16
14
#990001
1B
1A
1/
1(
