Lab11/simulation/qsim/Lab11.msim.vcd
$comment
	File created using the following command:
		vcd file Lab11.msim.vcd -direction
$end
$date
	Fri Dec 16 20:06:42 2022
$end
$version
	ModelSim Version 2020.1
$end
$timescale
	1ps
$end

$scope module Lab11Part2_vlg_vec_tst $end
$var reg 1 ! clock $end
$var reg 8 " data [7:0] $end
$var reg 1 # reset $end
$var reg 1 $ s $end
$var reg 8 % Tin [7:0] $end
$var reg 1 & wren $end
$var wire 1 ' addf [4] $end
$var wire 1 ( addf [3] $end
$var wire 1 ) addf [2] $end
$var wire 1 * addf [1] $end
$var wire 1 + addf [0] $end
$var wire 1 , done $end
$var wire 1 - found $end

$scope module i1 $end
$var wire 1 . gnd $end
$var wire 1 / vcc $end
$var wire 1 0 unknown $end
$var tri1 1 1 devclrn $end
$var tri1 1 2 devpor $end
$var tri1 1 3 devoe $end
$var wire 1 4 found~output_o $end
$var wire 1 5 done~output_o $end
$var wire 1 6 addf[4]~output_o $end
$var wire 1 7 addf[3]~output_o $end
$var wire 1 8 addf[2]~output_o $end
$var wire 1 9 addf[1]~output_o $end
$var wire 1 : addf[0]~output_o $end
$var wire 1 ; clock~input_o $end
$var wire 1 < s~input_o $end
$var wire 1 = Tin[0]~input_o $end
$var wire 1 > inst|Add2~4_combout $end
$var wire 1 ? inst|Add2~12_combout $end
$var wire 1 @ Tin[7]~input_o $end
$var wire 1 A wren~input_o $end
$var wire 1 B data[7]~input_o $end
$var wire 1 C inst|Selector22~0_combout $end
$var wire 1 D inst|Selector23~0_combout $end
$var wire 1 E inst|Add1~1 $end
$var wire 1 F inst|Add1~2_combout $end
$var wire 1 G inst|Add1~13_combout $end
$var wire 1 H data[6]~input_o $end
$var wire 1 I inst|Add2~6_combout $end
$var wire 1 J inst|Add2~8_combout $end
$var wire 1 K inst|Add2~1 $end
$var wire 1 L inst|Add2~2_combout $end
$var wire 1 M inst|Add2~14_combout $end
$var wire 1 N inst|Add1~0_combout $end
$var wire 1 O inst|Add1~14_combout $end
$var wire 1 P inst|Add2~0_combout $end
$var wire 1 Q inst|Add2~13_combout $end
$var wire 1 R inst|Add0~1_cout $end
$var wire 1 S inst|Add0~3 $end
$var wire 1 T inst|Add0~5 $end
$var wire 1 U inst|Add0~7 $end
$var wire 1 V inst|Add0~9 $end
$var wire 1 W inst|Add0~10_combout $end
$var wire 1 X Tin[6]~input_o $end
$var wire 1 Y data[5]~input_o $end
$var wire 1 Z Tin[5]~input_o $end
$var wire 1 [ data[4]~input_o $end
$var wire 1 \ Tin[4]~input_o $end
$var wire 1 ] data[3]~input_o $end
$var wire 1 ^ Tin[3]~input_o $end
$var wire 1 _ data[2]~input_o $end
$var wire 1 ` Tin[2]~input_o $end
$var wire 1 a data[1]~input_o $end
$var wire 1 b Tin[1]~input_o $end
$var wire 1 c data[0]~input_o $end
$var wire 1 d inst|LessThan1~1_cout $end
$var wire 1 e inst|LessThan1~3_cout $end
$var wire 1 f inst|LessThan1~5_cout $end
$var wire 1 g inst|LessThan1~7_cout $end
$var wire 1 h inst|LessThan1~9_cout $end
$var wire 1 i inst|LessThan1~11_cout $end
$var wire 1 j inst|LessThan1~13_cout $end
$var wire 1 k inst|LessThan1~14_combout $end
$var wire 1 l inst|Selector17~0_combout $end
$var wire 1 m inst|Add0~2_combout $end
$var wire 1 n inst|LessThan2~1_cout $end
$var wire 1 o inst|LessThan2~3_cout $end
$var wire 1 p inst|LessThan2~5_cout $end
$var wire 1 q inst|LessThan2~7_cout $end
$var wire 1 r inst|LessThan2~9_cout $end
$var wire 1 s inst|LessThan2~11_cout $end
$var wire 1 t inst|LessThan2~13_cout $end
$var wire 1 u inst|LessThan2~14_combout $end
$var wire 1 v inst|Selector16~0_combout $end
$var wire 1 w inst|Add0~4_combout $end
$var wire 1 x inst|Selector24~0_combout $end
$var wire 1 y inst|Add2~3 $end
$var wire 1 z inst|Add2~5 $end
$var wire 1 { inst|Add2~7 $end
$var wire 1 | inst|Add2~9_combout $end
$var wire 1 } inst|Add2~11_combout $end
$var wire 1 ~ inst|Add0~8_combout $end
$var wire 1 !! inst|Selector26~0_combout $end
$var wire 1 "! inst|Add1~3 $end
$var wire 1 #! inst|Add1~5 $end
$var wire 1 $! inst|Add1~6_combout $end
$var wire 1 %! inst|Add1~11_combout $end
$var wire 1 &! inst|Add0~6_combout $end
$var wire 1 '! inst|Selector25~0_combout $end
$var wire 1 (! inst|Add1~4_combout $end
$var wire 1 )! inst|Add1~12_combout $end
$var wire 1 *! inst|LessThan0~1_combout $end
$var wire 1 +! inst|LessThan0~2_combout $end
$var wire 1 ,! inst|LessThan0~3_combout $end
$var wire 1 -! inst|Selector3~0_combout $end
$var wire 1 .! inst|Selector3~1_combout $end
$var wire 1 /! reset~input_o $end
$var wire 1 0! inst|y_Q.S5~q $end
$var wire 1 1! inst|Selector1~0_combout $end
$var wire 1 2! inst|y_Q.S1~q $end
$var wire 1 3! inst|T[7]~0_combout $end
$var wire 1 4! inst|Equal0~0_combout $end
$var wire 1 5! inst|Equal0~1_combout $end
$var wire 1 6! inst|Equal0~2_combout $end
$var wire 1 7! inst|Equal0~3_combout $end
$var wire 1 8! inst|Equal0~4_combout $end
$var wire 1 9! inst|Selector2~0_combout $end
$var wire 1 :! inst|y_Q.S2~q $end
$var wire 1 ;! inst|Selector27~0_combout $end
$var wire 1 <! inst|Add1~7 $end
$var wire 1 =! inst|Add1~8_combout $end
$var wire 1 >! inst|Add1~10_combout $end
$var wire 1 ?! inst|LessThan0~0_combout $end
$var wire 1 @! inst|Y_D.S3~0_combout $end
$var wire 1 A! inst|y_Q.S3~0_combout $end
$var wire 1 B! inst|y_Q.S3~q $end
$var wire 1 C! inst|y_Q.S4~q $end
$var wire 1 D! inst|Selector5~0_combout $end
$var wire 1 E! inst|Selector15~0_combout $end
$var wire 1 F! inst|Selector15~1_combout $end
$var wire 1 G! inst|found~combout $end
$var wire 1 H! inst|Selector6~0_combout $end
$var wire 1 I! inst|Selector7~0_combout $end
$var wire 1 J! inst|Selector8~0_combout $end
$var wire 1 K! inst|Selector9~0_combout $end
$var wire 1 L! inst|Selector0~0_combout $end
$var wire 1 M! inst1|altsyncram_component|auto_generated|q_a [7] $end
$var wire 1 N! inst1|altsyncram_component|auto_generated|q_a [6] $end
$var wire 1 O! inst1|altsyncram_component|auto_generated|q_a [5] $end
$var wire 1 P! inst1|altsyncram_component|auto_generated|q_a [4] $end
$var wire 1 Q! inst1|altsyncram_component|auto_generated|q_a [3] $end
$var wire 1 R! inst1|altsyncram_component|auto_generated|q_a [2] $end
$var wire 1 S! inst1|altsyncram_component|auto_generated|q_a [1] $end
$var wire 1 T! inst1|altsyncram_component|auto_generated|q_a [0] $end
$var wire 1 U! inst|addf [4] $end
$var wire 1 V! inst|addf [3] $end
$var wire 1 W! inst|addf [2] $end
$var wire 1 X! inst|addf [1] $end
$var wire 1 Y! inst|addf [0] $end
$var wire 1 Z! inst|T [7] $end
$var wire 1 [! inst|T [6] $end
$var wire 1 \! inst|T [5] $end
$var wire 1 ]! inst|T [4] $end
$var wire 1 ^! inst|T [3] $end
$var wire 1 _! inst|T [2] $end
$var wire 1 `! inst|T [1] $end
$var wire 1 a! inst|T [0] $end
$var wire 1 b! inst|L [4] $end
$var wire 1 c! inst|L [3] $end
$var wire 1 d! inst|L [2] $end
$var wire 1 e! inst|L [1] $end
$var wire 1 f! inst|L [0] $end
$var wire 1 g! inst|R [4] $end
$var wire 1 h! inst|R [3] $end
$var wire 1 i! inst|R [2] $end
$var wire 1 j! inst|R [1] $end
$var wire 1 k! inst|R [0] $end
$var wire 1 l! inst|m [7] $end
$var wire 1 m! inst|m [6] $end
$var wire 1 n! inst|m [5] $end
$var wire 1 o! inst|m [4] $end
$var wire 1 p! inst|m [3] $end
$var wire 1 q! inst|m [2] $end
$var wire 1 r! inst|m [1] $end
$var wire 1 s! inst|m [0] $end
$var wire 1 t! inst|addo [4] $end
$var wire 1 u! inst|addo [3] $end
$var wire 1 v! inst|addo [2] $end
$var wire 1 w! inst|addo [1] $end
$var wire 1 x! inst|addo [0] $end
$var wire 1 y! inst1|altsyncram_component|auto_generated|ram_block1a7_PORTADATAOUT_bus [0] $end
$var wire 1 z! inst1|altsyncram_component|auto_generated|ram_block1a6_PORTADATAOUT_bus [0] $end
$var wire 1 {! inst1|altsyncram_component|auto_generated|ram_block1a5_PORTADATAOUT_bus [0] $end
$var wire 1 |! inst1|altsyncram_component|auto_generated|ram_block1a4_PORTADATAOUT_bus [0] $end
$var wire 1 }! inst1|altsyncram_component|auto_generated|ram_block1a3_PORTADATAOUT_bus [0] $end
$var wire 1 ~! inst1|altsyncram_component|auto_generated|ram_block1a2_PORTADATAOUT_bus [0] $end
$var wire 1 !" inst1|altsyncram_component|auto_generated|ram_block1a1_PORTADATAOUT_bus [0] $end
$var wire 1 "" inst1|altsyncram_component|auto_generated|ram_block1a0_PORTADATAOUT_bus [0] $end
$upscope $end
$upscope $end
$enddefinitions $end
#0
$dumpvars
0!
b0 "
1#
0$
b100000 %
0&
0+
0*
0)
0(
0'
0,
0-
0.
1/
x0
11
12
13
04
05
06
07
08
09
0:
0;
0<
0=
1>
1?
0@
0A
0B
0C
1D
0E
0F
0G
0H
1I
1J
0K
1L
1M
1N
0O
1P
1Q
0R
1S
0T
1U
0V
0W
0X
0Y
1Z
0[
0\
0]
0^
0_
0`
0a
0b
0c
0d
1e
0f
1g
0h
0i
1j
1k
1l
1m
0n
1o
0p
1q
0r
1s
0t
0u
1v
1w
0x
1y
0z
1{
1|
1}
1~
0!!
1"!
0#!
0$!
0%!
1&!
0'!
0(!
0)!
0*!
0+!
0,!
0-!
0.!
1/!
00!
01!
02!
03!
14!
15!
06!
17!
08!
09!
0:!
0;!
1<!
0=!
0>!
0?!
1@!
0A!
0B!
0C!
0D!
0E!
1F!
0G!
0H!
0I!
0J!
0K!
0L!
0T!
0S!
0R!
0Q!
0P!
0O!
0N!
0M!
0Y!
0X!
0W!
0V!
0U!
0a!
0`!
0_!
0^!
0]!
1\!
0[!
0Z!
0f!
0e!
0d!
0c!
0b!
1k!
1j!
1i!
1h!
1g!
0s!
0r!
0q!
0p!
0o!
zn!
zm!
zl!
xx!
xw!
xv!
xu!
xt!
0y!
0z!
0{!
0|!
0}!
0~!
0!"
0""
$end
#10000
1!
1;
#10001
xy!
x""
x!"
x~!
x}!
x|!
x{!
xz!
xN!
xO!
xP!
xQ!
xR!
xS!
xT!
xM!
x7!
xt
xj
x6!
xi
xr
x5!
xq
xp
x4!
xo
xn
xu
xk
x8!
xs
xE!
#20000
0#
0!
0/!
0;
#30000
1!
1;
#40000
0!
0;
#50000
1$
1!
1<
1;
13!
19!
11!
#60000
0!
0;
#70000
1!
1;
1:!
12!
0F!
0@!
1'!
1!!
1x
1C
0v
0l
09!
1x!
0t!
1u!
1v!
1w!
1q!
1p!
1r!
1s!
1A!
1J!
1(!
1z
0>
1I!
1$!
0{
0I
1K!
0y
0L
1F
1L!
1K
0P
1E
0N
1I
0|
1>
1L
0"!
0F
1#!
0(!
0<!
0$!
1=!
#80000
0!
0;
#90000
1!
1;
0:!
1B!
1@!
0'!
0!!
0x
0D
0C
0A!
#90001
0y!
0""
0!"
0~!
0}!
1|!
0{!
0z!
0N!
0O!
1P!
0Q!
0R!
0S!
0T!
0M!
17!
06!
1s
0i
1r
15!
14!
0n
08!
0t
1j
1o
0E!
0u
1k
0p
1q
#100000
0!
0;
#110000
1!
1;
1C!
0B!
1D!
1>!
0}
1l
0Q
19!
1b!
1V
0~
1W
#120000
0!
0;
#130000
1!
1;
0C!
1:!
0D!
0>!
1}
0l
1Q
0@!
1;!
1'!
1x
1D
1C
09!
1t!
0u!
1o!
0p!
1A!
1H!
0=!
1|
0I!
1<!
1$!
0I
1=!
#140000
0!
0;
#150000
1!
1;
0:!
1B!
1@!
0;!
0'!
0x
0D
0C
0A!
#150001
1}!
1Q!
05!
0q
#160000
0!
0;
#170000
1!
1;
1C!
0B!
1D!
1>!
1%!
1l
0Q
0J
19!
1c!
1*!
0U
0&!
1~
#180000
0!
0;
#190000
1!
1;
0C!
1:!
0D!
0>!
0%!
0l
1Q
1J
0@!
1;!
1!!
1x
1D
1C
09!
1u!
0v!
1p!
0q!
1A!
1I!
0<!
0$!
1I
0J!
0#!
1(!
0>
0=!
1<!
1$!
1=!
#200000
0!
0;
#210000
1!
1;
0:!
1B!
1@!
0;!
0!!
0x
0D
0C
0A!
#210001
1~!
1R!
1p
#220000
0!
0;
#230000
1!
1;
1C!
0B!
1D!
1>!
1)!
1%!
1l
0Q
0?
19!
1d!
1T
0w
1&!
#240000
0!
0;
#250000
1!
1;
0C!
1:!
0D!
0>!
0)!
0%!
0l
1Q
1?
0@!
1;!
1'!
1!!
1D
1C
09!
1v!
0w!
1q!
0r!
1A!
1J!
1#!
0(!
1>
0K!
0L
1"!
1F
0<!
0$!
0#!
1(!
0=!
1<!
1$!
1=!
#260000
0!
0;
#270000
1!
1;
0:!
1B!
1@!
0;!
0'!
0!!
0D
0C
0A!
#270001
1!"
1S!
04!
0o
#280000
0!
0;
#290000
1!
1;
1C!
0B!
1D!
1>!
1)!
1%!
1l
0Q
0M
1G
19!
1e!
0S
0m
1w
#300000
0!
0;
#310000
1!
1;
0C!
1:!
0D!
0>!
0)!
0%!
0l
1Q
1M
0G
0@!
1;!
1'!
1!!
1x
1D
09!
0x!
1w!
1r!
0s!
1A!
1K!
1L
0"!
0F
0L!
0K
1P
0E
1N
1#!
0(!
0L
1"!
1F
0<!
0$!
0#!
1(!
0=!
1<!
1$!
1=!
#320000
0!
0;
#330000
1!
1;
0:!
1B!
1@!
0;!
0'!
0!!
0x
0D
0A!
#330001
1""
1T!
1n
#340000
0!
0;
#350000
1!
1;
1C!
0B!
1D!
1>!
1)!
1%!
1l
1O
0M
1G
19!
1f!
1R
1m
#360000
0!
0;
#370000
1!
1;
0C!
1:!
0D!
0>!
0)!
0%!
0l
0O
1M
0G
0@!
1;!
1'!
1!!
1x
1D
1C
09!
1x!
1s!
1A!
1L!
1K
0P
1E
0N
1L
0"!
0F
1#!
0(!
0<!
0$!
0=!
#380000
0!
0;
#390000
1!
1;
0:!
1B!
1@!
0;!
0'!
0!!
0x
0D
0C
0A!
#390001
0""
0!"
0~!
0}!
0|!
1{!
1O!
0P!
0Q!
0R!
0S!
0T!
16!
0s
1i
15!
14!
0n
18!
1t
0j
1o
1u
0k
0p
1q
0r
1s
0t
0u
1E!
#400000
0!
0;
#410000
1!
1;
1C!
0B!
1F!
1D!
1-!
0Q
1Y!
1X!
1W!
1V!
1U!
1G!
1.!
14
16
17
18
19
1:
1+
1*
1)
1(
1'
1-
#420000
0!
0;
#430000
1!
1;
0C!
10!
15
1Q
1,
#440000
0!
0;
#450000
1!
1;
#460000
0!
0;
#470000
1!
1;
#480000
0!
0;
#490000
1!
1;
#500000
0!
0;
#510000
1!
1;
#520000
0!
0;
#530000
1!
1;
#540000
0!
0;
#550000
1!
1;
#560000
0!
0;
#570000
1!
1;
#580000
0!
0;
#590000
1!
1;
#600000
0!
0;
#610000
1!
1;
#620000
0!
0;
#630000
1!
1;
#640000
0!
0;
#650000
1!
1;
#660000
0!
0;
#670000
1!
1;
#680000
0!
0;
#690000
1!
1;
#700000
0!
0;
#710000
1!
1;
#720000
0!
0;
#730000
1!
1;
#740000
0!
0;
#750000
1!
1;
#760000
0!
0;
#770000
1!
1;
#780000
0!
0;
#790000
1!
1;
#800000
0!
0;
#810000
1!
1;
#820000
0!
0;
#830000
1!
1;
#840000
0!
0;
#850000
1!
1;
#860000
0!
0;
#870000
1!
1;
#880000
0!
0;
#890000
1!
1;
#900000
0!
0;
#910000
1!
1;
#920000
0!
0;
#930000
1!
1;
#940000
0!
0;
#950000
1!
1;
#960000
0!
0;
#970000
1!
1;
#980000
0!
0;
#990000
1!
1;
