Lab9_and_Lab10/simulation/qsim/Lab9_and_Lab10.msim.vcd
$comment
	File created using the following command:
		vcd file Lab9_and_Lab10.msim.vcd -direction
$end
$date
	Fri Dec 16 21:36:46 2022
$end
$version
	ModelSim Version 2020.1
$end
$timescale
	1ps
$end

$scope module Lab9Part1_vlg_vec_tst $end
$var reg 1 ! Clock $end
$var reg 9 " DIN [8:0] $end
$var reg 1 # Resetn $end
$var reg 1 $ Run $end
$var wire 1 % BusWires [8] $end
$var wire 1 & BusWires [7] $end
$var wire 1 ' BusWires [6] $end
$var wire 1 ( BusWires [5] $end
$var wire 1 ) BusWires [4] $end
$var wire 1 * BusWires [3] $end
$var wire 1 + BusWires [2] $end
$var wire 1 , BusWires [1] $end
$var wire 1 - BusWires [0] $end
$var wire 1 . Done $end

$scope module i1 $end
$var wire 1 / gnd $end
$var wire 1 0 vcc $end
$var wire 1 1 unknown $end
$var tri1 1 2 devclrn $end
$var tri1 1 3 devpor $end
$var tri1 1 4 devoe $end
$var wire 1 5 Resetn~input_o $end
$var wire 1 6 Done~output_o $end
$var wire 1 7 BusWires[8]~output_o $end
$var wire 1 8 BusWires[7]~output_o $end
$var wire 1 9 BusWires[6]~output_o $end
$var wire 1 : BusWires[5]~output_o $end
$var wire 1 ; BusWires[4]~output_o $end
$var wire 1 < BusWires[3]~output_o $end
$var wire 1 = BusWires[2]~output_o $end
$var wire 1 > BusWires[1]~output_o $end
$var wire 1 ? BusWires[0]~output_o $end
$var wire 1 @ Clock~input_o $end
$var wire 1 A DIN[7]~input_o $end
$var wire 1 B Run~input_o $end
$var wire 1 C inst|Selector20~0_combout $end
$var wire 1 D DIN[8]~input_o $end
$var wire 1 E inst|Selector0~0_combout $end
$var wire 1 F inst|Tstep_D.T1_274~combout $end
$var wire 1 G inst|Tstep_Q.T1~q $end
$var wire 1 H inst|Selector1~0_combout $end
$var wire 1 I inst|Selector1~1_combout $end
$var wire 1 J inst|Tstep_D.T0_285~combout $end
$var wire 1 K inst|Tstep_Q.T0~0_combout $end
$var wire 1 L inst|Tstep_Q.T0~q $end
$var wire 1 M inst|Tstep_D.T2_264~combout $end
$var wire 1 N inst|Tstep_Q.T2~q $end
$var wire 1 O inst|Tstep_D.T3_257~combout $end
$var wire 1 P inst|Tstep_Q.T3~q $end
$var wire 1 Q inst|Selector18~0_combout $end
$var wire 1 R DIN[3]~input_o $end
$var wire 1 S DIN[4]~input_o $end
$var wire 1 T DIN[5]~input_o $end
$var wire 1 U inst|Selector11~0_combout $end
$var wire 1 V inst|Selector12~0_combout $end
$var wire 1 W inst|Ain~0_combout $end
$var wire 1 X inst|Selector6~0_combout $end
$var wire 1 Y inst|Gin~0_combout $end
$var wire 1 Z inst|DINout~0_combout $end
$var wire 1 [ DIN[6]~input_o $end
$var wire 1 \ DIN[0]~input_o $end
$var wire 1 ] inst|Selector2~2_combout $end
$var wire 1 ^ DIN[2]~input_o $end
$var wire 1 _ DIN[1]~input_o $end
$var wire 1 ` inst|Selector6~1_combout $end
$var wire 1 a inst|Selector5~0_combout $end
$var wire 1 b inst|Selector3~2_combout $end
$var wire 1 c inst|Selector5~1_combout $end
$var wire 1 d inst|Selector8~0_combout $end
$var wire 1 e inst|Selector8~1_combout $end
$var wire 1 f inst|Selector9~0_combout $end
$var wire 1 g inst|Selector9~1_combout $end
$var wire 1 h inst|Selector9~2_combout $end
$var wire 1 i inst|Equal6~0_combout $end
$var wire 1 j inst|Gout~0_combout $end
$var wire 1 k inst|Equal4~0_combout $end
$var wire 1 l inst|Selector7~0_combout $end
$var wire 1 m inst|Equal9~0_combout $end
$var wire 1 n inst|Equal9~1_combout $end
$var wire 1 o inst|Selector4~0_combout $end
$var wire 1 p inst|Selector4~1_combout $end
$var wire 1 q inst|Selector3~3_combout $end
$var wire 1 r inst|Selector3~4_combout $end
$var wire 1 s inst|Equal9~2_combout $end
$var wire 1 t inst|Selector2~4_combout $end
$var wire 1 u inst|Selector2~5_combout $end
$var wire 1 v inst|Equal9~3_combout $end
$var wire 1 w inst|Equal10~0_combout $end
$var wire 1 x inst|Equal10~1_combout $end
$var wire 1 y inst|Selector22~0_combout $end
$var wire 1 z inst|Selector10~0_combout $end
$var wire 1 { inst|Selector16~0_combout $end
$var wire 1 | inst|Selector2~3_combout $end
$var wire 1 } inst|Equal4~1_combout $end
$var wire 1 ~ inst|Selector7~1_combout $end
$var wire 1 !! inst|Equal7~0_combout $end
$var wire 1 "! inst|Equal5~0_combout $end
$var wire 1 #! inst|Equal5~1_combout $end
$var wire 1 $! inst|Equal11~0_combout $end
$var wire 1 %! inst|Equal11~1_combout $end
$var wire 1 &! inst|Selector22~1_combout $end
$var wire 1 '! inst|DINout~1_combout $end
$var wire 1 (! inst|Selector14~0_combout $end
$var wire 1 )! inst|Selector15~0_combout $end
$var wire 1 *! inst|Equal6~1_combout $end
$var wire 1 +! inst|Equal6~2_combout $end
$var wire 1 ,! inst|Equal7~1_combout $end
$var wire 1 -! inst|Equal7~2_combout $end
$var wire 1 .! inst|Selector22~5_combout $end
$var wire 1 /! inst|AddSub~0_combout $end
$var wire 1 0! inst|AS|LPM_ADD_SUB_component|auto_generated|_~0_combout $end
$var wire 1 1! inst|Selector23~1_combout $end
$var wire 1 2! inst|Selector24~1_combout $end
$var wire 1 3! inst|Selector25~1_combout $end
$var wire 1 4! inst|Selector26~0_combout $end
$var wire 1 5! inst|Selector26~1_combout $end
$var wire 1 6! inst|Equal8~0_combout $end
$var wire 1 7! inst|Selector13~0_combout $end
$var wire 1 8! inst|Selector26~2_combout $end
$var wire 1 9! inst|Selector27~1_combout $end
$var wire 1 :! inst|Selector28~0_combout $end
$var wire 1 ;! inst|Selector28~1_combout $end
$var wire 1 <! inst|Selector28~2_combout $end
$var wire 1 =! inst|Selector29~0_combout $end
$var wire 1 >! inst|Selector29~1_combout $end
$var wire 1 ?! inst|Selector29~2_combout $end
$var wire 1 @! inst|Selector30~0_combout $end
$var wire 1 A! inst|Selector30~1_combout $end
$var wire 1 B! inst|Selector30~2_combout $end
$var wire 1 C! inst|Equal1~0_combout $end
$var wire 1 D! inst|reg_G|Q[0]~10_cout $end
$var wire 1 E! inst|reg_G|Q[0]~11_combout $end
$var wire 1 F! inst|Selector30~3_combout $end
$var wire 1 G! inst|Equal4~2_combout $end
$var wire 1 H! inst|Equal4~3_combout $end
$var wire 1 I! inst|Selector17~0_combout $end
$var wire 1 J! inst|Selector30~4_combout $end
$var wire 1 K! inst|Selector30~5_combout $end
$var wire 1 L! inst|Selector30~6_combout $end
$var wire 1 M! inst|AS|LPM_ADD_SUB_component|auto_generated|_~8_combout $end
$var wire 1 N! inst|reg_G|Q[0]~12 $end
$var wire 1 O! inst|reg_G|Q[1]~13_combout $end
$var wire 1 P! inst|Selector29~3_combout $end
$var wire 1 Q! inst|Selector29~4_combout $end
$var wire 1 R! inst|Selector29~5_combout $end
$var wire 1 S! inst|Selector29~6_combout $end
$var wire 1 T! inst|AS|LPM_ADD_SUB_component|auto_generated|_~7_combout $end
$var wire 1 U! inst|reg_G|Q[1]~14 $end
$var wire 1 V! inst|reg_G|Q[2]~15_combout $end
$var wire 1 W! inst|Selector28~3_combout $end
$var wire 1 X! inst|Selector28~4_combout $end
$var wire 1 Y! inst|Selector28~5_combout $end
$var wire 1 Z! inst|Selector28~6_combout $end
$var wire 1 [! inst|AS|LPM_ADD_SUB_component|auto_generated|_~6_combout $end
$var wire 1 \! inst|reg_G|Q[2]~16 $end
$var wire 1 ]! inst|reg_G|Q[3]~17_combout $end
$var wire 1 ^! inst|Selector27~2_combout $end
$var wire 1 _! inst|Equal8~1_combout $end
$var wire 1 `! inst|Selector27~3_combout $end
$var wire 1 a! inst|Selector27~4_combout $end
$var wire 1 b! inst|Selector27~5_combout $end
$var wire 1 c! inst|Selector27~6_combout $end
$var wire 1 d! inst|Selector27~0_combout $end
$var wire 1 e! inst|AS|LPM_ADD_SUB_component|auto_generated|_~5_combout $end
$var wire 1 f! inst|reg_G|Q[3]~18 $end
$var wire 1 g! inst|reg_G|Q[4]~19_combout $end
$var wire 1 h! inst|Selector26~3_combout $end
$var wire 1 i! inst|Selector26~4_combout $end
$var wire 1 j! inst|Selector26~5_combout $end
$var wire 1 k! inst|Selector26~6_combout $end
$var wire 1 l! inst|AS|LPM_ADD_SUB_component|auto_generated|_~4_combout $end
$var wire 1 m! inst|reg_G|Q[4]~20 $end
$var wire 1 n! inst|reg_G|Q[5]~21_combout $end
$var wire 1 o! inst|Selector25~2_combout $end
$var wire 1 p! inst|Selector25~3_combout $end
$var wire 1 q! inst|Selector25~4_combout $end
$var wire 1 r! inst|Selector25~5_combout $end
$var wire 1 s! inst|Selector25~6_combout $end
$var wire 1 t! inst|Selector25~0_combout $end
$var wire 1 u! inst|AS|LPM_ADD_SUB_component|auto_generated|_~3_combout $end
$var wire 1 v! inst|reg_G|Q[5]~22 $end
$var wire 1 w! inst|reg_G|Q[6]~23_combout $end
$var wire 1 x! inst|Selector24~2_combout $end
$var wire 1 y! inst|Selector24~3_combout $end
$var wire 1 z! inst|Selector24~4_combout $end
$var wire 1 {! inst|Selector24~5_combout $end
$var wire 1 |! inst|Selector24~6_combout $end
$var wire 1 }! inst|Selector24~0_combout $end
$var wire 1 ~! inst|AS|LPM_ADD_SUB_component|auto_generated|_~2_combout $end
$var wire 1 !" inst|reg_G|Q[6]~24 $end
$var wire 1 "" inst|reg_G|Q[7]~25_combout $end
$var wire 1 #" inst|Selector23~2_combout $end
$var wire 1 $" inst|Selector23~3_combout $end
$var wire 1 %" inst|Selector23~4_combout $end
$var wire 1 &" inst|Selector23~5_combout $end
$var wire 1 '" inst|Selector23~6_combout $end
$var wire 1 (" inst|Selector23~0_combout $end
$var wire 1 )" inst|AS|LPM_ADD_SUB_component|auto_generated|_~1_combout $end
$var wire 1 *" inst|reg_G|Q[7]~26 $end
$var wire 1 +" inst|reg_G|Q[8]~27_combout $end
$var wire 1 ," inst|Selector22~2_combout $end
$var wire 1 -" inst|Selector22~3_combout $end
$var wire 1 ." inst|Selector22~4_combout $end
$var wire 1 /" inst|Selector22~6_combout $end
$var wire 1 0" inst|reg_6|Q [8] $end
$var wire 1 1" inst|reg_6|Q [7] $end
$var wire 1 2" inst|reg_6|Q [6] $end
$var wire 1 3" inst|reg_6|Q [5] $end
$var wire 1 4" inst|reg_6|Q [4] $end
$var wire 1 5" inst|reg_6|Q [3] $end
$var wire 1 6" inst|reg_6|Q [2] $end
$var wire 1 7" inst|reg_6|Q [1] $end
$var wire 1 8" inst|reg_6|Q [0] $end
$var wire 1 9" inst|reg_G|Q [8] $end
$var wire 1 :" inst|reg_G|Q [7] $end
$var wire 1 ;" inst|reg_G|Q [6] $end
$var wire 1 <" inst|reg_G|Q [5] $end
$var wire 1 =" inst|reg_G|Q [4] $end
$var wire 1 >" inst|reg_G|Q [3] $end
$var wire 1 ?" inst|reg_G|Q [2] $end
$var wire 1 @" inst|reg_G|Q [1] $end
$var wire 1 A" inst|reg_G|Q [0] $end
$var wire 1 B" inst|reg_4|Q [8] $end
$var wire 1 C" inst|reg_4|Q [7] $end
$var wire 1 D" inst|reg_4|Q [6] $end
$var wire 1 E" inst|reg_4|Q [5] $end
$var wire 1 F" inst|reg_4|Q [4] $end
$var wire 1 G" inst|reg_4|Q [3] $end
$var wire 1 H" inst|reg_4|Q [2] $end
$var wire 1 I" inst|reg_4|Q [1] $end
$var wire 1 J" inst|reg_4|Q [0] $end
$var wire 1 K" inst|reg_IR|Q [8] $end
$var wire 1 L" inst|reg_IR|Q [7] $end
$var wire 1 M" inst|reg_IR|Q [6] $end
$var wire 1 N" inst|reg_IR|Q [5] $end
$var wire 1 O" inst|reg_IR|Q [4] $end
$var wire 1 P" inst|reg_IR|Q [3] $end
$var wire 1 Q" inst|reg_IR|Q [2] $end
$var wire 1 R" inst|reg_IR|Q [1] $end
$var wire 1 S" inst|reg_IR|Q [0] $end
$var wire 1 T" inst|reg_0|Q [8] $end
$var wire 1 U" inst|reg_0|Q [7] $end
$var wire 1 V" inst|reg_0|Q [6] $end
$var wire 1 W" inst|reg_0|Q [5] $end
$var wire 1 X" inst|reg_0|Q [4] $end
$var wire 1 Y" inst|reg_0|Q [3] $end
$var wire 1 Z" inst|reg_0|Q [2] $end
$var wire 1 [" inst|reg_0|Q [1] $end
$var wire 1 \" inst|reg_0|Q [0] $end
$var wire 1 ]" inst|reg_1|Q [8] $end
$var wire 1 ^" inst|reg_1|Q [7] $end
$var wire 1 _" inst|reg_1|Q [6] $end
$var wire 1 `" inst|reg_1|Q [5] $end
$var wire 1 a" inst|reg_1|Q [4] $end
$var wire 1 b" inst|reg_1|Q [3] $end
$var wire 1 c" inst|reg_1|Q [2] $end
$var wire 1 d" inst|reg_1|Q [1] $end
$var wire 1 e" inst|reg_1|Q [0] $end
$var wire 1 f" inst|reg_5|Q [8] $end
$var wire 1 g" inst|reg_5|Q [7] $end
$var wire 1 h" inst|reg_5|Q [6] $end
$var wire 1 i" inst|reg_5|Q [5] $end
$var wire 1 j" inst|reg_5|Q [4] $end
$var wire 1 k" inst|reg_5|Q [3] $end
$var wire 1 l" inst|reg_5|Q [2] $end
$var wire 1 m" inst|reg_5|Q [1] $end
$var wire 1 n" inst|reg_5|Q [0] $end
$var wire 1 o" inst|reg_3|Q [8] $end
$var wire 1 p" inst|reg_3|Q [7] $end
$var wire 1 q" inst|reg_3|Q [6] $end
$var wire 1 r" inst|reg_3|Q [5] $end
$var wire 1 s" inst|reg_3|Q [4] $end
$var wire 1 t" inst|reg_3|Q [3] $end
$var wire 1 u" inst|reg_3|Q [2] $end
$var wire 1 v" inst|reg_3|Q [1] $end
$var wire 1 w" inst|reg_3|Q [0] $end
$var wire 1 x" inst|reg_7|Q [8] $end
$var wire 1 y" inst|reg_7|Q [7] $end
$var wire 1 z" inst|reg_7|Q [6] $end
$var wire 1 {" inst|reg_7|Q [5] $end
$var wire 1 |" inst|reg_7|Q [4] $end
$var wire 1 }" inst|reg_7|Q [3] $end
$var wire 1 ~" inst|reg_7|Q [2] $end
$var wire 1 !# inst|reg_7|Q [1] $end
$var wire 1 "# inst|reg_7|Q [0] $end
$var wire 1 ## inst|reg_2|Q [8] $end
$var wire 1 $# inst|reg_2|Q [7] $end
$var wire 1 %# inst|reg_2|Q [6] $end
$var wire 1 &# inst|reg_2|Q [5] $end
$var wire 1 '# inst|reg_2|Q [4] $end
$var wire 1 (# inst|reg_2|Q [3] $end
$var wire 1 )# inst|reg_2|Q [2] $end
$var wire 1 *# inst|reg_2|Q [1] $end
$var wire 1 +# inst|reg_2|Q [0] $end
$var wire 1 ,# inst|reg_A|Q [8] $end
$var wire 1 -# inst|reg_A|Q [7] $end
$var wire 1 .# inst|reg_A|Q [6] $end
$var wire 1 /# inst|reg_A|Q [5] $end
$var wire 1 0# inst|reg_A|Q [4] $end
$var wire 1 1# inst|reg_A|Q [3] $end
$var wire 1 2# inst|reg_A|Q [2] $end
$var wire 1 3# inst|reg_A|Q [1] $end
$var wire 1 4# inst|reg_A|Q [0] $end
$upscope $end
$upscope $end
$enddefinitions $end
#0
$dumpvars
0!
b0 "
0#
0$
0-
0,
0+
0*
0)
0(
0'
0&
0%
0.
0/
10
x1
12
13
14
05
06
07
08
09
0:
0;
0<
0=
0>
0?
0@
0A
0B
0C
0D
1E
0F
0G
1H
1I
1J
0K
0L
0M
0N
0O
0P
0Q
0R
0S
0T
0U
0V
0W
0X
0Y
0Z
0[
0\
0]
0^
0_
0`
0a
0b
0c
0d
0e
0f
0g
0h
1i
0j
1k
0l
1m
1n
0o
0p
0q
0r
0s
0t
0u
0v
0w
0x
0y
0z
0{
1|
1}
0~
1!!
0"!
0#!
0$!
0%!
0&!
0'!
0(!
0)!
0*!
0+!
0,!
0-!
0.!
0/!
00!
01!
02!
03!
04!
05!
06!
07!
08!
09!
0:!
0;!
0<!
0=!
0>!
0?!
0@!
0A!
0B!
0C!
0D!
0E!
0F!
0G!
0H!
0I!
0J!
0K!
0L!
0M!
1N!
0O!
0P!
0Q!
0R!
0S!
0T!
0U!
0V!
0W!
0X!
0Y!
0Z!
0[!
1\!
0]!
0^!
0_!
0`!
0a!
0b!
0c!
0d!
0e!
0f!
0g!
0h!
0i!
0j!
0k!
0l!
1m!
0n!
0o!
0p!
0q!
0r!
0s!
0t!
0u!
0v!
0w!
0x!
0y!
0z!
0{!
0|!
0}!
0~!
1!"
0""
0#"
0$"
0%"
0&"
0'"
0("
0)"
0*"
0+"
0,"
0-"
0."
0/"
08"
07"
06"
05"
04"
03"
02"
01"
00"
0A"
0@"
0?"
0>"
0="
0<"
0;"
0:"
09"
0J"
0I"
0H"
0G"
0F"
0E"
0D"
0C"
0B"
0S"
0R"
0Q"
0P"
0O"
0N"
0M"
0L"
0K"
0\"
0["
0Z"
0Y"
0X"
0W"
0V"
0U"
0T"
0e"
0d"
0c"
0b"
0a"
0`"
0_"
0^"
0]"
0n"
0m"
0l"
0k"
0j"
0i"
0h"
0g"
0f"
0w"
0v"
0u"
0t"
0s"
0r"
0q"
0p"
0o"
0"#
0!#
0~"
0}"
0|"
0{"
0z"
0y"
0x"
0+#
0*#
0)#
0(#
0'#
0&#
0%#
0$#
0##
04#
03#
02#
01#
00#
0/#
0.#
0-#
0,#
$end
#10000
1!
1@
#20000
1#
1$
b1000000 "
0!
15
1B
1[
0@
0H
1C
0I
1F
0J
1K
#30000
1!
1@
1M"
1L
1G
1'!
1H
0C
1Z
1Q
16
1x!
1I
0k
1z
1.
0F
1y!
1J
0}
0n
1z!
0!!
0K
1~!
1|!
19
1'
1w!
#40000
b1000100 "
b1000101 "
0$
b101 "
0!
0B
1\
1^
0[
0@
1F!
1W!
0x!
1J!
1X!
0y!
0z!
1L!
1Z!
1=
1?
0~!
1M!
1[!
1-
1+
0|!
09
0'
0w!
1E!
1V!
#50000
1!
1@
1"#
1~"
0L
0G
0'!
0Z
0Q
06
0W!
0F!
1k
0z
0.
0X!
0J!
1}
1n
1!!
0Z!
0L!
0?
0=
0[!
0M!
0+
0-
0V!
0E!
#60000
b1101 "
b1001 "
b1000 "
1$
0!
1B
0\
0^
1R
0@
0H
1C
0I
1F
0J
1K
#70000
1!
1@
0M"
1P"
1L
1G
1H
0C
1Z
1Q
16
1I
1]
1U
1.
0F
1J
0}
1u
0!!
1$!
0K
1%!
1A!
1;!
1L!
1Z!
1=
1?
1M!
1[!
1-
1+
1E!
1V!
#80000
0$
0!
0B
0@
#90000
1!
1@
18"
16"
0L
0G
0Z
0Q
06
0]
0U
0.
1}
0u
1!!
0$!
0%!
0A!
0;!
0L!
0Z!
0=
0?
0M!
0[!
0-
0+
0E!
0V!
#100000
b10001000 "
b10000000 "
b10000001 "
1$
0!
1B
1\
0R
1A
0@
0H
1C
0I
1F
0J
1K
#110000
1!
1@
1S"
0P"
1L"
1L
1G
1W
0C
1M
1t
0F
0}
1u
0!!
1$!
1%!
1A!
1;!
1L!
1Z!
1=
1?
1M!
1[!
1-
1+
1E!
1V!
#120000
0$
0!
0B
0@
#130000
1!
1@
14#
12#
1N
0G
0N!
0\!
1Y
0W
0E!
0V!
1O
0M
1b
0t
1O!
1]!
1r
1}
0u
0$!
1w
0%!
1x
0A!
0;!
1@!
1:!
#140000
1$
0!
1B
0@
#150000
1!
1@
1>"
1@"
1P
0N
1j
1I
0Y
1Q
0O
16
1^!
1P!
0k
1J
0b
1z
1.
1`!
1Q!
0}
0n
0r
0K
1a!
0x
0w
1S!
1>
1e!
0@!
0:!
1T!
1,
1c!
1<
1f!
1U!
1*
0]!
0L!
0Z!
0O!
0=
0?
0M!
0[!
0-
0+
1g!
1V!
1N!
1E!
0V!
0U!
1O!
1\!
1V!
0f!
1]!
0g!
#160000
0$
0!
0B
0@
#170000
1!
1@
0"#
1!#
0~"
1}"
0P
0L
0j
0I
1H
0Q
06
0^!
0P!
1k
0J
1I
0z
0.
0`!
0Q!
1}
1n
1J
1K
0a!
1!!
0S!
0K
0>
0e!
0T!
0,
0c!
0<
0*
0]!
0O!
#180000
b11000001 "
b11000000 "
1$
0!
1B
0\
1[
0@
0H
1C
0I
1F
0J
1K
#190000
1!
1@
0S"
1M"
1L
1G
1C!
0C
1W
1M
1t
0F
0}
1u
0!!
1$!
1%!
1>!
19!
1a!
1S!
1>
1e!
1T!
1,
1c!
1<
1*
1]!
1O!
#200000
b1000000 "
b0 "
0$
0!
0B
0[
0A
0@
#210000
1!
1@
04#
13#
02#
11#
1N
0G
1U!
1f!
1l!
1[!
0T!
1M!
1D!
1/!
1Y
0W
0E!
0O!
0V!
0]!
1O
0M
0\!
0m!
0U!
0N!
1)"
1~!
1u!
0e!
10!
1]
0t
1O!
1v!
1\!
1U!
1V!
0O!
1""
1w!
1+"
0!"
0f!
0\!
0w!
1]!
0V!
1*"
1m!
1f!
0""
1g!
0]!
0v!
0m!
0+"
1n!
0g!
1!"
1v!
1w!
0n!
0*"
0!"
1""
0w!
1*"
1+"
0""
0+"
#220000
1$
0!
1B
0@
#230000
1!
1@
0>"
0@"
1P
0N
1j
1I
0l!
0[!
1T!
0M!
0D!
0/!
0Y
1Q
0O
16
0k
1J
1m!
1\!
1N!
0)"
0~!
0u!
1e!
00!
0]
1z
1.
1g!
1V!
1O!
0%!
0n
0v!
0*"
1!"
0u
0K
0O!
1""
1w!
1+"
0>!
09!
0$!
0w!
0+"
0""
0a!
0S!
0>
0e!
0T!
0,
0c!
0<
0f!
0U!
0*
1]!
1O!
0g!
0V!
#240000
0$
0!
0B
0@
#250000
b100000000 "
b100100000 "
b100100010 "
b100100011 "
b110100011 "
b111100011 "
1!
1\
1_
1T
1[
1A
1D
1@
0!#
0}"
0P
0L
0j
0I
1H
0Q
06
1k
0J
1I
0z
0.
1}
1n
1J
1K
1!!
0K
#260000
b111110011 "
b111110111 "
1$
b111110110 "
b110110110 "
0!
1B
0\
1^
1S
0[
0@
0H
1C
0I
1F
0J
1K
#270000
1!
1@
1R"
1Q"
0M"
1N"
1O"
1L
1G
1K"
0|
0C!
0C
0E
#280000
b110111110 "
b110101110 "
0$
b110101111 "
b111101111 "
0!
0B
1\
1R
0S
1[
0@
#290000
1!
1@
#300000
b101101111 "
b101101011 "
b101100011 "
1$
b101100010 "
b100100010 "
0!
1B
0\
0^
0R
0[
0A
0@
#310000
1!
1@
#320000
b100010 "
b10 "
b0 "
b10000000 "
b10000100 "
b10001100 "
0$
b11001100 "
0!
0B
0_
1^
1R
0T
1[
1A
0D
0@
#330000
1!
1@
#340000
b11101100 "
b11101110 "
1$
0!
1B
1_
1T
0@
#350000
1!
1@
#360000
b11101010 "
b11001010 "
b11001000 "
0$
0!
0B
0_
0^
0T
0@
#370000
1!
1@
#380000
b11011000 "
b11010000 "
b11110000 "
1$
0!
1B
0R
1S
1T
0@
#390000
1!
1@
#400000
b11100000 "
0$
0!
0B
0S
0@
#410000
1!
1@
#420000
b11100001 "
b111100001 "
b111101001 "
b111001001 "
1$
0!
1B
1\
1R
0T
1D
0@
#430000
1!
1@
#440000
b101001001 "
b100001001 "
b100001101 "
b100001111 "
b1111 "
b101111 "
0$
0!
0B
1_
1^
1T
0[
0A
0D
0@
#450000
1!
1@
#460000
b111111 "
b10111111 "
b10111011 "
b10111001 "
1$
0!
1B
0_
0^
1S
1A
0@
#470000
1!
1@
#480000
b10110001 "
b11110001 "
b111110001 "
b111110101 "
b111110111 "
0$
0!
0B
1_
1^
0R
1[
1D
0@
#490000
1!
1@
#500000
b111110110 "
b111010110 "
b111000110 "
b101000110 "
b101001110 "
b1001110 "
b1001100 "
1$
0!
1B
0\
0_
1R
0S
0T
0A
0D
0@
#510000
1!
1@
#520000
b1001101 "
b1101101 "
b11101101 "
b111101101 "
b111101111 "
0$
0!
0B
1\
1_
1T
1A
1D
0@
#530000
1!
1@
#540000
b111111111 "
b111110111 "
b111110110 "
1$
0!
1B
0\
0R
1S
0@
#550000
1!
1@
#560000
b110110110 "
b110110010 "
b110010010 "
b110000010 "
0$
0!
0B
0^
0S
0T
0[
0@
#570000
1!
1@
#580000
b100000010 "
b100001010 "
b101001010 "
b101001110 "
b101101110 "
1$
0!
1B
1^
1R
1T
1[
0A
0@
#590000
1!
1@
#600000
b1101110 "
b1101100 "
b1111100 "
b1111000 "
b1011000 "
0$
0!
0B
0_
0^
1S
0T
0D
0@
#610000
1!
1@
#620000
b11011000 "
b10011000 "
b10011010 "
b10001010 "
1$
0!
1B
1_
0S
0[
1A
0@
#630000
1!
1@
#640000
b10000010 "
b110000010 "
b111000010 "
b111000000 "
b111010000 "
0$
0!
0B
0_
0R
1S
1[
1D
0@
#650000
1!
1@
#660000
b111010001 "
b111010101 "
b111110101 "
b101110101 "
b101111101 "
b101111111 "
b101101111 "
1$
0!
1B
1\
1_
1^
1R
0S
1T
0A
0@
#670000
1!
1@
#680000
b101101011 "
b101100011 "
b101100001 "
b101110001 "
0$
0!
0B
0_
0^
0R
1S
0@
#690000
1!
1@
#700000
b100110001 "
b100110101 "
b100100101 "
1$
0!
1B
1^
0S
0[
0@
#710000
1!
1@
#720000
b100100001 "
0$
0!
0B
0^
0@
#730000
1!
1@
#740000
b100100000 "
b100000000 "
b100010000 "
1$
0!
1B
0\
1S
0T
0@
#750000
1!
1@
#760000
b110010000 "
b110010010 "
b110010011 "
b110110011 "
b110100011 "
0$
0!
0B
1\
1_
0S
1T
1A
0@
#770000
1!
1@
#780000
b111100011 "
b111100111 "
b101100111 "
b101100101 "
b101000101 "
1$
0!
1B
0_
1^
0T
1[
0A
0@
#790000
1!
1@
#800000
b101010101 "
b100010101 "
b110010101 "
0$
0!
0B
1S
0[
1A
0@
#810000
1!
1@
#820000
b10010101 "
b10010001 "
b10110001 "
b11110001 "
b1110001 "
1$
0!
1B
0^
1T
1[
0A
0D
0@
#830000
1!
1@
#840000
b1111001 "
b1111101 "
b11111101 "
0$
0!
0B
1^
1R
1A
0@
#850000
1!
1@
#860000
b11111100 "
b11011100 "
b10011100 "
b11100 "
1$
0!
1B
0\
0T
0[
0A
0@
#870000
1!
1@
#880000
b1100 "
b100001100 "
b100000100 "
b100000101 "
0$
0!
0B
1\
0R
0S
1D
0@
#890000
1!
1@
#900000
b100000001 "
b100100001 "
b100001 "
b101001 "
b101000 "
1$
0!
1B
0\
0^
1R
1T
0D
0@
#910000
1!
1@
#920000
b1101000 "
b1111000 "
b1111100 "
b1011100 "
b1010100 "
0$
0!
0B
1^
0R
1S
0T
1[
0@
#930000
1!
1@
#940000
b101010100 "
b101110100 "
b101111100 "
1$
0!
1B
1R
1T
1D
0@
#950000
1!
1@
#960000
b111111100 "
b110111100 "
b110101100 "
0$
0!
0B
0S
0[
1A
0@
#970000
1!
1@
#980000
b110101000 "
b110001000 "
b110000000 "
b111000000 "
1$
0!
1B
0^
0R
0T
1[
0@
#990000
1!
1@
