Lab9_and_Lab10/simulation/qsim/Lab9_and_Lab10.msim.vcd
$comment
	File created using the following command:
		vcd file Lab9_and_Lab10.msim.vcd -direction
$end
$date
	Fri Dec 16 22:01:16 2022
$end
$version
	ModelSim Version 2020.1
$end
$timescale
	1ps
$end

$scope module Lab9Part1_vlg_vec_tst $end
$var reg 1 ! Clock $end
$var reg 9 " DIN [8:0] $end
$var reg 1 # Run $end
$var wire 1 $ BusWires [8] $end
$var wire 1 % BusWires [7] $end
$var wire 1 & BusWires [6] $end
$var wire 1 ' BusWires [5] $end
$var wire 1 ( BusWires [4] $end
$var wire 1 ) BusWires [3] $end
$var wire 1 * BusWires [2] $end
$var wire 1 + BusWires [1] $end
$var wire 1 , BusWires [0] $end
$var wire 1 - Done $end

$scope module i1 $end
$var wire 1 . gnd $end
$var wire 1 / vcc $end
$var wire 1 0 unknown $end
$var tri1 1 1 devclrn $end
$var tri1 1 2 devpor $end
$var tri1 1 3 devoe $end
$var wire 1 4 Done~output_o $end
$var wire 1 5 BusWires[8]~output_o $end
$var wire 1 6 BusWires[7]~output_o $end
$var wire 1 7 BusWires[6]~output_o $end
$var wire 1 8 BusWires[5]~output_o $end
$var wire 1 9 BusWires[4]~output_o $end
$var wire 1 : BusWires[3]~output_o $end
$var wire 1 ; BusWires[2]~output_o $end
$var wire 1 < BusWires[1]~output_o $end
$var wire 1 = BusWires[0]~output_o $end
$var wire 1 > Clock~input_o $end
$var wire 1 ? DIN[6]~input_o $end
$var wire 1 @ Run~input_o $end
$var wire 1 A DIN[8]~input_o $end
$var wire 1 B DIN[0]~input_o $end
$var wire 1 C DIN[4]~input_o $end
$var wire 1 D inst|Mux16~0_combout $end
$var wire 1 E inst|Rin[1]~0_combout $end
$var wire 1 F inst|Rin[7]~5_combout $end
$var wire 1 G inst|Mux16~1_combout $end
$var wire 1 H inst|Rin[2]~6_combout $end
$var wire 1 I inst|Rin[1]~7_combout $end
$var wire 1 J inst|Rin[0]~8_combout $end
$var wire 1 K inst|Mux16~2_combout $end
$var wire 1 L inst|Rin[3]~9_combout $end
$var wire 1 M inst|Mux16~3_combout $end
$var wire 1 N DIN[2]~input_o $end
$var wire 1 O inst|Mux17~0_combout $end
$var wire 1 P inst|Mux17~1_combout $end
$var wire 1 Q inst|Mux17~2_combout $end
$var wire 1 R inst|Mux17~3_combout $end
$var wire 1 S inst|Mux17~4_combout $end
$var wire 1 T inst|Add0~6_combout $end
$var wire 1 U inst|Add0~10_cout $end
$var wire 1 V inst|Add0~12 $end
$var wire 1 W inst|Add0~14 $end
$var wire 1 X inst|Add0~15_combout $end
$var wire 1 Y inst|Selector4~0_combout $end
$var wire 1 Z inst|Selector4~1_combout $end
$var wire 1 [ inst|Mux8~0_combout $end
$var wire 1 \ inst|Mux8~1_combout $end
$var wire 1 ] inst|Mux8~2_combout $end
$var wire 1 ^ inst|Mux8~3_combout $end
$var wire 1 _ inst|Mux8~4_combout $end
$var wire 1 ` inst|Selector4~3_combout $end
$var wire 1 a inst|Selector4~4_combout $end
$var wire 1 b inst|Selector11~0_combout $end
$var wire 1 c inst|Selector11~1_combout $end
$var wire 1 d inst|Mux16~4_combout $end
$var wire 1 e inst|Add0~5_combout $end
$var wire 1 f inst|Add0~16 $end
$var wire 1 g inst|Add0~17_combout $end
$var wire 1 h DIN[3]~input_o $end
$var wire 1 i inst|Mux7~0_combout $end
$var wire 1 j inst|Mux7~1_combout $end
$var wire 1 k inst|Mux7~2_combout $end
$var wire 1 l inst|Mux7~3_combout $end
$var wire 1 m inst|Mux7~4_combout $end
$var wire 1 n inst|Selector5~0_combout $end
$var wire 1 o inst|Selector5~1_combout $end
$var wire 1 p inst|Rin[0]~2_combout $end
$var wire 1 q inst|Rin[4]~4_combout $end
$var wire 1 r inst|Mux18~0_combout $end
$var wire 1 s inst|Mux18~1_combout $end
$var wire 1 t inst|Mux18~2_combout $end
$var wire 1 u inst|Mux18~3_combout $end
$var wire 1 v inst|Mux18~4_combout $end
$var wire 1 w inst|Add0~7_combout $end
$var wire 1 x inst|Add0~13_combout $end
$var wire 1 y DIN[1]~input_o $end
$var wire 1 z inst|Mux9~0_combout $end
$var wire 1 { inst|Mux9~1_combout $end
$var wire 1 | inst|Mux9~2_combout $end
$var wire 1 } inst|Mux9~3_combout $end
$var wire 1 ~ inst|Mux9~4_combout $end
$var wire 1 !! inst|Selector3~0_combout $end
$var wire 1 "! inst|Selector3~1_combout $end
$var wire 1 #! inst|Mux15~0_combout $end
$var wire 1 $! inst|Mux15~1_combout $end
$var wire 1 %! inst|Mux15~2_combout $end
$var wire 1 &! inst|Mux15~3_combout $end
$var wire 1 '! inst|Mux15~4_combout $end
$var wire 1 (! inst|Add0~4_combout $end
$var wire 1 )! inst|Add0~18 $end
$var wire 1 *! inst|Add0~19_combout $end
$var wire 1 +! inst|Mux6~0_combout $end
$var wire 1 ,! inst|Mux6~1_combout $end
$var wire 1 -! inst|Mux6~2_combout $end
$var wire 1 .! inst|Mux6~3_combout $end
$var wire 1 /! inst|Mux6~4_combout $end
$var wire 1 0! inst|Selector6~0_combout $end
$var wire 1 1! inst|Selector6~1_combout $end
$var wire 1 2! inst|Rin[6]~3_combout $end
$var wire 1 3! inst|Mux19~0_combout $end
$var wire 1 4! inst|Mux19~1_combout $end
$var wire 1 5! inst|Mux19~2_combout $end
$var wire 1 6! inst|Mux19~3_combout $end
$var wire 1 7! inst|Mux19~4_combout $end
$var wire 1 8! inst|Add0~8_combout $end
$var wire 1 9! inst|Add0~11_combout $end
$var wire 1 :! inst|Mux10~0_combout $end
$var wire 1 ;! inst|Mux10~1_combout $end
$var wire 1 <! inst|Mux10~2_combout $end
$var wire 1 =! inst|Mux10~3_combout $end
$var wire 1 >! inst|Mux10~4_combout $end
$var wire 1 ?! inst|Selector0~0_combout $end
$var wire 1 @! inst|Selector0~1_combout $end
$var wire 1 A! inst|Mux14~0_combout $end
$var wire 1 B! inst|Mux14~1_combout $end
$var wire 1 C! inst|Mux14~2_combout $end
$var wire 1 D! inst|Mux14~3_combout $end
$var wire 1 E! inst|Mux14~4_combout $end
$var wire 1 F! inst|Add0~3_combout $end
$var wire 1 G! inst|Add0~20 $end
$var wire 1 H! inst|Add0~21_combout $end
$var wire 1 I! DIN[5]~input_o $end
$var wire 1 J! inst|Mux5~0_combout $end
$var wire 1 K! inst|Mux5~1_combout $end
$var wire 1 L! inst|Mux5~2_combout $end
$var wire 1 M! inst|Mux5~3_combout $end
$var wire 1 N! inst|Mux5~4_combout $end
$var wire 1 O! inst|Selector7~0_combout $end
$var wire 1 P! inst|Selector7~1_combout $end
$var wire 1 Q! inst|Rin[5]~1_combout $end
$var wire 1 R! inst|Mux2~0_combout $end
$var wire 1 S! inst|Mux2~1_combout $end
$var wire 1 T! inst|Mux2~2_combout $end
$var wire 1 U! inst|Mux2~3_combout $end
$var wire 1 V! inst|Mux2~4_combout $end
$var wire 1 W! inst|Mux11~0_combout $end
$var wire 1 X! inst|Mux11~1_combout $end
$var wire 1 Y! inst|Mux11~2_combout $end
$var wire 1 Z! inst|Mux11~3_combout $end
$var wire 1 [! inst|Mux11~4_combout $end
$var wire 1 \! inst|Add0~0_combout $end
$var wire 1 ]! inst|Mux13~0_combout $end
$var wire 1 ^! inst|Mux13~1_combout $end
$var wire 1 _! inst|Mux13~2_combout $end
$var wire 1 `! inst|Mux13~3_combout $end
$var wire 1 a! inst|Mux13~4_combout $end
$var wire 1 b! inst|Add0~2_combout $end
$var wire 1 c! inst|Add0~22 $end
$var wire 1 d! inst|Add0~24 $end
$var wire 1 e! inst|Add0~26 $end
$var wire 1 f! inst|Add0~27_combout $end
$var wire 1 g! inst|Selector10~0_combout $end
$var wire 1 h! inst|Selector10~1_combout $end
$var wire 1 i! inst|Selector1~0_combout $end
$var wire 1 j! inst|Selector1~1_combout $end
$var wire 1 k! inst|Ystep_Q.T0~q $end
$var wire 1 l! inst|Ystep_D.T1~0_combout $end
$var wire 1 m! inst|Ystep_Q.T1~q $end
$var wire 1 n! inst|Selector4~2_combout $end
$var wire 1 o! inst|Add0~23_combout $end
$var wire 1 p! inst|Mux4~0_combout $end
$var wire 1 q! inst|Mux4~1_combout $end
$var wire 1 r! inst|Mux4~2_combout $end
$var wire 1 s! inst|Mux4~3_combout $end
$var wire 1 t! inst|Mux4~4_combout $end
$var wire 1 u! inst|Selector8~0_combout $end
$var wire 1 v! inst|Selector8~1_combout $end
$var wire 1 w! inst|Mux12~0_combout $end
$var wire 1 x! inst|Mux12~1_combout $end
$var wire 1 y! inst|Mux12~2_combout $end
$var wire 1 z! inst|Mux12~3_combout $end
$var wire 1 {! inst|Mux12~4_combout $end
$var wire 1 |! inst|Add0~1_combout $end
$var wire 1 }! inst|Add0~25_combout $end
$var wire 1 ~! DIN[7]~input_o $end
$var wire 1 !" inst|Mux3~0_combout $end
$var wire 1 "" inst|Mux3~1_combout $end
$var wire 1 #" inst|Mux3~2_combout $end
$var wire 1 $" inst|Mux3~3_combout $end
$var wire 1 %" inst|Mux3~4_combout $end
$var wire 1 &" inst|Selector9~0_combout $end
$var wire 1 '" inst|Selector9~1_combout $end
$var wire 1 (" inst|Ystep_D.T2~0_combout $end
$var wire 1 )" inst|Ystep_Q.T2~q $end
$var wire 1 *" inst|Ystep_Q.T3~q $end
$var wire 1 +" inst|Selector2~0_combout $end
$var wire 1 ," inst|reg_IR|Q [8] $end
$var wire 1 -" inst|reg_IR|Q [7] $end
$var wire 1 ." inst|reg_IR|Q [6] $end
$var wire 1 /" inst|reg_IR|Q [5] $end
$var wire 1 0" inst|reg_IR|Q [4] $end
$var wire 1 1" inst|reg_IR|Q [3] $end
$var wire 1 2" inst|reg_IR|Q [2] $end
$var wire 1 3" inst|reg_IR|Q [1] $end
$var wire 1 4" inst|reg_IR|Q [0] $end
$var wire 1 5" inst|reg_R0|Q [8] $end
$var wire 1 6" inst|reg_R0|Q [7] $end
$var wire 1 7" inst|reg_R0|Q [6] $end
$var wire 1 8" inst|reg_R0|Q [5] $end
$var wire 1 9" inst|reg_R0|Q [4] $end
$var wire 1 :" inst|reg_R0|Q [3] $end
$var wire 1 ;" inst|reg_R0|Q [2] $end
$var wire 1 <" inst|reg_R0|Q [1] $end
$var wire 1 =" inst|reg_R0|Q [0] $end
$var wire 1 >" inst|reg_R4|Q [8] $end
$var wire 1 ?" inst|reg_R4|Q [7] $end
$var wire 1 @" inst|reg_R4|Q [6] $end
$var wire 1 A" inst|reg_R4|Q [5] $end
$var wire 1 B" inst|reg_R4|Q [4] $end
$var wire 1 C" inst|reg_R4|Q [3] $end
$var wire 1 D" inst|reg_R4|Q [2] $end
$var wire 1 E" inst|reg_R4|Q [1] $end
$var wire 1 F" inst|reg_R4|Q [0] $end
$var wire 1 G" inst|reg_RA|Q [8] $end
$var wire 1 H" inst|reg_RA|Q [7] $end
$var wire 1 I" inst|reg_RA|Q [6] $end
$var wire 1 J" inst|reg_RA|Q [5] $end
$var wire 1 K" inst|reg_RA|Q [4] $end
$var wire 1 L" inst|reg_RA|Q [3] $end
$var wire 1 M" inst|reg_RA|Q [2] $end
$var wire 1 N" inst|reg_RA|Q [1] $end
$var wire 1 O" inst|reg_RA|Q [0] $end
$var wire 1 P" inst|reg_R1|Q [8] $end
$var wire 1 Q" inst|reg_R1|Q [7] $end
$var wire 1 R" inst|reg_R1|Q [6] $end
$var wire 1 S" inst|reg_R1|Q [5] $end
$var wire 1 T" inst|reg_R1|Q [4] $end
$var wire 1 U" inst|reg_R1|Q [3] $end
$var wire 1 V" inst|reg_R1|Q [2] $end
$var wire 1 W" inst|reg_R1|Q [1] $end
$var wire 1 X" inst|reg_R1|Q [0] $end
$var wire 1 Y" inst|reg_R5|Q [8] $end
$var wire 1 Z" inst|reg_R5|Q [7] $end
$var wire 1 [" inst|reg_R5|Q [6] $end
$var wire 1 \" inst|reg_R5|Q [5] $end
$var wire 1 ]" inst|reg_R5|Q [4] $end
$var wire 1 ^" inst|reg_R5|Q [3] $end
$var wire 1 _" inst|reg_R5|Q [2] $end
$var wire 1 `" inst|reg_R5|Q [1] $end
$var wire 1 a" inst|reg_R5|Q [0] $end
$var wire 1 b" inst|reg_R2|Q [8] $end
$var wire 1 c" inst|reg_R2|Q [7] $end
$var wire 1 d" inst|reg_R2|Q [6] $end
$var wire 1 e" inst|reg_R2|Q [5] $end
$var wire 1 f" inst|reg_R2|Q [4] $end
$var wire 1 g" inst|reg_R2|Q [3] $end
$var wire 1 h" inst|reg_R2|Q [2] $end
$var wire 1 i" inst|reg_R2|Q [1] $end
$var wire 1 j" inst|reg_R2|Q [0] $end
$var wire 1 k" inst|reg_R6|Q [8] $end
$var wire 1 l" inst|reg_R6|Q [7] $end
$var wire 1 m" inst|reg_R6|Q [6] $end
$var wire 1 n" inst|reg_R6|Q [5] $end
$var wire 1 o" inst|reg_R6|Q [4] $end
$var wire 1 p" inst|reg_R6|Q [3] $end
$var wire 1 q" inst|reg_R6|Q [2] $end
$var wire 1 r" inst|reg_R6|Q [1] $end
$var wire 1 s" inst|reg_R6|Q [0] $end
$var wire 1 t" inst|reg_R7|Q [8] $end
$var wire 1 u" inst|reg_R7|Q [7] $end
$var wire 1 v" inst|reg_R7|Q [6] $end
$var wire 1 w" inst|reg_R7|Q [5] $end
$var wire 1 x" inst|reg_R7|Q [4] $end
$var wire 1 y" inst|reg_R7|Q [3] $end
$var wire 1 z" inst|reg_R7|Q [2] $end
$var wire 1 {" inst|reg_R7|Q [1] $end
$var wire 1 |" inst|reg_R7|Q [0] $end
$var wire 1 }" inst|reg_R3|Q [8] $end
$var wire 1 ~" inst|reg_R3|Q [7] $end
$var wire 1 !# inst|reg_R3|Q [6] $end
$var wire 1 "# inst|reg_R3|Q [5] $end
$var wire 1 ## inst|reg_R3|Q [4] $end
$var wire 1 $# inst|reg_R3|Q [3] $end
$var wire 1 %# inst|reg_R3|Q [2] $end
$var wire 1 &# inst|reg_R3|Q [1] $end
$var wire 1 '# inst|reg_R3|Q [0] $end
$var wire 1 (# inst|BusWire [8] $end
$var wire 1 )# inst|BusWire [7] $end
$var wire 1 *# inst|BusWire [6] $end
$var wire 1 +# inst|BusWire [5] $end
$var wire 1 ,# inst|BusWire [4] $end
$var wire 1 -# inst|BusWire [3] $end
$var wire 1 .# inst|BusWire [2] $end
$var wire 1 /# inst|BusWire [1] $end
$var wire 1 0# inst|BusWire [0] $end
$var wire 1 1# inst|Rx [8] $end
$var wire 1 2# inst|Rx [7] $end
$var wire 1 3# inst|Rx [6] $end
$var wire 1 4# inst|Rx [5] $end
$var wire 1 5# inst|Rx [4] $end
$var wire 1 6# inst|Rx [3] $end
$var wire 1 7# inst|Rx [2] $end
$var wire 1 8# inst|Rx [1] $end
$var wire 1 9# inst|Rx [0] $end
$var wire 1 :# inst|Ry [8] $end
$var wire 1 ;# inst|Ry [7] $end
$var wire 1 <# inst|Ry [6] $end
$var wire 1 =# inst|Ry [5] $end
$var wire 1 ># inst|Ry [4] $end
$var wire 1 ?# inst|Ry [3] $end
$var wire 1 @# inst|Ry [2] $end
$var wire 1 A# inst|Ry [1] $end
$var wire 1 B# inst|Ry [0] $end
$upscope $end
$upscope $end
$enddefinitions $end
#0
$dumpvars
0!
b0 "
0#
0,
0+
0*
0)
0(
0'
0&
0%
0$
0-
0.
1/
x0
11
12
13
04
05
06
07
08
09
0:
0;
0<
0=
0>
0?
0@
0A
0B
0C
0D
0E
0F
0G
0H
0I
0J
0K
0L
0M
0N
0O
0P
0Q
0R
0S
0T
0U
1V
0W
0X
1Y
0Z
0[
0\
0]
0^
0_
0`
0a
1b
1c
0d
0e
1f
0g
0h
0i
0j
0k
0l
0m
0n
0o
0p
0q
0r
0s
0t
0u
0v
0w
0x
0y
0z
0{
0|
0}
0~
0!!
0"!
0#!
0$!
0%!
0&!
0'!
0(!
0)!
0*!
0+!
0,!
0-!
0.!
0/!
00!
01!
02!
03!
04!
05!
06!
07!
08!
09!
0:!
0;!
0<!
0=!
0>!
0?!
0@!
0A!
0B!
0C!
0D!
0E!
0F!
1G!
0H!
0I!
0J!
0K!
0L!
0M!
0N!
0O!
0P!
0Q!
0R!
0S!
0T!
0U!
0V!
0W!
0X!
0Y!
0Z!
0[!
0\!
0]!
0^!
0_!
0`!
0a!
0b!
0c!
1d!
0e!
0f!
1g!
0h!
0i!
0j!
0k!
0l!
0m!
1n!
0o!
0p!
0q!
0r!
0s!
0t!
0u!
0v!
0w!
0x!
0y!
0z!
0{!
0|!
0}!
0~!
0!"
0""
0#"
0$"
0%"
0&"
0'"
0("
0)"
0*"
0+"
04"
03"
02"
01"
00"
0/"
0."
0-"
0,"
0="
0<"
0;"
0:"
09"
08"
07"
06"
05"
0F"
0E"
0D"
0C"
0B"
0A"
0@"
0?"
0>"
0O"
0N"
0M"
0L"
0K"
0J"
0I"
0H"
0G"
0X"
0W"
0V"
0U"
0T"
0S"
0R"
0Q"
0P"
0a"
0`"
0_"
0^"
0]"
0\"
0["
0Z"
0Y"
0j"
0i"
0h"
0g"
0f"
0e"
0d"
0c"
0b"
0s"
0r"
0q"
0p"
0o"
0n"
0m"
0l"
0k"
0|"
0{"
0z"
0y"
0x"
0w"
0v"
0u"
0t"
0'#
0&#
0%#
0$#
0##
0"#
0!#
0~"
0}"
00#
0/#
0.#
0-#
0,#
0+#
0*#
0)#
0(#
09#
08#
07#
06#
05#
04#
03#
02#
01#
0B#
0A#
0@#
0?#
0>#
0=#
0<#
0;#
0:#
$end
#10000
1!
1>
#20000
1#
b100 "
b101 "
0!
1@
1B
1N
0>
1@!
1a
1l!
1j!
10#
1.#
1;
1=
1,
1*
#30000
1!
1>
1m!
1k!
14"
12"
1i!
1p
1Z
1+"
0l!
14
1J
1&"
1u!
1h!
0g!
1O!
1?!
10!
1!!
1n
1`
1-
0j!
0h!
0@!
0a
1(#
15
1$
0(#
00#
0.#
0;
0=
05
0$
0,
0*
#40000
b1000101 "
0#
b1000001 "
b1000000 "
0!
0B
0N
1?
0@
0>
#50000
1!
1>
0m!
0k!
0i!
0p
0Z
0+"
04
0J
1'"
0&"
0u!
1g!
1P!
0O!
0?!
00!
1"!
0!!
1o
0n
0`
0-
0'"
1v!
0P!
0"!
0o
1)#
1+#
1/#
1-#
1:
1<
18
16
1%
1'
1+
1)
0)#
1*#
0+#
0/#
0-#
0:
0<
08
17
06
0%
1&
0'
0+
0)
#60000
b1001000 "
b1000 "
1#
0!
1h
0?
1@
0>
1n
0v!
1l!
1j!
1o
0*#
07
0&
1-#
1:
1)
#70000
1!
1>
1m!
1k!
04"
11"
02"
1i!
1Z
1E
1+"
0l!
14
1&"
1u!
1h!
0g!
1O!
1?!
10!
1!!
0o
1`
1I
1-
0j!
0h!
1(#
0-#
0:
15
1$
0)
0(#
05
0$
#80000
0#
0!
0@
0>
#90000
1!
1>
0m!
0k!
0i!
0Z
0E
0+"
04
1'"
0&"
0u!
1g!
1P!
0O!
0?!
00!
1"!
0!!
1o
0`
0I
0-
0'"
0P!
0"!
1)#
1+#
1/#
1-#
1:
1<
18
16
1%
1'
1+
1)
0)#
0+#
0/#
0<
08
06
0%
0'
0+
#100000
b10001000 "
1#
0!
1~!
1@
0>
1&"
1l!
1j!
1'"
1)#
16
1%
#110000
1!
1>
1-"
1m!
1k!
0n!
0Y
1Z
1("
0l!
0&"
0g!
0n
0Z
0'"
1h!
0o
0h!
0)#
1(#
0-#
0:
15
06
0%
1$
0)
0(#
05
0$
#120000
0#
0!
0@
0>
#130000
1!
1>
0m!
1)"
1n!
0b
1Z
0("
1&"
1u!
1O!
1?!
10!
1!!
1n
1`
#140000
1#
0!
1@
0>
#150000
1!
1>
1*"
0)"
0n!
1i!
1+"
14
0&"
1v!
0u!
0O!
1@!
0?!
11!
00!
0!!
0n
1a
0`
1-
0j!
0v!
0@!
01!
0a
1*#
10#
1,#
1.#
1;
19
1=
17
1&
1,
1(
1*
0*#
00#
0,#
0.#
0;
09
0=
07
0&
0,
0(
0*
#160000
0#
0!
0@
0>
#170000
1!
1>
0*"
0k!
1n!
0i!
1b
0Z
0+"
04
1&"
1g!
1n
0-
1'"
1o
1)#
1-#
1:
16
1%
1)
#180000
b10000000 "
b11000000 "
1#
0!
0h
1?
1@
0>
0n
1v!
1l!
1j!
0o
1*#
17
1&
0-#
0:
0)
#190000
1!
1>
1."
1m!
1k!
01"
1|!
1b!
1\!
1F!
18!
1(!
1w
1e
1U
1T
0n!
1("
0l!
1}!
1o!
1f!
1H!
0V
1*!
1x
1g
1X
0&"
0v!
0g!
0'"
1W
0x
0*#
07
0f
0X
0&
0)#
06
1)!
0g
0%
0G!
0*!
1c!
0H!
0d!
0o!
1e!
0}!
0f!
#200000
b1000000 "
b0 "
0#
0!
0?
0~!
0@
0>
#210000
1!
1>
0m!
1)"
1n!
0b
1Z
0("
1&"
1u!
1O!
1?!
10!
1!!
1n
1`
#220000
1#
0!
1@
0>
#230000
1!
1>
1*"
0)"
0n!
1i!
1+"
14
0&"
1v!
0u!
0O!
1@!
0?!
11!
00!
0!!
0n
1a
0`
1-
0j!
0v!
0@!
01!
0a
1*#
10#
1,#
1.#
1;
19
1=
17
1&
1,
1(
1*
0*#
00#
0,#
0.#
0;
09
0=
07
0&
0,
0(
0*
#240000
0#
0!
0@
0>
#250000
1!
1>
0*"
0k!
1n!
0i!
1b
0Z
0+"
04
1g!
0-
#260000
1#
0!
1@
0>
1l!
1j!
#270000
1!
1>
0-"
0."
1m!
1k!
1i!
1p
1Y
0|!
0b!
0\!
0F!
08!
0(!
0w
0e
0U
0T
1+"
0l!
14
1J
1Z
0e!
1}!
1d!
1o!
1f!
0c!
1H!
1V
1G!
1*!
0W
1x
0)!
1g
1f
1X
1-
0j!
1'"
1&"
1u!
1h!
0g!
1P!
1O!
1?!
10!
1"!
1!!
1o
1n
1`
0f!
0}!
0o!
0x
0H!
0X
0*!
0g
0'"
0h!
0P!
0"!
0o
1)#
1(#
1+#
1/#
1-#
1:
1<
18
15
16
1%
1$
1'
1+
1)
0)#
0(#
0+#
0/#
0-#
0:
0<
08
05
06
0%
0$
0'
0+
0)
#280000
0#
0!
0@
0>
#290000
1!
1>
0m!
0k!
0i!
0p
0Z
0+"
04
0J
1'"
0&"
0u!
1g!
1P!
0O!
0?!
00!
1"!
0!!
1o
0n
0`
0-
0'"
0P!
0"!
0o
1)#
1+#
1/#
1-#
1:
1<
18
16
1%
1'
1+
1)
0)#
0+#
0/#
0-#
0:
0<
08
06
0%
0'
0+
0)
#300000
1#
0!
1@
0>
1l!
1j!
#310000
1!
1>
1m!
1k!
1i!
1p
1Z
1+"
0l!
14
1J
1&"
1u!
1h!
0g!
1O!
1?!
10!
1!!
1n
1`
1-
0j!
0h!
1(#
15
1$
0(#
05
0$
#320000
0#
0!
0@
0>
#330000
1!
1>
0m!
0k!
0i!
0p
0Z
0+"
04
0J
1'"
0&"
0u!
1g!
1P!
0O!
0?!
00!
1"!
0!!
1o
0n
0`
0-
0'"
0P!
0"!
0o
1)#
1+#
1/#
1-#
1:
1<
18
16
1%
1'
1+
1)
0)#
0+#
0/#
0-#
0:
0<
08
06
0%
0'
0+
0)
#340000
1#
0!
1@
0>
1l!
1j!
#350000
1!
1>
1m!
1k!
1i!
1p
1Z
1+"
0l!
14
1J
1&"
1u!
1h!
0g!
1O!
1?!
10!
1!!
1n
1`
1-
0j!
0h!
1(#
15
1$
0(#
05
0$
#360000
0#
0!
0@
0>
#370000
1!
1>
0m!
0k!
0i!
0p
0Z
0+"
04
0J
1'"
0&"
0u!
1g!
1P!
0O!
0?!
00!
1"!
0!!
1o
0n
0`
0-
0'"
0P!
0"!
0o
1)#
1+#
1/#
1-#
1:
1<
18
16
1%
1'
1+
1)
0)#
0+#
0/#
0-#
0:
0<
08
06
0%
0'
0+
0)
#380000
1#
0!
1@
0>
1l!
1j!
#390000
1!
1>
1m!
1k!
1i!
1p
1Z
1+"
0l!
14
1J
1&"
1u!
1h!
0g!
1O!
1?!
10!
1!!
1n
1`
1-
0j!
0h!
1(#
15
1$
0(#
05
0$
#400000
0#
0!
0@
0>
#410000
1!
1>
0m!
0k!
0i!
0p
0Z
0+"
04
0J
1'"
0&"
0u!
1g!
1P!
0O!
0?!
00!
1"!
0!!
1o
0n
0`
0-
0'"
0P!
0"!
0o
1)#
1+#
1/#
1-#
1:
1<
18
16
1%
1'
1+
1)
0)#
0+#
0/#
0-#
0:
0<
08
06
0%
0'
0+
0)
#420000
1#
0!
1@
0>
1l!
1j!
#430000
1!
1>
1m!
1k!
1i!
1p
1Z
1+"
0l!
14
1J
1&"
1u!
1h!
0g!
1O!
1?!
10!
1!!
1n
1`
1-
0j!
0h!
1(#
15
1$
0(#
05
0$
#440000
0#
0!
0@
0>
#450000
1!
1>
0m!
0k!
0i!
0p
0Z
0+"
04
0J
1'"
0&"
0u!
1g!
1P!
0O!
0?!
00!
1"!
0!!
1o
0n
0`
0-
0'"
0P!
0"!
0o
1)#
1+#
1/#
1-#
1:
1<
18
16
1%
1'
1+
1)
0)#
0+#
0/#
0-#
0:
0<
08
06
0%
0'
0+
0)
#460000
1#
0!
1@
0>
1l!
1j!
#470000
1!
1>
1m!
1k!
1i!
1p
1Z
1+"
0l!
14
1J
1&"
1u!
1h!
0g!
1O!
1?!
10!
1!!
1n
1`
1-
0j!
0h!
1(#
15
1$
0(#
05
0$
#480000
0#
0!
0@
0>
#490000
1!
1>
0m!
0k!
0i!
0p
0Z
0+"
04
0J
1'"
0&"
0u!
1g!
1P!
0O!
0?!
00!
1"!
0!!
1o
0n
0`
0-
0'"
0P!
0"!
0o
1)#
1+#
1/#
1-#
1:
1<
18
16
1%
1'
1+
1)
0)#
0+#
0/#
0-#
0:
0<
08
06
0%
0'
0+
0)
#500000
1#
0!
1@
0>
1l!
1j!
#510000
1!
1>
1m!
1k!
1i!
1p
1Z
1+"
0l!
14
1J
1&"
1u!
1h!
0g!
1O!
1?!
10!
1!!
1n
1`
1-
0j!
0h!
1(#
15
1$
0(#
05
0$
#520000
0#
0!
0@
0>
#530000
1!
1>
0m!
0k!
0i!
0p
0Z
0+"
04
0J
1'"
0&"
0u!
1g!
1P!
0O!
0?!
00!
1"!
0!!
1o
0n
0`
0-
0'"
0P!
0"!
0o
1)#
1+#
1/#
1-#
1:
1<
18
16
1%
1'
1+
1)
0)#
0+#
0/#
0-#
0:
0<
08
06
0%
0'
0+
0)
#540000
1#
0!
1@
0>
1l!
1j!
#550000
1!
1>
1m!
1k!
1i!
1p
1Z
1+"
0l!
14
1J
1&"
1u!
1h!
0g!
1O!
1?!
10!
1!!
1n
1`
1-
0j!
0h!
1(#
15
1$
0(#
05
0$
#560000
0#
0!
0@
0>
#570000
1!
1>
0m!
0k!
0i!
0p
0Z
0+"
04
0J
1'"
0&"
0u!
1g!
1P!
0O!
0?!
00!
1"!
0!!
1o
0n
0`
0-
0'"
0P!
0"!
0o
1)#
1+#
1/#
1-#
1:
1<
18
16
1%
1'
1+
1)
0)#
0+#
0/#
0-#
0:
0<
08
06
0%
0'
0+
0)
#580000
1#
0!
1@
0>
1l!
1j!
#590000
1!
1>
1m!
1k!
1i!
1p
1Z
1+"
0l!
14
1J
1&"
1u!
1h!
0g!
1O!
1?!
10!
1!!
1n
1`
1-
0j!
0h!
1(#
15
1$
0(#
05
0$
#600000
0#
0!
0@
0>
#610000
1!
1>
0m!
0k!
0i!
0p
0Z
0+"
04
0J
1'"
0&"
0u!
1g!
1P!
0O!
0?!
00!
1"!
0!!
1o
0n
0`
0-
0'"
0P!
0"!
0o
1)#
1+#
1/#
1-#
1:
1<
18
16
1%
1'
1+
1)
0)#
0+#
0/#
0-#
0:
0<
08
06
0%
0'
0+
0)
#620000
1#
0!
1@
0>
1l!
1j!
#630000
1!
1>
1m!
1k!
1i!
1p
1Z
1+"
0l!
14
1J
1&"
1u!
1h!
0g!
1O!
1?!
10!
1!!
1n
1`
1-
0j!
0h!
1(#
15
1$
0(#
05
0$
#640000
0#
0!
0@
0>
#650000
1!
1>
0m!
0k!
0i!
0p
0Z
0+"
04
0J
1'"
0&"
0u!
1g!
1P!
0O!
0?!
00!
1"!
0!!
1o
0n
0`
0-
0'"
0P!
0"!
0o
1)#
1+#
1/#
1-#
1:
1<
18
16
1%
1'
1+
1)
0)#
0+#
0/#
0-#
0:
0<
08
06
0%
0'
0+
0)
#660000
1#
0!
1@
0>
1l!
1j!
#670000
1!
1>
1m!
1k!
1i!
1p
1Z
1+"
0l!
14
1J
1&"
1u!
1h!
0g!
1O!
1?!
10!
1!!
1n
1`
1-
0j!
0h!
1(#
15
1$
0(#
05
0$
#680000
0#
0!
0@
0>
#690000
1!
1>
0m!
0k!
0i!
0p
0Z
0+"
04
0J
1'"
0&"
0u!
1g!
1P!
0O!
0?!
00!
1"!
0!!
1o
0n
0`
0-
0'"
0P!
0"!
0o
1)#
1+#
1/#
1-#
1:
1<
18
16
1%
1'
1+
1)
0)#
0+#
0/#
0-#
0:
0<
08
06
0%
0'
0+
0)
#700000
1#
0!
1@
0>
1l!
1j!
#710000
1!
1>
1m!
1k!
1i!
1p
1Z
1+"
0l!
14
1J
1&"
1u!
1h!
0g!
1O!
1?!
10!
1!!
1n
1`
1-
0j!
0h!
1(#
15
1$
0(#
05
0$
#720000
0#
0!
0@
0>
#730000
1!
1>
0m!
0k!
0i!
0p
0Z
0+"
04
0J
1'"
0&"
0u!
1g!
1P!
0O!
0?!
00!
1"!
0!!
1o
0n
0`
0-
0'"
0P!
0"!
0o
1)#
1+#
1/#
1-#
1:
1<
18
16
1%
1'
1+
1)
0)#
0+#
0/#
0-#
0:
0<
08
06
0%
0'
0+
0)
#740000
1#
0!
1@
0>
1l!
1j!
