Lab9_and_Lab10/simulation/qsim/Lab9_and_Lab10.msim.vcd
$comment
	File created using the following command:
		vcd file Lab9_and_Lab10.msim.vcd -direction
$end
$date
	Sat Dec 17 01:26:15 2022
$end
$version
	ModelSim Version 2020.1
$end
$timescale
	1ps
$end

$scope module Lab9Part2_vlg_vec_tst $end
$var reg 1 ! Mem_Clock $end
$var reg 1 " Pro_Clock $end
$var reg 1 # Resetn $end
$var reg 1 $ rst_neg $end
$var reg 1 % Run $end
$var wire 1 & Address [4] $end
$var wire 1 ' Address [3] $end
$var wire 1 ( Address [2] $end
$var wire 1 ) Address [1] $end
$var wire 1 * Address [0] $end
$var wire 1 + BusWires [8] $end
$var wire 1 , BusWires [7] $end
$var wire 1 - BusWires [6] $end
$var wire 1 . BusWires [5] $end
$var wire 1 / BusWires [4] $end
$var wire 1 0 BusWires [3] $end
$var wire 1 1 BusWires [2] $end
$var wire 1 2 BusWires [1] $end
$var wire 1 3 BusWires [0] $end
$var wire 1 4 DIN [8] $end
$var wire 1 5 DIN [7] $end
$var wire 1 6 DIN [6] $end
$var wire 1 7 DIN [5] $end
$var wire 1 8 DIN [4] $end
$var wire 1 9 DIN [3] $end
$var wire 1 : DIN [2] $end
$var wire 1 ; DIN [1] $end
$var wire 1 < DIN [0] $end
$var wire 1 = Done $end

$scope module i1 $end
$var wire 1 > gnd $end
$var wire 1 ? vcc $end
$var wire 1 @ unknown $end
$var tri1 1 A devclrn $end
$var tri1 1 B devpor $end
$var tri1 1 C devoe $end
$var wire 1 D Done~output_o $end
$var wire 1 E Address[4]~output_o $end
$var wire 1 F Address[3]~output_o $end
$var wire 1 G Address[2]~output_o $end
$var wire 1 H Address[1]~output_o $end
$var wire 1 I Address[0]~output_o $end
$var wire 1 J BusWires[8]~output_o $end
$var wire 1 K BusWires[7]~output_o $end
$var wire 1 L BusWires[6]~output_o $end
$var wire 1 M BusWires[5]~output_o $end
$var wire 1 N BusWires[4]~output_o $end
$var wire 1 O BusWires[3]~output_o $end
$var wire 1 P BusWires[2]~output_o $end
$var wire 1 Q BusWires[1]~output_o $end
$var wire 1 R BusWires[0]~output_o $end
$var wire 1 S DIN[8]~output_o $end
$var wire 1 T DIN[7]~output_o $end
$var wire 1 U DIN[6]~output_o $end
$var wire 1 V DIN[5]~output_o $end
$var wire 1 W DIN[4]~output_o $end
$var wire 1 X DIN[3]~output_o $end
$var wire 1 Y DIN[2]~output_o $end
$var wire 1 Z DIN[1]~output_o $end
$var wire 1 [ DIN[0]~output_o $end
$var wire 1 \ Pro_Clock~input_o $end
$var wire 1 ] Resetn~input_o $end
$var wire 1 ^ Mem_Clock~input_o $end
$var wire 1 _ inst3|Q[0]~12_combout $end
$var wire 1 ` rst_neg~input_o $end
$var wire 1 a inst3|Q[1]~4_combout $end
$var wire 1 b inst3|Q[1]~5 $end
$var wire 1 c inst3|Q[2]~6_combout $end
$var wire 1 d inst3|Q[2]~7 $end
$var wire 1 e inst3|Q[3]~8_combout $end
$var wire 1 f inst3|Q[3]~9 $end
$var wire 1 g inst3|Q[4]~10_combout $end
$var wire 1 h inst|Tstep_Q.T0~0_combout $end
$var wire 1 i inst|Tstep_D.T2~0_combout $end
$var wire 1 j inst|Tstep_Q~8_combout $end
$var wire 1 k inst|Tstep_Q~3_q $end
$var wire 1 l Run~input_o $end
$var wire 1 m inst|Tstep_Q~7_combout $end
$var wire 1 n inst|Tstep_Q~2_q $end
$var wire 1 o inst|Selector18~0_combout $end
$var wire 1 p inst|Selector10~0_combout $end
$var wire 1 q inst|Selector11~0_combout $end
$var wire 1 r inst|Gin~0_combout $end
$var wire 1 s inst|Selector1~0_combout $end
$var wire 1 t inst|Selector8~0_combout $end
$var wire 1 u inst|Selector8~1_combout $end
$var wire 1 v inst|Selector9~0_combout $end
$var wire 1 w inst|Selector9~1_combout $end
$var wire 1 x inst|Selector5~0_combout $end
$var wire 1 y inst|Selector5~1_combout $end
$var wire 1 z inst|Selector6~0_combout $end
$var wire 1 { inst|Selector6~1_combout $end
$var wire 1 | inst|Equal6~0_combout $end
$var wire 1 } inst|Selector4~0_combout $end
$var wire 1 ~ inst|Selector4~1_combout $end
$var wire 1 !! inst|Selector7~0_combout $end
$var wire 1 "! inst|Selector7~1_combout $end
$var wire 1 #! inst|Gout~0_combout $end
$var wire 1 $! inst|Equal10~0_combout $end
$var wire 1 %! inst|Selector3~3_combout $end
$var wire 1 &! inst|Selector3~4_combout $end
$var wire 1 '! inst|Selector1~1_combout $end
$var wire 1 (! inst|Selector2~3_combout $end
$var wire 1 )! inst|Selector2~4_combout $end
$var wire 1 *! inst|Equal10~1_combout $end
$var wire 1 +! inst|Equal11~0_combout $end
$var wire 1 ,! inst|Selector19~0_combout $end
$var wire 1 -! inst|Selector16~0_combout $end
$var wire 1 .! inst|Selector17~0_combout $end
$var wire 1 /! inst|Selector2~2_combout $end
$var wire 1 0! inst|Selector3~2_combout $end
$var wire 1 1! inst|Equal2~0_combout $end
$var wire 1 2! inst|Equal4~4_combout $end
$var wire 1 3! inst|Equal7~0_combout $end
$var wire 1 4! inst|Equal4~7_combout $end
$var wire 1 5! inst|Equal4~5_combout $end
$var wire 1 6! inst|Equal5~5_combout $end
$var wire 1 7! inst|Equal5~4_combout $end
$var wire 1 8! inst|Selector19~1_combout $end
$var wire 1 9! inst|Equal4~6_combout $end
$var wire 1 :! inst|Selector15~0_combout $end
$var wire 1 ;! inst|Selector19~2_combout $end
$var wire 1 <! inst|Selector13~0_combout $end
$var wire 1 =! inst|Equal2~1_combout $end
$var wire 1 >! inst|Equal2~2_combout $end
$var wire 1 ?! inst|Equal2~3_combout $end
$var wire 1 @! inst|Equal8~0_combout $end
$var wire 1 A! inst|Equal8~1_combout $end
$var wire 1 B! inst|Selector19~3_combout $end
$var wire 1 C! inst|Selector12~0_combout $end
$var wire 1 D! inst|Equal9~4_combout $end
$var wire 1 E! inst|Equal9~7_combout $end
$var wire 1 F! inst|Equal9~5_combout $end
$var wire 1 G! inst|Equal1~0_combout $end
$var wire 1 H! inst|AS|LPM_ADD_SUB_component|auto_generated|_~13_combout $end
$var wire 1 I! inst|Selector20~0_combout $end
$var wire 1 J! inst|Selector20~1_combout $end
$var wire 1 K! inst|Selector20~2_combout $end
$var wire 1 L! inst|Selector20~3_combout $end
$var wire 1 M! inst|Selector21~0_combout $end
$var wire 1 N! inst|Selector21~1_combout $end
$var wire 1 O! inst|Selector21~2_combout $end
$var wire 1 P! inst|Selector21~3_combout $end
$var wire 1 Q! inst|Selector22~0_combout $end
$var wire 1 R! inst|Selector22~1_combout $end
$var wire 1 S! inst|Selector22~2_combout $end
$var wire 1 T! inst|Selector22~3_combout $end
$var wire 1 U! inst|Selector23~0_combout $end
$var wire 1 V! inst|Selector23~1_combout $end
$var wire 1 W! inst|Selector23~2_combout $end
$var wire 1 X! inst|Selector23~3_combout $end
$var wire 1 Y! inst|Selector24~0_combout $end
$var wire 1 Z! inst|Selector24~1_combout $end
$var wire 1 [! inst|Selector24~2_combout $end
$var wire 1 \! inst|Selector24~3_combout $end
$var wire 1 ]! inst|Selector25~0_combout $end
$var wire 1 ^! inst|Selector25~1_combout $end
$var wire 1 _! inst|Selector25~2_combout $end
$var wire 1 `! inst|Selector25~3_combout $end
$var wire 1 a! inst|Selector26~0_combout $end
$var wire 1 b! inst|Selector26~1_combout $end
$var wire 1 c! inst|Selector26~2_combout $end
$var wire 1 d! inst|Selector26~3_combout $end
$var wire 1 e! inst|Selector27~0_combout $end
$var wire 1 f! inst|Selector27~1_combout $end
$var wire 1 g! inst|Selector27~2_combout $end
$var wire 1 h! inst|Selector27~3_combout $end
$var wire 1 i! inst|Tstep_Q.T2~0_combout $end
$var wire 1 j! inst|AS|LPM_ADD_SUB_component|auto_generated|result_int[0]~1_cout $end
$var wire 1 k! inst|AS|LPM_ADD_SUB_component|auto_generated|result_int[1]~2_combout $end
$var wire 1 l! inst|Equal9~6_combout $end
$var wire 1 m! inst|Selector27~4_combout $end
$var wire 1 n! inst|Selector27~5_combout $end
$var wire 1 o! inst|Selector27~6_combout $end
$var wire 1 p! inst|Equal7~1_combout $end
$var wire 1 q! inst|Equal7~2_combout $end
$var wire 1 r! inst|Selector14~0_combout $end
$var wire 1 s! inst|Selector27~7_combout $end
$var wire 1 t! inst|Selector27~8_combout $end
$var wire 1 u! inst|AS|LPM_ADD_SUB_component|auto_generated|_~12_combout $end
$var wire 1 v! inst|AS|LPM_ADD_SUB_component|auto_generated|result_int[1]~3 $end
$var wire 1 w! inst|AS|LPM_ADD_SUB_component|auto_generated|result_int[2]~4_combout $end
$var wire 1 x! inst|Selector26~4_combout $end
$var wire 1 y! inst|Selector26~5_combout $end
$var wire 1 z! inst|Selector26~6_combout $end
$var wire 1 {! inst|AS|LPM_ADD_SUB_component|auto_generated|_~11_combout $end
$var wire 1 |! inst|AS|LPM_ADD_SUB_component|auto_generated|result_int[2]~5 $end
$var wire 1 }! inst|AS|LPM_ADD_SUB_component|auto_generated|result_int[3]~6_combout $end
$var wire 1 ~! inst|Selector25~4_combout $end
$var wire 1 !" inst|Selector25~5_combout $end
$var wire 1 "" inst|Selector25~6_combout $end
$var wire 1 #" inst|AS|LPM_ADD_SUB_component|auto_generated|_~10_combout $end
$var wire 1 $" inst|AS|LPM_ADD_SUB_component|auto_generated|result_int[3]~7 $end
$var wire 1 %" inst|AS|LPM_ADD_SUB_component|auto_generated|result_int[4]~8_combout $end
$var wire 1 &" inst|Selector24~4_combout $end
$var wire 1 '" inst|Selector24~5_combout $end
$var wire 1 (" inst|Equal6~1_combout $end
$var wire 1 )" inst|Selector24~6_combout $end
$var wire 1 *" inst|AS|LPM_ADD_SUB_component|auto_generated|_~9_combout $end
$var wire 1 +" inst|AS|LPM_ADD_SUB_component|auto_generated|result_int[4]~9 $end
$var wire 1 ," inst|AS|LPM_ADD_SUB_component|auto_generated|result_int[5]~10_combout $end
$var wire 1 -" inst|Selector23~4_combout $end
$var wire 1 ." inst|Selector23~5_combout $end
$var wire 1 /" inst|Selector23~6_combout $end
$var wire 1 0" inst|AS|LPM_ADD_SUB_component|auto_generated|_~8_combout $end
$var wire 1 1" inst|AS|LPM_ADD_SUB_component|auto_generated|result_int[5]~11 $end
$var wire 1 2" inst|AS|LPM_ADD_SUB_component|auto_generated|result_int[6]~12_combout $end
$var wire 1 3" inst|Selector22~4_combout $end
$var wire 1 4" inst|Selector22~5_combout $end
$var wire 1 5" inst|Selector22~6_combout $end
$var wire 1 6" inst|AS|LPM_ADD_SUB_component|auto_generated|_~16_combout $end
$var wire 1 7" inst|AS|LPM_ADD_SUB_component|auto_generated|result_int[6]~13 $end
$var wire 1 8" inst|AS|LPM_ADD_SUB_component|auto_generated|result_int[7]~14_combout $end
$var wire 1 9" inst|Selector21~4_combout $end
$var wire 1 :" inst|Selector21~5_combout $end
$var wire 1 ;" inst|Selector21~6_combout $end
$var wire 1 <" inst|AS|LPM_ADD_SUB_component|auto_generated|_~15_combout $end
$var wire 1 =" inst|AS|LPM_ADD_SUB_component|auto_generated|result_int[7]~15 $end
$var wire 1 >" inst|AS|LPM_ADD_SUB_component|auto_generated|result_int[8]~16_combout $end
$var wire 1 ?" inst|Selector20~4_combout $end
$var wire 1 @" inst|Selector20~5_combout $end
$var wire 1 A" inst|Selector20~6_combout $end
$var wire 1 B" inst|AS|LPM_ADD_SUB_component|auto_generated|_~14_combout $end
$var wire 1 C" inst|AS|LPM_ADD_SUB_component|auto_generated|result_int[8]~17 $end
$var wire 1 D" inst|AS|LPM_ADD_SUB_component|auto_generated|result_int[9]~18_combout $end
$var wire 1 E" inst|Selector19~4_combout $end
$var wire 1 F" inst|Selector19~5_combout $end
$var wire 1 G" inst|Selector19~6_combout $end
$var wire 1 H" inst|Xreg [7] $end
$var wire 1 I" inst|Xreg [6] $end
$var wire 1 J" inst|Xreg [5] $end
$var wire 1 K" inst|Xreg [4] $end
$var wire 1 L" inst|Xreg [3] $end
$var wire 1 M" inst|Xreg [2] $end
$var wire 1 N" inst|Xreg [1] $end
$var wire 1 O" inst|Xreg [0] $end
$var wire 1 P" inst3|Q [4] $end
$var wire 1 Q" inst3|Q [3] $end
$var wire 1 R" inst3|Q [2] $end
$var wire 1 S" inst3|Q [1] $end
$var wire 1 T" inst3|Q [0] $end
$var wire 1 U" inst2|altsyncram_component|auto_generated|q_a [8] $end
$var wire 1 V" inst2|altsyncram_component|auto_generated|q_a [7] $end
$var wire 1 W" inst2|altsyncram_component|auto_generated|q_a [6] $end
$var wire 1 X" inst2|altsyncram_component|auto_generated|q_a [5] $end
$var wire 1 Y" inst2|altsyncram_component|auto_generated|q_a [4] $end
$var wire 1 Z" inst2|altsyncram_component|auto_generated|q_a [3] $end
$var wire 1 [" inst2|altsyncram_component|auto_generated|q_a [2] $end
$var wire 1 \" inst2|altsyncram_component|auto_generated|q_a [1] $end
$var wire 1 ]" inst2|altsyncram_component|auto_generated|q_a [0] $end
$var wire 1 ^" inst|reg_IR|Q [8] $end
$var wire 1 _" inst|reg_IR|Q [7] $end
$var wire 1 `" inst|reg_IR|Q [6] $end
$var wire 1 a" inst|reg_IR|Q [5] $end
$var wire 1 b" inst|reg_IR|Q [4] $end
$var wire 1 c" inst|reg_IR|Q [3] $end
$var wire 1 d" inst|reg_IR|Q [2] $end
$var wire 1 e" inst|reg_IR|Q [1] $end
$var wire 1 f" inst|reg_IR|Q [0] $end
$var wire 1 g" inst|reg_6|Q [8] $end
$var wire 1 h" inst|reg_6|Q [7] $end
$var wire 1 i" inst|reg_6|Q [6] $end
$var wire 1 j" inst|reg_6|Q [5] $end
$var wire 1 k" inst|reg_6|Q [4] $end
$var wire 1 l" inst|reg_6|Q [3] $end
$var wire 1 m" inst|reg_6|Q [2] $end
$var wire 1 n" inst|reg_6|Q [1] $end
$var wire 1 o" inst|reg_6|Q [0] $end
$var wire 1 p" inst|reg_G|Q [8] $end
$var wire 1 q" inst|reg_G|Q [7] $end
$var wire 1 r" inst|reg_G|Q [6] $end
$var wire 1 s" inst|reg_G|Q [5] $end
$var wire 1 t" inst|reg_G|Q [4] $end
$var wire 1 u" inst|reg_G|Q [3] $end
$var wire 1 v" inst|reg_G|Q [2] $end
$var wire 1 w" inst|reg_G|Q [1] $end
$var wire 1 x" inst|reg_G|Q [0] $end
$var wire 1 y" inst|reg_7|Q [8] $end
$var wire 1 z" inst|reg_7|Q [7] $end
$var wire 1 {" inst|reg_7|Q [6] $end
$var wire 1 |" inst|reg_7|Q [5] $end
$var wire 1 }" inst|reg_7|Q [4] $end
$var wire 1 ~" inst|reg_7|Q [3] $end
$var wire 1 !# inst|reg_7|Q [2] $end
$var wire 1 "# inst|reg_7|Q [1] $end
$var wire 1 ## inst|reg_7|Q [0] $end
$var wire 1 $# inst|reg_1|Q [8] $end
$var wire 1 %# inst|reg_1|Q [7] $end
$var wire 1 &# inst|reg_1|Q [6] $end
$var wire 1 '# inst|reg_1|Q [5] $end
$var wire 1 (# inst|reg_1|Q [4] $end
$var wire 1 )# inst|reg_1|Q [3] $end
$var wire 1 *# inst|reg_1|Q [2] $end
$var wire 1 +# inst|reg_1|Q [1] $end
$var wire 1 ,# inst|reg_1|Q [0] $end
$var wire 1 -# inst|reg_5|Q [8] $end
$var wire 1 .# inst|reg_5|Q [7] $end
$var wire 1 /# inst|reg_5|Q [6] $end
$var wire 1 0# inst|reg_5|Q [5] $end
$var wire 1 1# inst|reg_5|Q [4] $end
$var wire 1 2# inst|reg_5|Q [3] $end
$var wire 1 3# inst|reg_5|Q [2] $end
$var wire 1 4# inst|reg_5|Q [1] $end
$var wire 1 5# inst|reg_5|Q [0] $end
$var wire 1 6# inst|Yreg [7] $end
$var wire 1 7# inst|Yreg [6] $end
$var wire 1 8# inst|Yreg [5] $end
$var wire 1 9# inst|Yreg [4] $end
$var wire 1 :# inst|Yreg [3] $end
$var wire 1 ;# inst|Yreg [2] $end
$var wire 1 <# inst|Yreg [1] $end
$var wire 1 =# inst|Yreg [0] $end
$var wire 1 ># inst|reg_0|Q [8] $end
$var wire 1 ?# inst|reg_0|Q [7] $end
$var wire 1 @# inst|reg_0|Q [6] $end
$var wire 1 A# inst|reg_0|Q [5] $end
$var wire 1 B# inst|reg_0|Q [4] $end
$var wire 1 C# inst|reg_0|Q [3] $end
$var wire 1 D# inst|reg_0|Q [2] $end
$var wire 1 E# inst|reg_0|Q [1] $end
$var wire 1 F# inst|reg_0|Q [0] $end
$var wire 1 G# inst|reg_2|Q [8] $end
$var wire 1 H# inst|reg_2|Q [7] $end
$var wire 1 I# inst|reg_2|Q [6] $end
$var wire 1 J# inst|reg_2|Q [5] $end
$var wire 1 K# inst|reg_2|Q [4] $end
$var wire 1 L# inst|reg_2|Q [3] $end
$var wire 1 M# inst|reg_2|Q [2] $end
$var wire 1 N# inst|reg_2|Q [1] $end
$var wire 1 O# inst|reg_2|Q [0] $end
$var wire 1 P# inst|reg_4|Q [8] $end
$var wire 1 Q# inst|reg_4|Q [7] $end
$var wire 1 R# inst|reg_4|Q [6] $end
$var wire 1 S# inst|reg_4|Q [5] $end
$var wire 1 T# inst|reg_4|Q [4] $end
$var wire 1 U# inst|reg_4|Q [3] $end
$var wire 1 V# inst|reg_4|Q [2] $end
$var wire 1 W# inst|reg_4|Q [1] $end
$var wire 1 X# inst|reg_4|Q [0] $end
$var wire 1 Y# inst|reg_3|Q [8] $end
$var wire 1 Z# inst|reg_3|Q [7] $end
$var wire 1 [# inst|reg_3|Q [6] $end
$var wire 1 \# inst|reg_3|Q [5] $end
$var wire 1 ]# inst|reg_3|Q [4] $end
$var wire 1 ^# inst|reg_3|Q [3] $end
$var wire 1 _# inst|reg_3|Q [2] $end
$var wire 1 `# inst|reg_3|Q [1] $end
$var wire 1 a# inst|reg_3|Q [0] $end
$var wire 1 b# inst|reg_A|Q [8] $end
$var wire 1 c# inst|reg_A|Q [7] $end
$var wire 1 d# inst|reg_A|Q [6] $end
$var wire 1 e# inst|reg_A|Q [5] $end
$var wire 1 f# inst|reg_A|Q [4] $end
$var wire 1 g# inst|reg_A|Q [3] $end
$var wire 1 h# inst|reg_A|Q [2] $end
$var wire 1 i# inst|reg_A|Q [1] $end
$var wire 1 j# inst|reg_A|Q [0] $end
$var wire 1 k# inst|R7 [8] $end
$var wire 1 l# inst|R7 [7] $end
$var wire 1 m# inst|R7 [6] $end
$var wire 1 n# inst|R7 [5] $end
$var wire 1 o# inst|R7 [4] $end
$var wire 1 p# inst|R7 [3] $end
$var wire 1 q# inst|R7 [2] $end
$var wire 1 r# inst|R7 [1] $end
$var wire 1 s# inst|R7 [0] $end
$var wire 1 t# inst|R6 [8] $end
$var wire 1 u# inst|R6 [7] $end
$var wire 1 v# inst|R6 [6] $end
$var wire 1 w# inst|R6 [5] $end
$var wire 1 x# inst|R6 [4] $end
$var wire 1 y# inst|R6 [3] $end
$var wire 1 z# inst|R6 [2] $end
$var wire 1 {# inst|R6 [1] $end
$var wire 1 |# inst|R6 [0] $end
$var wire 1 }# inst|R1 [8] $end
$var wire 1 ~# inst|R1 [7] $end
$var wire 1 !$ inst|R1 [6] $end
$var wire 1 "$ inst|R1 [5] $end
$var wire 1 #$ inst|R1 [4] $end
$var wire 1 $$ inst|R1 [3] $end
$var wire 1 %$ inst|R1 [2] $end
$var wire 1 &$ inst|R1 [1] $end
$var wire 1 '$ inst|R1 [0] $end
$var wire 1 ($ inst|R0 [8] $end
$var wire 1 )$ inst|R0 [7] $end
$var wire 1 *$ inst|R0 [6] $end
$var wire 1 +$ inst|R0 [5] $end
$var wire 1 ,$ inst|R0 [4] $end
$var wire 1 -$ inst|R0 [3] $end
$var wire 1 .$ inst|R0 [2] $end
$var wire 1 /$ inst|R0 [1] $end
$var wire 1 0$ inst|R0 [0] $end
$var wire 1 1$ inst|R2 [8] $end
$var wire 1 2$ inst|R2 [7] $end
$var wire 1 3$ inst|R2 [6] $end
$var wire 1 4$ inst|R2 [5] $end
$var wire 1 5$ inst|R2 [4] $end
$var wire 1 6$ inst|R2 [3] $end
$var wire 1 7$ inst|R2 [2] $end
$var wire 1 8$ inst|R2 [1] $end
$var wire 1 9$ inst|R2 [0] $end
$var wire 1 :$ inst|R4 [8] $end
$var wire 1 ;$ inst|R4 [7] $end
$var wire 1 <$ inst|R4 [6] $end
$var wire 1 =$ inst|R4 [5] $end
$var wire 1 >$ inst|R4 [4] $end
$var wire 1 ?$ inst|R4 [3] $end
$var wire 1 @$ inst|R4 [2] $end
$var wire 1 A$ inst|R4 [1] $end
$var wire 1 B$ inst|R4 [0] $end
$var wire 1 C$ inst|R5 [8] $end
$var wire 1 D$ inst|R5 [7] $end
$var wire 1 E$ inst|R5 [6] $end
$var wire 1 F$ inst|R5 [5] $end
$var wire 1 G$ inst|R5 [4] $end
$var wire 1 H$ inst|R5 [3] $end
$var wire 1 I$ inst|R5 [2] $end
$var wire 1 J$ inst|R5 [1] $end
$var wire 1 K$ inst|R5 [0] $end
$var wire 1 L$ inst|R3 [8] $end
$var wire 1 M$ inst|R3 [7] $end
$var wire 1 N$ inst|R3 [6] $end
$var wire 1 O$ inst|R3 [5] $end
$var wire 1 P$ inst|R3 [4] $end
$var wire 1 Q$ inst|R3 [3] $end
$var wire 1 R$ inst|R3 [2] $end
$var wire 1 S$ inst|R3 [1] $end
$var wire 1 T$ inst|R3 [0] $end
$var wire 1 U$ inst|result [8] $end
$var wire 1 V$ inst|result [7] $end
$var wire 1 W$ inst|result [6] $end
$var wire 1 X$ inst|result [5] $end
$var wire 1 Y$ inst|result [4] $end
$var wire 1 Z$ inst|result [3] $end
$var wire 1 [$ inst|result [2] $end
$var wire 1 \$ inst|result [1] $end
$var wire 1 ]$ inst|result [0] $end
$var wire 1 ^$ inst2|altsyncram_component|auto_generated|ram_block1a8_PORTADATAOUT_bus [0] $end
$var wire 1 _$ inst2|altsyncram_component|auto_generated|ram_block1a7_PORTADATAOUT_bus [0] $end
$var wire 1 `$ inst2|altsyncram_component|auto_generated|ram_block1a6_PORTADATAOUT_bus [0] $end
$var wire 1 a$ inst2|altsyncram_component|auto_generated|ram_block1a5_PORTADATAOUT_bus [0] $end
$var wire 1 b$ inst2|altsyncram_component|auto_generated|ram_block1a4_PORTADATAOUT_bus [0] $end
$var wire 1 c$ inst2|altsyncram_component|auto_generated|ram_block1a3_PORTADATAOUT_bus [0] $end
$var wire 1 d$ inst2|altsyncram_component|auto_generated|ram_block1a2_PORTADATAOUT_bus [0] $end
$var wire 1 e$ inst2|altsyncram_component|auto_generated|ram_block1a1_PORTADATAOUT_bus [0] $end
$var wire 1 f$ inst2|altsyncram_component|auto_generated|ram_block1a0_PORTADATAOUT_bus [0] $end
$upscope $end
$upscope $end
$enddefinitions $end
#0
$dumpvars
0!
0"
1#
1$
0%
0*
0)
0(
0'
0&
03
02
01
00
0/
0.
0-
0,
0+
0<
0;
0:
09
08
07
06
05
04
0=
0>
1?
x@
1A
1B
1C
0D
0E
0F
0G
0H
0I
0J
0K
0L
0M
0N
0O
0P
0Q
0R
0S
0T
0U
0V
0W
0X
0Y
0Z
0[
0\
1]
0^
1_
1`
0a
0b
0c
1d
0e
0f
0g
1h
0i
0j
0k
0l
0m
0n
0o
0p
0q
0r
0s
0t
0u
0v
0w
0x
0y
0z
0{
1|
0}
0~
0!!
0"!
0#!
1$!
0%!
0&!
1'!
0(!
0)!
0*!
0+!
0,!
0-!
0.!
0/!
00!
11!
12!
03!
04!
05!
06!
07!
08!
09!
0:!
0;!
0<!
1=!
1>!
1?!
0@!
0A!
0B!
0C!
0D!
1E!
0F!
0G!
0H!
0I!
0J!
0K!
0L!
0M!
0N!
0O!
0P!
0Q!
0R!
0S!
0T!
0U!
0V!
0W!
0X!
0Y!
0Z!
0[!
0\!
0]!
0^!
0_!
0`!
0a!
0b!
0c!
0d!
0e!
0f!
0g!
0h!
0i!
0j!
0k!
0l!
0m!
0n!
0o!
0p!
0q!
0r!
0s!
0t!
0u!
1v!
0w!
0x!
0y!
0z!
0{!
0|!
0}!
0~!
0!"
0""
0#"
1$"
0%"
0&"
0'"
0("
0)"
0*"
0+"
0,"
0-"
0."
0/"
00"
11"
02"
03"
04"
05"
06"
07"
08"
09"
0:"
0;"
0<"
1="
0>"
0?"
0@"
0A"
0B"
0C"
0D"
0E"
0F"
0G"
1O"
0N"
0M"
0L"
0K"
0J"
0I"
0H"
0T"
0S"
0R"
0Q"
0P"
0]"
0\"
0["
0Z"
0Y"
0X"
0W"
0V"
0U"
0f"
0e"
0d"
0c"
0b"
0a"
0`"
0_"
0^"
0o"
0n"
0m"
0l"
0k"
0j"
0i"
0h"
0g"
0x"
0w"
0v"
0u"
0t"
0s"
0r"
0q"
0p"
0##
0"#
0!#
0~"
0}"
0|"
0{"
0z"
0y"
0,#
0+#
0*#
0)#
0(#
0'#
0&#
0%#
0$#
05#
04#
03#
02#
01#
00#
0/#
0.#
0-#
1=#
0<#
0;#
0:#
09#
08#
07#
06#
0F#
0E#
0D#
0C#
0B#
0A#
0@#
0?#
0>#
0O#
0N#
0M#
0L#
0K#
0J#
0I#
0H#
0G#
0X#
0W#
0V#
0U#
0T#
0S#
0R#
0Q#
0P#
0a#
0`#
0_#
0^#
0]#
0\#
0[#
0Z#
0Y#
0j#
0i#
0h#
0g#
0f#
0e#
0d#
0c#
0b#
0s#
0r#
0q#
0p#
0o#
0n#
0m#
0l#
0k#
0|#
0{#
0z#
0y#
0x#
0w#
0v#
0u#
0t#
0'$
0&$
0%$
0$$
0#$
0"$
0!$
0~#
0}#
00$
0/$
0.$
0-$
0,$
0+$
0*$
0)$
0($
09$
08$
07$
06$
05$
04$
03$
02$
01$
0B$
0A$
0@$
0?$
0>$
0=$
0<$
0;$
0:$
0K$
0J$
0I$
0H$
0G$
0F$
0E$
0D$
0C$
0T$
0S$
0R$
0Q$
0P$
0O$
0N$
0M$
0L$
0]$
0\$
0[$
0Z$
0Y$
0X$
0W$
0V$
0U$
0^$
0_$
0`$
0a$
0b$
0c$
0d$
0e$
0f$
$end
#10000
1"
1\
#20000
0"
0\
#30000
1"
1\
#40000
1!
1%
0"
1l
1^
0\
1m
1T"
1I
1*
1a
0_
#40001
1`$
1W"
1U
1P!
16
1:"
1;"
1L
1<"
1-
18"
1W$
#50000
0!
1"
0^
1\
1`"
1n
0'!
1s
0h
1o
0m
1D
0>!
19!
13!
1'!
1.!
1=
0?!
1>!
09!
03!
0P!
1?!
0:"
1P!
1:"
0;"
0L
0<"
0-
1;"
1L
08"
1<"
1-
18"
0W$
1W$
#60000
0%
1!
0"
0l
1^
0\
1S"
0T"
0I
1H
1)
0*
1_
#60001
0`$
1d$
1f$
0W"
1["
1]"
1[
1Y
0U
0P!
1`!
1h!
06
1:
1<
0:"
1!"
1s!
0;"
1""
1t!
1R
1P
0L
0<"
1#"
1u!
0-
11
13
08"
1}!
1k!
0W$
1[$
1]$
#70000
0!
1"
0^
1\
1F#
1D#
0n
10$
1.$
0s
1h
0o
0D
0.!
0=
#80000
0"
0\
#90000
1"
1\
0`"
1d"
1f"
18#
0=#
#100000
0"
0\
#110000
1"
1\
#120000
0"
0\
#130000
1"
1\
#140000
1!
0"
1^
0\
1T"
1I
1b
1*
0a
0_
1c
#140001
0d$
0f$
1c$
0["
0]"
1Z"
1X
0[
0Y
0`!
0h!
1\!
0:
0<
19
0!"
0s!
1'"
0""
0t!
1)"
1O
0R
0P
0#"
0u!
1*"
01
03
10
0}!
0k!
1%"
0[$
0]$
1Z$
#150000
0!
1"
0^
1\
0d"
0f"
1c"
08#
1=#
0O"
1N"
#160000
1%
0"
1l
0\
1m
#170000
1"
1\
1n
0'!
1s
0h
1o
0m
1D
0>!
19!
13!
1v
1-!
1=
0?!
14!
1w
0\!
15!
0|
0'"
1f!
1^!
0$!
0)"
1t!
1""
1P
1R
0O
0*"
1u!
1#"
00
13
11
0%"
1k!
1}!
0Z$
1]$
1[$
#180000
0%
0"
0l
0\
#190000
1"
1\
1,#
1*#
0n
1'$
1%$
1'!
0s
1h
0o
0D
1>!
09!
03!
0v
0-!
0=
05!
04!
0w
0f!
0^!
1|
1?!
1$!
0t!
0""
0P
0R
1\!
0u!
0#"
03
01
1'"
0k!
0}!
1)"
0]$
0[$
1O
1*"
10
1%"
1Z$
#200000
0"
0\
#210000
1"
1\
#220000
0"
0\
#230000
1"
1\
#240000
0"
0\
#250000
1"
1\
#260000
0"
0\
#270000
1"
1\
#280000
0"
0\
#290000
1"
1\
#300000
0"
0\
#310000
1"
1\
#320000
1!
0"
1^
0\
1R"
0S"
0T"
0I
0H
1G
0d
0b
1(
0)
0*
0c
1_
1d
1e
1c
0e
#320001
1f$
0c$
1_$
1]"
0Z"
1V"
1T
0X
1[
1h!
0\!
1L!
1<
09
15
1s!
0'"
1@"
1t!
0)"
1A"
1K
0O
1R
1u!
0*"
1B"
13
00
1,
1k!
0%"
1>"
1]$
0Z$
1V$
#330000
0!
1"
0^
1\
1f"
0c"
1_"
0=#
1<#
1O"
0N"
#340000
1%
0"
1l
0\
1m
#350000
1"
1\
1n
0'!
1i
0h
0m
0>!
19!
13!
14!
1w
1j
0?!
15!
0|
0h!
0L!
1f!
1^!
0$!
0s!
0@"
1""
1P
1#"
11
0A"
0K
1}!
0B"
0,
0>"
1[$
0V$
#360000
0%
0"
0l
0\
