Lab9_and_Lab10/simulation/qsim/Lab9_and_Lab10.msim.vcd
$comment
	File created using the following command:
		vcd file Lab9_and_Lab10.msim.vcd -direction
$end
$date
	Fri Dec 16 22:14:29 2022
$end
$version
	ModelSim Version 2020.1
$end
$timescale
	1ps
$end

$scope module Lab9Part1_vlg_vec_tst $end
$var reg 1 ! Clock $end
$var reg 9 " DIN [8:0] $end
$var reg 1 # Resetn $end
$var reg 1 $ Run $end
$var wire 1 % BusWires [8] $end
$var wire 1 & BusWires [7] $end
$var wire 1 ' BusWires [6] $end
$var wire 1 ( BusWires [5] $end
$var wire 1 ) BusWires [4] $end
$var wire 1 * BusWires [3] $end
$var wire 1 + BusWires [2] $end
$var wire 1 , BusWires [1] $end
$var wire 1 - BusWires [0] $end
$var wire 1 . Done $end

$scope module i1 $end
$var wire 1 / gnd $end
$var wire 1 0 vcc $end
$var wire 1 1 unknown $end
$var tri1 1 2 devclrn $end
$var tri1 1 3 devpor $end
$var tri1 1 4 devoe $end
$var wire 1 5 Done~output_o $end
$var wire 1 6 BusWires[8]~output_o $end
$var wire 1 7 BusWires[7]~output_o $end
$var wire 1 8 BusWires[6]~output_o $end
$var wire 1 9 BusWires[5]~output_o $end
$var wire 1 : BusWires[4]~output_o $end
$var wire 1 ; BusWires[3]~output_o $end
$var wire 1 < BusWires[2]~output_o $end
$var wire 1 = BusWires[1]~output_o $end
$var wire 1 > BusWires[0]~output_o $end
$var wire 1 ? Clock~input_o $end
$var wire 1 @ DIN[7]~input_o $end
$var wire 1 A Run~input_o $end
$var wire 1 B inst|Tstep_D.T1~0_combout $end
$var wire 1 C Resetn~input_o $end
$var wire 1 D inst|Tstep_Q.T1~q $end
$var wire 1 E DIN[8]~input_o $end
$var wire 1 F inst|Selector0~0_combout $end
$var wire 1 G inst|Selector0~1_combout $end
$var wire 1 H inst|Tstep_Q.T0~q $end
$var wire 1 I inst|Tstep_D.T2~0_combout $end
$var wire 1 J inst|Tstep_Q.T2~q $end
$var wire 1 K inst|Tstep_Q.T3~q $end
$var wire 1 L inst|Selector17~0_combout $end
$var wire 1 M DIN[3]~input_o $end
$var wire 1 N DIN[4]~input_o $end
$var wire 1 O DIN[5]~input_o $end
$var wire 1 P inst|Selector10~0_combout $end
$var wire 1 Q inst|Selector11~0_combout $end
$var wire 1 R inst|Selector5~0_combout $end
$var wire 1 S inst|Gin~0_combout $end
$var wire 1 T inst|DINout~0_combout $end
$var wire 1 U DIN[6]~input_o $end
$var wire 1 V DIN[0]~input_o $end
$var wire 1 W inst|Selector1~2_combout $end
$var wire 1 X DIN[2]~input_o $end
$var wire 1 Y DIN[1]~input_o $end
$var wire 1 Z inst|Selector5~1_combout $end
$var wire 1 [ inst|Selector4~0_combout $end
$var wire 1 \ inst|Selector2~2_combout $end
$var wire 1 ] inst|Selector4~1_combout $end
$var wire 1 ^ inst|Selector7~0_combout $end
$var wire 1 _ inst|Selector7~1_combout $end
$var wire 1 ` inst|Selector8~0_combout $end
$var wire 1 a inst|Selector8~1_combout $end
$var wire 1 b inst|Equal6~0_combout $end
$var wire 1 c inst|Gout~0_combout $end
$var wire 1 d inst|Selector6~0_combout $end
$var wire 1 e inst|Selector6~1_combout $end
$var wire 1 f inst|Equal9~4_combout $end
$var wire 1 g inst|Selector3~0_combout $end
$var wire 1 h inst|Selector3~1_combout $end
$var wire 1 i inst|Selector2~3_combout $end
$var wire 1 j inst|Selector2~4_combout $end
$var wire 1 k inst|Equal9~2_combout $end
$var wire 1 l inst|Selector1~4_combout $end
$var wire 1 m inst|Selector1~5_combout $end
$var wire 1 n inst|Equal9~3_combout $end
$var wire 1 o inst|Equal10~0_combout $end
$var wire 1 p inst|Equal10~1_combout $end
$var wire 1 q inst|Selector18~0_combout $end
$var wire 1 r inst|Selector9~0_combout $end
$var wire 1 s inst|Selector15~0_combout $end
$var wire 1 t inst|Equal4~0_combout $end
$var wire 1 u inst|Selector1~3_combout $end
$var wire 1 v inst|Equal4~1_combout $end
$var wire 1 w inst|Equal7~0_combout $end
$var wire 1 x inst|Equal5~0_combout $end
$var wire 1 y inst|Equal5~1_combout $end
$var wire 1 z inst|Equal11~0_combout $end
$var wire 1 { inst|Equal11~1_combout $end
$var wire 1 | inst|Selector18~1_combout $end
$var wire 1 } inst|Selector16~0_combout $end
$var wire 1 ~ inst|Equal4~2_combout $end
$var wire 1 !! inst|Equal4~3_combout $end
$var wire 1 "! inst|Selector18~2_combout $end
$var wire 1 #! inst|DINout~1_combout $end
$var wire 1 $! inst|Equal1~0_combout $end
$var wire 1 %! inst|AS|LPM_ADD_SUB_component|auto_generated|_~0_combout $end
$var wire 1 &! inst|Selector19~0_combout $end
$var wire 1 '! inst|Selector19~1_combout $end
$var wire 1 (! inst|Selector19~2_combout $end
$var wire 1 )! inst|Selector20~0_combout $end
$var wire 1 *! inst|Selector20~1_combout $end
$var wire 1 +! inst|Selector20~2_combout $end
$var wire 1 ,! inst|Selector21~0_combout $end
$var wire 1 -! inst|Selector21~1_combout $end
$var wire 1 .! inst|Selector21~2_combout $end
$var wire 1 /! inst|Selector22~0_combout $end
$var wire 1 0! inst|Selector22~1_combout $end
$var wire 1 1! inst|Selector22~2_combout $end
$var wire 1 2! inst|Selector23~0_combout $end
$var wire 1 3! inst|Selector23~1_combout $end
$var wire 1 4! inst|Selector23~2_combout $end
$var wire 1 5! inst|Selector24~0_combout $end
$var wire 1 6! inst|Selector24~1_combout $end
$var wire 1 7! inst|Equal8~0_combout $end
$var wire 1 8! inst|Selector12~0_combout $end
$var wire 1 9! inst|Selector24~2_combout $end
$var wire 1 :! inst|Selector25~0_combout $end
$var wire 1 ;! inst|Selector25~1_combout $end
$var wire 1 <! inst|Selector25~2_combout $end
$var wire 1 =! inst|Selector26~0_combout $end
$var wire 1 >! inst|Selector26~1_combout $end
$var wire 1 ?! inst|Selector26~2_combout $end
$var wire 1 @! inst|reg_G|Q[0]~10_cout $end
$var wire 1 A! inst|reg_G|Q[0]~11_combout $end
$var wire 1 B! inst|Selector26~3_combout $end
$var wire 1 C! inst|Selector26~4_combout $end
$var wire 1 D! inst|Equal7~1_combout $end
$var wire 1 E! inst|Equal7~2_combout $end
$var wire 1 F! inst|Equal6~1_combout $end
$var wire 1 G! inst|Equal6~2_combout $end
$var wire 1 H! inst|Selector14~0_combout $end
$var wire 1 I! inst|Selector13~0_combout $end
$var wire 1 J! inst|Selector26~5_combout $end
$var wire 1 K! inst|Selector26~6_combout $end
$var wire 1 L! inst|AS|LPM_ADD_SUB_component|auto_generated|_~8_combout $end
$var wire 1 M! inst|reg_G|Q[0]~12 $end
$var wire 1 N! inst|reg_G|Q[1]~13_combout $end
$var wire 1 O! inst|Selector25~3_combout $end
$var wire 1 P! inst|Selector25~4_combout $end
$var wire 1 Q! inst|Selector25~5_combout $end
$var wire 1 R! inst|Selector25~6_combout $end
$var wire 1 S! inst|AS|LPM_ADD_SUB_component|auto_generated|_~7_combout $end
$var wire 1 T! inst|reg_G|Q[1]~14 $end
$var wire 1 U! inst|reg_G|Q[2]~15_combout $end
$var wire 1 V! inst|Selector24~3_combout $end
$var wire 1 W! inst|Selector24~4_combout $end
$var wire 1 X! inst|Selector24~5_combout $end
$var wire 1 Y! inst|Selector24~6_combout $end
$var wire 1 Z! inst|AS|LPM_ADD_SUB_component|auto_generated|_~6_combout $end
$var wire 1 [! inst|reg_G|Q[2]~16 $end
$var wire 1 \! inst|reg_G|Q[3]~17_combout $end
$var wire 1 ]! inst|Selector23~3_combout $end
$var wire 1 ^! inst|Equal8~1_combout $end
$var wire 1 _! inst|Selector23~4_combout $end
$var wire 1 `! inst|Selector23~5_combout $end
$var wire 1 a! inst|Selector23~6_combout $end
$var wire 1 b! inst|AS|LPM_ADD_SUB_component|auto_generated|_~5_combout $end
$var wire 1 c! inst|reg_G|Q[3]~18 $end
$var wire 1 d! inst|reg_G|Q[4]~19_combout $end
$var wire 1 e! inst|Selector22~3_combout $end
$var wire 1 f! inst|Selector22~4_combout $end
$var wire 1 g! inst|Selector22~5_combout $end
$var wire 1 h! inst|Selector22~6_combout $end
$var wire 1 i! inst|AS|LPM_ADD_SUB_component|auto_generated|_~4_combout $end
$var wire 1 j! inst|reg_G|Q[4]~20 $end
$var wire 1 k! inst|reg_G|Q[5]~21_combout $end
$var wire 1 l! inst|Selector21~3_combout $end
$var wire 1 m! inst|Selector21~4_combout $end
$var wire 1 n! inst|Selector21~5_combout $end
$var wire 1 o! inst|Selector21~6_combout $end
$var wire 1 p! inst|AS|LPM_ADD_SUB_component|auto_generated|_~3_combout $end
$var wire 1 q! inst|reg_G|Q[5]~22 $end
$var wire 1 r! inst|reg_G|Q[6]~23_combout $end
$var wire 1 s! inst|Selector20~3_combout $end
$var wire 1 t! inst|Selector20~4_combout $end
$var wire 1 u! inst|Selector20~5_combout $end
$var wire 1 v! inst|Selector20~6_combout $end
$var wire 1 w! inst|AS|LPM_ADD_SUB_component|auto_generated|_~2_combout $end
$var wire 1 x! inst|reg_G|Q[6]~24 $end
$var wire 1 y! inst|reg_G|Q[7]~25_combout $end
$var wire 1 z! inst|Selector19~3_combout $end
$var wire 1 {! inst|Selector19~4_combout $end
$var wire 1 |! inst|Selector19~5_combout $end
$var wire 1 }! inst|Selector19~6_combout $end
$var wire 1 ~! inst|AS|LPM_ADD_SUB_component|auto_generated|_~1_combout $end
$var wire 1 !" inst|reg_G|Q[7]~26 $end
$var wire 1 "" inst|reg_G|Q[8]~27_combout $end
$var wire 1 #" inst|Selector18~3_combout $end
$var wire 1 $" inst|Selector18~4_combout $end
$var wire 1 %" inst|Selector18~5_combout $end
$var wire 1 &" inst|Selector18~6_combout $end
$var wire 1 '" inst|reg_0|Q [8] $end
$var wire 1 (" inst|reg_0|Q [7] $end
$var wire 1 )" inst|reg_0|Q [6] $end
$var wire 1 *" inst|reg_0|Q [5] $end
$var wire 1 +" inst|reg_0|Q [4] $end
$var wire 1 ," inst|reg_0|Q [3] $end
$var wire 1 -" inst|reg_0|Q [2] $end
$var wire 1 ." inst|reg_0|Q [1] $end
$var wire 1 /" inst|reg_0|Q [0] $end
$var wire 1 0" inst|reg_6|Q [8] $end
$var wire 1 1" inst|reg_6|Q [7] $end
$var wire 1 2" inst|reg_6|Q [6] $end
$var wire 1 3" inst|reg_6|Q [5] $end
$var wire 1 4" inst|reg_6|Q [4] $end
$var wire 1 5" inst|reg_6|Q [3] $end
$var wire 1 6" inst|reg_6|Q [2] $end
$var wire 1 7" inst|reg_6|Q [1] $end
$var wire 1 8" inst|reg_6|Q [0] $end
$var wire 1 9" inst|reg_G|Q [8] $end
$var wire 1 :" inst|reg_G|Q [7] $end
$var wire 1 ;" inst|reg_G|Q [6] $end
$var wire 1 <" inst|reg_G|Q [5] $end
$var wire 1 =" inst|reg_G|Q [4] $end
$var wire 1 >" inst|reg_G|Q [3] $end
$var wire 1 ?" inst|reg_G|Q [2] $end
$var wire 1 @" inst|reg_G|Q [1] $end
$var wire 1 A" inst|reg_G|Q [0] $end
$var wire 1 B" inst|reg_4|Q [8] $end
$var wire 1 C" inst|reg_4|Q [7] $end
$var wire 1 D" inst|reg_4|Q [6] $end
$var wire 1 E" inst|reg_4|Q [5] $end
$var wire 1 F" inst|reg_4|Q [4] $end
$var wire 1 G" inst|reg_4|Q [3] $end
$var wire 1 H" inst|reg_4|Q [2] $end
$var wire 1 I" inst|reg_4|Q [1] $end
$var wire 1 J" inst|reg_4|Q [0] $end
$var wire 1 K" inst|reg_IR|Q [8] $end
$var wire 1 L" inst|reg_IR|Q [7] $end
$var wire 1 M" inst|reg_IR|Q [6] $end
$var wire 1 N" inst|reg_IR|Q [5] $end
$var wire 1 O" inst|reg_IR|Q [4] $end
$var wire 1 P" inst|reg_IR|Q [3] $end
$var wire 1 Q" inst|reg_IR|Q [2] $end
$var wire 1 R" inst|reg_IR|Q [1] $end
$var wire 1 S" inst|reg_IR|Q [0] $end
$var wire 1 T" inst|reg_1|Q [8] $end
$var wire 1 U" inst|reg_1|Q [7] $end
$var wire 1 V" inst|reg_1|Q [6] $end
$var wire 1 W" inst|reg_1|Q [5] $end
$var wire 1 X" inst|reg_1|Q [4] $end
$var wire 1 Y" inst|reg_1|Q [3] $end
$var wire 1 Z" inst|reg_1|Q [2] $end
$var wire 1 [" inst|reg_1|Q [1] $end
$var wire 1 \" inst|reg_1|Q [0] $end
$var wire 1 ]" inst|reg_5|Q [8] $end
$var wire 1 ^" inst|reg_5|Q [7] $end
$var wire 1 _" inst|reg_5|Q [6] $end
$var wire 1 `" inst|reg_5|Q [5] $end
$var wire 1 a" inst|reg_5|Q [4] $end
$var wire 1 b" inst|reg_5|Q [3] $end
$var wire 1 c" inst|reg_5|Q [2] $end
$var wire 1 d" inst|reg_5|Q [1] $end
$var wire 1 e" inst|reg_5|Q [0] $end
$var wire 1 f" inst|reg_3|Q [8] $end
$var wire 1 g" inst|reg_3|Q [7] $end
$var wire 1 h" inst|reg_3|Q [6] $end
$var wire 1 i" inst|reg_3|Q [5] $end
$var wire 1 j" inst|reg_3|Q [4] $end
$var wire 1 k" inst|reg_3|Q [3] $end
$var wire 1 l" inst|reg_3|Q [2] $end
$var wire 1 m" inst|reg_3|Q [1] $end
$var wire 1 n" inst|reg_3|Q [0] $end
$var wire 1 o" inst|reg_7|Q [8] $end
$var wire 1 p" inst|reg_7|Q [7] $end
$var wire 1 q" inst|reg_7|Q [6] $end
$var wire 1 r" inst|reg_7|Q [5] $end
$var wire 1 s" inst|reg_7|Q [4] $end
$var wire 1 t" inst|reg_7|Q [3] $end
$var wire 1 u" inst|reg_7|Q [2] $end
$var wire 1 v" inst|reg_7|Q [1] $end
$var wire 1 w" inst|reg_7|Q [0] $end
$var wire 1 x" inst|reg_2|Q [8] $end
$var wire 1 y" inst|reg_2|Q [7] $end
$var wire 1 z" inst|reg_2|Q [6] $end
$var wire 1 {" inst|reg_2|Q [5] $end
$var wire 1 |" inst|reg_2|Q [4] $end
$var wire 1 }" inst|reg_2|Q [3] $end
$var wire 1 ~" inst|reg_2|Q [2] $end
$var wire 1 !# inst|reg_2|Q [1] $end
$var wire 1 "# inst|reg_2|Q [0] $end
$var wire 1 ## inst|reg_A|Q [8] $end
$var wire 1 $# inst|reg_A|Q [7] $end
$var wire 1 %# inst|reg_A|Q [6] $end
$var wire 1 &# inst|reg_A|Q [5] $end
$var wire 1 '# inst|reg_A|Q [4] $end
$var wire 1 (# inst|reg_A|Q [3] $end
$var wire 1 )# inst|reg_A|Q [2] $end
$var wire 1 *# inst|reg_A|Q [1] $end
$var wire 1 +# inst|reg_A|Q [0] $end
$upscope $end
$upscope $end
$enddefinitions $end
#0
$dumpvars
0!
b0 "
0#
0$
0-
0,
0+
0*
0)
0(
0'
0&
0%
0.
0/
10
x1
12
13
14
05
06
07
08
09
0:
0;
0<
0=
0>
0?
0@
0A
0B
0C
0D
0E
0F
0G
0H
0I
0J
0K
0L
0M
0N
0O
0P
0Q
0R
0S
0T
0U
0V
0W
0X
0Y
0Z
0[
0\
0]
0^
0_
0`
0a
1b
0c
0d
0e
1f
0g
0h
0i
0j
0k
0l
0m
0n
0o
0p
0q
0r
0s
1t
1u
1v
1w
0x
0y
0z
0{
0|
0}
0~
0!!
0"!
0#!
0$!
0%!
0&!
0'!
0(!
0)!
0*!
0+!
0,!
0-!
0.!
0/!
00!
01!
02!
03!
04!
05!
06!
07!
08!
09!
0:!
0;!
0<!
0=!
0>!
0?!
0@!
0A!
0B!
0C!
0D!
0E!
0F!
0G!
0H!
0I!
0J!
0K!
0L!
1M!
0N!
0O!
0P!
0Q!
0R!
0S!
0T!
0U!
0V!
0W!
0X!
0Y!
0Z!
1[!
0\!
0]!
0^!
0_!
0`!
0a!
0b!
0c!
0d!
0e!
0f!
0g!
0h!
0i!
1j!
0k!
0l!
0m!
0n!
0o!
0p!
0q!
0r!
0s!
0t!
0u!
0v!
0w!
1x!
0y!
0z!
0{!
0|!
0}!
0~!
0!"
0""
0#"
0$"
0%"
0&"
0/"
0."
0-"
0,"
0+"
0*"
0)"
0("
0'"
08"
07"
06"
05"
04"
03"
02"
01"
00"
0A"
0@"
0?"
0>"
0="
0<"
0;"
0:"
09"
0J"
0I"
0H"
0G"
0F"
0E"
0D"
0C"
0B"
0S"
0R"
0Q"
0P"
0O"
0N"
0M"
0L"
0K"
0\"
0["
0Z"
0Y"
0X"
0W"
0V"
0U"
0T"
0e"
0d"
0c"
0b"
0a"
0`"
0_"
0^"
0]"
0n"
0m"
0l"
0k"
0j"
0i"
0h"
0g"
0f"
0w"
0v"
0u"
0t"
0s"
0r"
0q"
0p"
0o"
0"#
0!#
0~"
0}"
0|"
0{"
0z"
0y"
0x"
0+#
0*#
0)#
0(#
0'#
0&#
0%#
0$#
0##
$end
#10000
1!
1?
#20000
1#
1$
b1000000 "
0!
1C
1A
1U
0?
1G
1B
#30000
1!
1?
1M"
1H
1D
1#!
1T
1F
0B
1L
15
1s!
0t
0f
1r
1.
0G
1t!
0v
0w
1v!
18
1w!
1'
1r!
#40000
b1000100 "
b1000101 "
0$
b101 "
0!
0A
1V
1X
0U
0?
1B!
1V!
0s!
1C!
1W!
0t!
1K!
1Y!
0v!
08
1<
1>
1L!
1Z!
0w!
1-
1+
0'
1A!
1U!
0r!
#50000
1!
1?
1w"
1u"
0H
0D
0#!
0T
0F
0L
05
0V!
0B!
1t
1f
0r
0.
0W!
0C!
1v
1w
0Y!
0K!
0>
0<
0Z!
0L!
0+
0-
0U!
0A!
#60000
b1101 "
b1001 "
b1000 "
1$
0!
1A
0V
0X
1M
0?
1G
1B
#70000
1!
1?
0M"
1P"
1H
1D
1T
1F
0B
1L
15
1W
1P
1.
0G
0v
1m
0w
1z
1{
1>!
16!
1K!
1Y!
1<
1>
1L!
1Z!
1-
1+
1A!
1U!
#80000
0$
0!
0A
0?
#90000
1!
1?
18"
16"
0H
0D
0T
0F
0L
05
0W
0P
0.
1v
0m
1w
0z
0{
0>!
06!
0K!
0Y!
0<
0>
0L!
0Z!
0-
0+
0A!
0U!
#100000
b10001000 "
b10000000 "
b10000001 "
1$
0!
1A
1V
0M
1@
0?
1G
1B
#110000
1!
1?
1S"
0P"
1L"
1H
1D
1I
0B
1l
0v
1m
0w
1z
1{
1>!
16!
1K!
1Y!
1<
1>
1L!
1Z!
1-
1+
1A!
1U!
#120000
0$
0!
0A
0?
#130000
1!
1?
1+#
1)#
0D
1J
0M!
0[!
1S
0A!
0U!
0I
1\
0l
1N!
1\!
1j
1v
0m
0z
1o
0{
1p
0>!
06!
1=!
15!
#140000
1$
0!
1A
0?
#150000
1!
1?
1>"
1@"
1K
0J
1c
1F
0S
1L
15
1]!
1O!
0t
0f
0\
1r
1.
0G
1_!
1P!
0v
0p
0j
0=!
05!
0o
1a!
1R!
1=
1;
1b!
1S!
1*
1,
0K!
0Y!
0<
0>
1c!
1T!
0L!
0Z!
0-
0+
0\!
0N!
1M!
1d!
1A!
0T!
1N!
1[!
1U!
0c!
1\!
0d!
#160000
0$
0!
0A
0?
#170000
1!
1?
0w"
1v"
0u"
1t"
0K
0H
0c
0F
0L
05
0]!
0O!
1t
1f
0r
0.
0_!
0P!
1v
1w
0a!
0R!
0=
0;
0b!
0S!
0*
0,
0\!
0N!
#180000
b11000001 "
b11000000 "
1$
0!
1A
0V
1U
0?
1G
1B
#190000
1!
1?
0S"
1M"
1H
1D
1$!
0B
1I
1l
0v
1m
0w
1z
1{
1;!
13!
1R!
1a!
1;
1=
1S!
1b!
1,
1*
1N!
1\!
#200000
b1000000 "
b0 "
0$
0!
0A
0U
0@
0?
#210000
1!
1?
0+#
1*#
0)#
1(#
0D
1J
1T!
1c!
1~!
1w!
1p!
1i!
0b!
1Z!
0S!
1L!
1@!
1%!
1S
0A!
0N!
0U!
0\!
0I
0[!
0j!
0c!
0T!
0M!
1W
0l
1y!
1r!
1k!
1\!
1N!
1""
1c!
1q!
1j!
1[!
1T!
0\!
0k!
1d!
1U!
0N!
0j!
0x!
0q!
0c!
0[!
0d!
0r!
1k!
1\!
0U!
1q!
1!"
1x!
1j!
1c!
0k!
0y!
1r!
1d!
0\!
0x!
0!"
0q!
0j!
0r!
0""
1y!
1k!
0d!
1!"
1x!
1q!
0y!
1""
1r!
0k!
0!"
0x!
0""
1y!
0r!
1!"
1""
0y!
0""
#220000
1$
0!
1A
0?
#230000
1!
1?
0>"
0@"
1K
0J
1c
1F
0~!
0w!
0p!
0i!
1b!
0Z!
1S!
0L!
0@!
0%!
0S
1L
15
0t
0f
0!"
1x!
0q!
1j!
1[!
1M!
0W
1r
1.
0G
1y!
1r!
1k!
1d!
1\!
1U!
1N!
1""
0{
0m
0""
0y!
0r!
0k!
0\!
0N!
0;!
03!
0z
0R!
0a!
0;
0=
0S!
0b!
0,
0*
0T!
0c!
1N!
1\!
0U!
0d!
#240000
0$
0!
0A
0?
#250000
b100000000 "
b100100000 "
b100100010 "
b100100011 "
b110100011 "
b111100011 "
1!
1V
1Y
1O
1U
1@
1E
1?
0v"
0t"
0K
0H
0c
0F
0L
05
1t
1f
0r
0.
1v
1w
#260000
b111110011 "
b111110111 "
1$
b111110110 "
b110110110 "
0!
1A
0V
1X
1N
0U
0?
1G
1B
#270000
1!
1?
1R"
1Q"
0M"
1N"
1O"
1H
1K"
1D
0u
0$!
1F
0B
0G
#280000
b110111110 "
b110101110 "
0$
b110101111 "
b111101111 "
0!
0A
1V
1M
0N
1U
0?
#290000
1!
1?
0H
0D
0F
#300000
b101101111 "
b101101011 "
b101100011 "
1$
b101100010 "
b100100010 "
0!
1A
0V
0X
0M
0U
0@
0?
1G
1B
#310000
1!
1?
0Q"
0O"
0L"
1H
1D
1F
0B
0G
#320000
b100010 "
b10 "
b0 "
b10000000 "
b10000100 "
b10001100 "
0$
b11001100 "
0!
0A
0Y
1X
1M
0O
1U
1@
0E
0?
#330000
1!
1?
0H
0D
0F
#340000
b11101100 "
b11101110 "
1$
0!
1A
1Y
1O
0?
1G
1B
#350000
1!
1?
1Q"
1M"
1P"
1L"
1H
0K"
1D
1$!
1I
0B
1d
1e
1F!
0w
0f
1G!
#360000
b11101010 "
b11001010 "
b11001000 "
0$
0!
0A
0Y
0X
0O
0?
#370000
1!
1?
0*#
0(#
0D
1J
1~!
1w!
1p!
1i!
1b!
1Z!
1S!
1L!
1@!
1%!
1S
0N!
0\!
0I
0M!
1W
0d
1y!
1r!
1k!
1d!
1\!
1U!
1N!
1""
1T!
1_
0e
0N!
0[!
1x
0b
0F!
1w
1f
0U!
1c!
1y
0G!
0\!
0j!
0d!
1q!
0k!
0x!
0r!
1!"
0y!
0""
#380000
b11011000 "
b11010000 "
b11110000 "
1$
0!
1A
0M
1N
1O
0?
#390000
1!
1?
1K
0J
1c
1F
0~!
0w!
0p!
0i!
0b!
0Z!
0S!
0L!
0@!
0%!
0S
1L
15
0t
0f
0!"
1x!
0q!
1j!
0c!
1[!
0T!
1M!
0W
1H!
1.
0G
1y!
1r!
1k!
1d!
1\!
1U!
1N!
1""
0v
0_
0""
0y!
0r!
0k!
0d!
0\!
0U!
0N!
0w
0x
1b
0y
#400000
b11100000 "
0$
0!
0A
0N
0?
#410000
1!
1?
0K
0H
0c
0F
0L
05
1t
1f
0H!
0.
1v
1w
#420000
b11100001 "
b111100001 "
b111101001 "
b111001001 "
1$
0!
1A
1V
1M
0O
1E
0?
1G
1B
#430000
1!
1?
0R"
0Q"
1S"
0N"
1H
1K"
1D
1u
0$!
1F
0B
0G
#440000
b101001001 "
b100001001 "
b100001101 "
b100001111 "
b1111 "
b101111 "
0$
0!
0A
1Y
1X
1O
0U
0@
0E
0?
#450000
1!
1?
0H
0D
0F
#460000
b111111 "
b10111111 "
b10111011 "
b10111001 "
1$
0!
1A
0Y
0X
1N
1@
0?
1G
1B
#470000
1!
1?
0M"
1N"
1O"
1H
0K"
1D
0B
1I
1`
1a
1~
0b
1!!
#480000
b10110001 "
b11110001 "
b111110001 "
b111110101 "
b111110111 "
0$
0!
0A
1Y
1X
0M
1U
1E
0?
#490000
1!
1?
0D
1J
1S
0I
1\
0`
1j
0a
0w
1o
0~
1b
0!!
1p
1=!
15!
1K!
1Y!
1<
1>
1L!
1Z!
1-
1+
1A!
1U!
#500000
b111110110 "
b111010110 "
b111000110 "
b101000110 "
b101001110 "
b1001110 "
b1001100 "
1$
0!
1A
0V
0Y
1M
0N
0O
0@
0E
0?
#510000
1!
1?
1?"
1A"
1K
0J
1c
1F
0S
1L
15
1V!
1B!
0t
0f
0\
1}
1.
0G
1W!
1C!
0v
0p
0j
0=!
05!
0o
#520000
b1001101 "
b1101101 "
b11101101 "
b111101101 "
b111101111 "
0$
0!
0A
1V
1Y
1O
1@
1E
0?
#530000
1!
1?
1-"
1/"
0K
0H
0c
0F
0L
05
0V!
0B!
1t
1f
0}
0.
0W!
0C!
1v
1w
0Y!
0K!
0>
0<
0Z!
0L!
0+
0-
0U!
0A!
#540000
b111111111 "
b111110111 "
b111110110 "
1$
0!
1A
0V
0M
1N
0?
1G
1B
#550000
1!
1?
1R"
1Q"
0S"
1M"
0P"
1H
1K"
1D
0u
1F
0B
0G
#560000
b110110110 "
b110110010 "
b110010010 "
b110000010 "
0$
0!
0A
0X
0N
0O
0U
0?
#570000
1!
1?
0H
0D
0F
#580000
b100000010 "
b100001010 "
b101001010 "
b101001110 "
b101101110 "
1$
0!
1A
1X
1M
1O
1U
0@
0?
1G
1B
#590000
1!
1?
0O"
1P"
0L"
1H
1D
1F
0B
0G
#600000
b1101110 "
b1101100 "
b1111100 "
b1111000 "
b1011000 "
0$
0!
0A
0Y
0X
1N
0O
0E
0?
#610000
1!
1?
0H
0D
0F
#620000
b11011000 "
b10011000 "
b10011010 "
b10001010 "
1$
0!
1A
1Y
0N
0U
1@
0?
1G
1B
#630000
1!
1?
0Q"
0M"
0N"
1L"
1H
0K"
1D
1I
0B
1i
1j
0w
1o
1p
1=!
15!
1K!
1Y!
1<
1>
1L!
1Z!
1-
1+
1A!
1U!
#640000
b10000010 "
b110000010 "
b111000010 "
b111000000 "
b111010000 "
0$
0!
0A
0Y
0M
1N
1U
1E
0?
#650000
1!
1?
1+#
1)#
0D
1J
0M!
0[!
1S
0A!
0U!
0I
1W
0i
1N!
1\!
1h
0j
0o
1k
0p
1n
0=!
05!
0K!
0Y!
0<
0>
0L!
0Z!
0-
0+
1M!
1[!
1A!
1U!
0N!
0\!
#660000
b111010001 "
b111010101 "
b111110101 "
b101110101 "
b101111101 "
b101111111 "
b101101111 "
1$
0!
1A
1V
1Y
1X
1M
0N
1O
0@
0?
#670000
1!
1?
1K
0J
1c
1F
0S
1L
15
1V!
1B!
0t
0f
0W
1P
1.
0G
1W!
1C!
0v
0n
0h
0k
1Y!
1K!
1>
1<
1Z!
1L!
1+
1-
0[!
0M!
0U!
0A!
1\!
1N!
#680000
b101101011 "
b101100011 "
b101100001 "
b101110001 "
0$
0!
0A
0Y
0X
0M
1N
0?
#690000
1!
1?
0K
0H
0c
0F
0L
05
0V!
0B!
1t
1f
0P
0.
0W!
0C!
1v
1w
0Y!
0K!
0>
0<
0Z!
0L!
0+
0-
1[!
1M!
1U!
1A!
0\!
0N!
#700000
b100110001 "
b100110101 "
b100100101 "
1$
0!
1A
1X
0N
0U
0?
1G
1B
#710000
1!
1?
0R"
1Q"
1S"
1N"
0P"
0L"
1H
1K"
1D
1F
0B
0G
#720000
b100100001 "
0$
0!
0A
0X
0?
#730000
1!
1?
0H
0D
0F
#740000
b100100000 "
b100000000 "
b100010000 "
1$
0!
1A
0V
1N
0O
0?
1G
1B
#750000
1!
1?
0Q"
0S"
0N"
1O"
1H
1D
1u
1F
0B
0G
#760000
b110010000 "
b110010010 "
b110010011 "
b110110011 "
b110100011 "
0$
0!
0A
1V
1Y
0N
1O
1@
0?
#770000
1!
1?
0H
0D
0F
#780000
b111100011 "
b111100111 "
b101100111 "
b101100101 "
b101000101 "
1$
0!
1A
0Y
1X
0O
1U
0@
0?
1G
1B
#790000
1!
1?
1Q"
1S"
1M"
0O"
1H
1D
0u
1F
0B
0G
#800000
b101010101 "
b100010101 "
b110010101 "
0$
0!
0A
1N
0U
1@
0?
#810000
1!
1?
0H
0D
0F
#820000
b10010101 "
b10010001 "
b10110001 "
b11110001 "
b1110001 "
1$
0!
1A
0X
1O
1U
0@
0E
0?
1G
1B
#830000
1!
1?
0Q"
1N"
1O"
1H
0K"
1D
1u
1#!
1T
1F
0B
1L
15
1s!
1l!
1e!
1B!
0t
0f
1s
1.
0G
1t!
1m!
1f!
1C!
0v
0w
1v!
1o!
1h!
1K!
1>
1:
19
18
1w!
1p!
1i!
1L!
1'
1(
1)
1-
0M!
1r!
1k!
1d!
0A!
1N!
#840000
b1111001 "
b1111101 "
b11111101 "
0$
0!
0A
1X
1M
1@
0?
1V!
1]!
1z!
1W!
1_!
1{!
1Y!
1a!
1}!
17
1;
1<
1Z!
1b!
1~!
1+
1*
1&
0[!
0U!
1\!
1y!
1c!
0\!
0j!
0d!
1q!
0k!
0x!
0r!
1!"
0y!
1""
#850000
1!
1?
1\"
1Z"
1Y"
1X"
1W"
1V"
1U"
0H
0D
0#!
0T
0F
0L
05
0z!
0s!
0l!
0e!
0]!
0V!
0B!
1t
1f
0s
0.
0{!
0t!
0m!
0f!
0_!
0W!
0C!
1v
1w
0}!
0v!
0o!
0h!
0a!
0Y!
0K!
0>
0<
0;
0:
09
08
07
0~!
0w!
0p!
0i!
0b!
0Z!
0L!
0&
0'
0(
0)
0*
0+
0-
0!"
1x!
0q!
1j!
0c!
1[!
1M!
1y!
1r!
1k!
1d!
1\!
1U!
1A!
0""
0y!
0r!
0k!
0d!
0\!
0N!
