Lab9_and_Lab10/simulation/qsim/Lab9_and_Lab10.msim.vcd
$comment
	File created using the following command:
		vcd file Lab9_and_Lab10.msim.vcd -direction
$end
$date
	Fri Dec 16 21:12:35 2022
$end
$version
	ModelSim Version 2020.1
$end
$timescale
	1ps
$end

$scope module Lab9Part1_vlg_vec_tst $end
$var reg 1 ! Clock $end
$var reg 9 " DIN [8:0] $end
$var reg 1 # Resetn $end
$var reg 1 $ Run $end
$var wire 1 % BusWires [8] $end
$var wire 1 & BusWires [7] $end
$var wire 1 ' BusWires [6] $end
$var wire 1 ( BusWires [5] $end
$var wire 1 ) BusWires [4] $end
$var wire 1 * BusWires [3] $end
$var wire 1 + BusWires [2] $end
$var wire 1 , BusWires [1] $end
$var wire 1 - BusWires [0] $end
$var wire 1 . Done $end

$scope module i1 $end
$var wire 1 / gnd $end
$var wire 1 0 vcc $end
$var wire 1 1 unknown $end
$var tri1 1 2 devclrn $end
$var tri1 1 3 devpor $end
$var tri1 1 4 devoe $end
$var wire 1 5 Run~input_o $end
$var wire 1 6 Done~output_o $end
$var wire 1 7 BusWires[8]~output_o $end
$var wire 1 8 BusWires[7]~output_o $end
$var wire 1 9 BusWires[6]~output_o $end
$var wire 1 : BusWires[5]~output_o $end
$var wire 1 ; BusWires[4]~output_o $end
$var wire 1 < BusWires[3]~output_o $end
$var wire 1 = BusWires[2]~output_o $end
$var wire 1 > BusWires[1]~output_o $end
$var wire 1 ? BusWires[0]~output_o $end
$var wire 1 @ Clock~input_o $end
$var wire 1 A Resetn~input_o $end
$var wire 1 B inst|Tstep|Q~0_combout $end
$var wire 1 C inst|Tstep|Q~1_combout $end
$var wire 1 D DIN[7]~input_o $end
$var wire 1 E inst|Decoder7~0_combout $end
$var wire 1 F DIN[8]~input_o $end
$var wire 1 G inst|Mux16~0_combout $end
$var wire 1 H DIN[3]~input_o $end
$var wire 1 I DIN[4]~input_o $end
$var wire 1 J DIN[5]~input_o $end
$var wire 1 K inst|Mux15~2_combout $end
$var wire 1 L DIN[0]~input_o $end
$var wire 1 M DIN[6]~input_o $end
$var wire 1 N inst|Mux17~0_combout $end
$var wire 1 O inst|Mux17~1_combout $end
$var wire 1 P inst|Mux24~0_combout $end
$var wire 1 Q inst|Mux9~2_combout $end
$var wire 1 R inst|Mux17~2_combout $end
$var wire 1 S inst|Mux17~3_combout $end
$var wire 1 T DIN[1]~input_o $end
$var wire 1 U DIN[2]~input_o $end
$var wire 1 V inst|Mux18~0_combout $end
$var wire 1 W inst|Mux18~1_combout $end
$var wire 1 X inst|Mux23~0_combout $end
$var wire 1 Y inst|Mux19~3_combout $end
$var wire 1 Z inst|Mux19~13_combout $end
$var wire 1 [ inst|Mux19~12_combout $end
$var wire 1 \ inst|Mux11~2_combout $end
$var wire 1 ] inst|Mux24~1_combout $end
$var wire 1 ^ inst|Mux20~0_combout $end
$var wire 1 _ inst|Mux22~0_combout $end
$var wire 1 ` inst|Mux21~0_combout $end
$var wire 1 a inst|Mux8~2_combout $end
$var wire 1 b inst|Mux23~1_combout $end
$var wire 1 c inst|Mux21~1_combout $end
$var wire 1 d inst|Equal2~0_combout $end
$var wire 1 e inst|Mux24~2_combout $end
$var wire 1 f inst|DINout~0_combout $end
$var wire 1 g inst|Gout~0_combout $end
$var wire 1 h inst|Equal11~0_combout $end
$var wire 1 i inst|Mux23~2_combout $end
$var wire 1 j inst|Mux17~4_combout $end
$var wire 1 k inst|Equal4~0_combout $end
$var wire 1 l inst|Mux22~1_combout $end
$var wire 1 m inst|Selector1~0_combout $end
$var wire 1 n inst|Mux10~2_combout $end
$var wire 1 o inst|Equal2~1_combout $end
$var wire 1 p inst|Equal3~0_combout $end
$var wire 1 q inst|Equal1~0_combout $end
$var wire 1 r inst|AS|LPM_ADD_SUB_component|auto_generated|_~13_combout $end
$var wire 1 s inst|Selector2~0_combout $end
$var wire 1 t inst|Equal6~0_combout $end
$var wire 1 u inst|Equal7~0_combout $end
$var wire 1 v inst|Equal9~0_combout $end
$var wire 1 w inst|Selector3~0_combout $end
$var wire 1 x inst|Selector4~0_combout $end
$var wire 1 y inst|Selector5~0_combout $end
$var wire 1 z inst|Selector6~0_combout $end
$var wire 1 { inst|Selector7~0_combout $end
$var wire 1 | inst|Selector8~0_combout $end
$var wire 1 } inst|Selector9~0_combout $end
$var wire 1 ~ inst|Decoder4~0_combout $end
$var wire 1 !! inst|reg_G|Q[0]~10_cout $end
$var wire 1 "! inst|reg_G|Q[0]~11_combout $end
$var wire 1 #! inst|Gin~0_combout $end
$var wire 1 $! inst|Selector9~1_combout $end
$var wire 1 %! inst|Equal11~1_combout $end
$var wire 1 &! inst|Equal8~0_combout $end
$var wire 1 '! inst|Mux11~3_combout $end
$var wire 1 (! inst|Mux8~3_combout $end
$var wire 1 )! inst|Selector9~2_combout $end
$var wire 1 *! inst|Equal5~0_combout $end
$var wire 1 +! inst|Equal5~1_combout $end
$var wire 1 ,! inst|Equal2~2_combout $end
$var wire 1 -! inst|Mux14~2_combout $end
$var wire 1 .! inst|Selector9~3_combout $end
$var wire 1 /! inst|Equal10~0_combout $end
$var wire 1 0! inst|Equal10~1_combout $end
$var wire 1 1! inst|Equal6~1_combout $end
$var wire 1 2! inst|Mux13~2_combout $end
$var wire 1 3! inst|Mux9~3_combout $end
$var wire 1 4! inst|Selector9~4_combout $end
$var wire 1 5! inst|Equal7~1_combout $end
$var wire 1 6! inst|Mux12~2_combout $end
$var wire 1 7! inst|Selector9~5_combout $end
$var wire 1 8! inst|Selector9~6_combout $end
$var wire 1 9! inst|Equal4~1_combout $end
$var wire 1 :! inst|WideNor1~0_combout $end
$var wire 1 ;! inst|WideNor1~1_combout $end
$var wire 1 <! inst|WideNor1~2_combout $end
$var wire 1 =! inst|AS|LPM_ADD_SUB_component|auto_generated|_~12_combout $end
$var wire 1 >! inst|reg_G|Q[0]~12 $end
$var wire 1 ?! inst|reg_G|Q[1]~13_combout $end
$var wire 1 @! inst|Selector8~1_combout $end
$var wire 1 A! inst|Selector8~2_combout $end
$var wire 1 B! inst|Selector8~3_combout $end
$var wire 1 C! inst|Selector8~4_combout $end
$var wire 1 D! inst|Selector8~5_combout $end
$var wire 1 E! inst|Selector8~6_combout $end
$var wire 1 F! inst|AS|LPM_ADD_SUB_component|auto_generated|_~11_combout $end
$var wire 1 G! inst|reg_G|Q[1]~14 $end
$var wire 1 H! inst|reg_G|Q[2]~15_combout $end
$var wire 1 I! inst|Selector7~1_combout $end
$var wire 1 J! inst|Selector7~2_combout $end
$var wire 1 K! inst|Selector7~3_combout $end
$var wire 1 L! inst|Selector7~4_combout $end
$var wire 1 M! inst|Selector7~5_combout $end
$var wire 1 N! inst|Selector7~6_combout $end
$var wire 1 O! inst|AS|LPM_ADD_SUB_component|auto_generated|_~10_combout $end
$var wire 1 P! inst|reg_G|Q[2]~16 $end
$var wire 1 Q! inst|reg_G|Q[3]~17_combout $end
$var wire 1 R! inst|Selector6~1_combout $end
$var wire 1 S! inst|Selector6~2_combout $end
$var wire 1 T! inst|Selector6~3_combout $end
$var wire 1 U! inst|Selector6~4_combout $end
$var wire 1 V! inst|Selector6~5_combout $end
$var wire 1 W! inst|Selector6~6_combout $end
$var wire 1 X! inst|AS|LPM_ADD_SUB_component|auto_generated|_~9_combout $end
$var wire 1 Y! inst|reg_G|Q[3]~18 $end
$var wire 1 Z! inst|reg_G|Q[4]~19_combout $end
$var wire 1 [! inst|Selector5~1_combout $end
$var wire 1 \! inst|Selector5~2_combout $end
$var wire 1 ]! inst|Selector5~3_combout $end
$var wire 1 ^! inst|Selector5~4_combout $end
$var wire 1 _! inst|Selector5~5_combout $end
$var wire 1 `! inst|Selector5~6_combout $end
$var wire 1 a! inst|AS|LPM_ADD_SUB_component|auto_generated|_~8_combout $end
$var wire 1 b! inst|reg_G|Q[4]~20 $end
$var wire 1 c! inst|reg_G|Q[5]~21_combout $end
$var wire 1 d! inst|Selector4~1_combout $end
$var wire 1 e! inst|Selector4~2_combout $end
$var wire 1 f! inst|Selector4~3_combout $end
$var wire 1 g! inst|Selector4~4_combout $end
$var wire 1 h! inst|Selector4~5_combout $end
$var wire 1 i! inst|Selector4~6_combout $end
$var wire 1 j! inst|AS|LPM_ADD_SUB_component|auto_generated|_~16_combout $end
$var wire 1 k! inst|reg_G|Q[5]~22 $end
$var wire 1 l! inst|reg_G|Q[6]~23_combout $end
$var wire 1 m! inst|Selector3~1_combout $end
$var wire 1 n! inst|Selector3~2_combout $end
$var wire 1 o! inst|Selector3~3_combout $end
$var wire 1 p! inst|Selector3~4_combout $end
$var wire 1 q! inst|Selector3~5_combout $end
$var wire 1 r! inst|Selector3~6_combout $end
$var wire 1 s! inst|AS|LPM_ADD_SUB_component|auto_generated|_~15_combout $end
$var wire 1 t! inst|reg_G|Q[6]~24 $end
$var wire 1 u! inst|reg_G|Q[7]~25_combout $end
$var wire 1 v! inst|Selector2~1_combout $end
$var wire 1 w! inst|Selector2~2_combout $end
$var wire 1 x! inst|Selector2~3_combout $end
$var wire 1 y! inst|Selector2~4_combout $end
$var wire 1 z! inst|Selector2~5_combout $end
$var wire 1 {! inst|Selector2~6_combout $end
$var wire 1 |! inst|AS|LPM_ADD_SUB_component|auto_generated|_~14_combout $end
$var wire 1 }! inst|reg_G|Q[7]~26 $end
$var wire 1 ~! inst|reg_G|Q[8]~27_combout $end
$var wire 1 !" inst|Selector1~1_combout $end
$var wire 1 "" inst|Selector1~2_combout $end
$var wire 1 #" inst|Selector1~3_combout $end
$var wire 1 $" inst|Selector1~4_combout $end
$var wire 1 %" inst|Selector1~5_combout $end
$var wire 1 &" inst|Selector1~6_combout $end
$var wire 1 '" inst|reg_6|Q [8] $end
$var wire 1 (" inst|reg_6|Q [7] $end
$var wire 1 )" inst|reg_6|Q [6] $end
$var wire 1 *" inst|reg_6|Q [5] $end
$var wire 1 +" inst|reg_6|Q [4] $end
$var wire 1 ," inst|reg_6|Q [3] $end
$var wire 1 -" inst|reg_6|Q [2] $end
$var wire 1 ." inst|reg_6|Q [1] $end
$var wire 1 /" inst|reg_6|Q [0] $end
$var wire 1 0" inst|Tstep|Q [1] $end
$var wire 1 1" inst|Tstep|Q [0] $end
$var wire 1 2" inst|reg_G|Q [8] $end
$var wire 1 3" inst|reg_G|Q [7] $end
$var wire 1 4" inst|reg_G|Q [6] $end
$var wire 1 5" inst|reg_G|Q [5] $end
$var wire 1 6" inst|reg_G|Q [4] $end
$var wire 1 7" inst|reg_G|Q [3] $end
$var wire 1 8" inst|reg_G|Q [2] $end
$var wire 1 9" inst|reg_G|Q [1] $end
$var wire 1 :" inst|reg_G|Q [0] $end
$var wire 1 ;" inst|reg_4|Q [8] $end
$var wire 1 <" inst|reg_4|Q [7] $end
$var wire 1 =" inst|reg_4|Q [6] $end
$var wire 1 >" inst|reg_4|Q [5] $end
$var wire 1 ?" inst|reg_4|Q [4] $end
$var wire 1 @" inst|reg_4|Q [3] $end
$var wire 1 A" inst|reg_4|Q [2] $end
$var wire 1 B" inst|reg_4|Q [1] $end
$var wire 1 C" inst|reg_4|Q [0] $end
$var wire 1 D" inst|reg_IR|Q [8] $end
$var wire 1 E" inst|reg_IR|Q [7] $end
$var wire 1 F" inst|reg_IR|Q [6] $end
$var wire 1 G" inst|reg_IR|Q [5] $end
$var wire 1 H" inst|reg_IR|Q [4] $end
$var wire 1 I" inst|reg_IR|Q [3] $end
$var wire 1 J" inst|reg_IR|Q [2] $end
$var wire 1 K" inst|reg_IR|Q [1] $end
$var wire 1 L" inst|reg_IR|Q [0] $end
$var wire 1 M" inst|reg_7|Q [8] $end
$var wire 1 N" inst|reg_7|Q [7] $end
$var wire 1 O" inst|reg_7|Q [6] $end
$var wire 1 P" inst|reg_7|Q [5] $end
$var wire 1 Q" inst|reg_7|Q [4] $end
$var wire 1 R" inst|reg_7|Q [3] $end
$var wire 1 S" inst|reg_7|Q [2] $end
$var wire 1 T" inst|reg_7|Q [1] $end
$var wire 1 U" inst|reg_7|Q [0] $end
$var wire 1 V" inst|reg_0|Q [8] $end
$var wire 1 W" inst|reg_0|Q [7] $end
$var wire 1 X" inst|reg_0|Q [6] $end
$var wire 1 Y" inst|reg_0|Q [5] $end
$var wire 1 Z" inst|reg_0|Q [4] $end
$var wire 1 [" inst|reg_0|Q [3] $end
$var wire 1 \" inst|reg_0|Q [2] $end
$var wire 1 ]" inst|reg_0|Q [1] $end
$var wire 1 ^" inst|reg_0|Q [0] $end
$var wire 1 _" inst|reg_1|Q [8] $end
$var wire 1 `" inst|reg_1|Q [7] $end
$var wire 1 a" inst|reg_1|Q [6] $end
$var wire 1 b" inst|reg_1|Q [5] $end
$var wire 1 c" inst|reg_1|Q [4] $end
$var wire 1 d" inst|reg_1|Q [3] $end
$var wire 1 e" inst|reg_1|Q [2] $end
$var wire 1 f" inst|reg_1|Q [1] $end
$var wire 1 g" inst|reg_1|Q [0] $end
$var wire 1 h" inst|reg_5|Q [8] $end
$var wire 1 i" inst|reg_5|Q [7] $end
$var wire 1 j" inst|reg_5|Q [6] $end
$var wire 1 k" inst|reg_5|Q [5] $end
$var wire 1 l" inst|reg_5|Q [4] $end
$var wire 1 m" inst|reg_5|Q [3] $end
$var wire 1 n" inst|reg_5|Q [2] $end
$var wire 1 o" inst|reg_5|Q [1] $end
$var wire 1 p" inst|reg_5|Q [0] $end
$var wire 1 q" inst|reg_2|Q [8] $end
$var wire 1 r" inst|reg_2|Q [7] $end
$var wire 1 s" inst|reg_2|Q [6] $end
$var wire 1 t" inst|reg_2|Q [5] $end
$var wire 1 u" inst|reg_2|Q [4] $end
$var wire 1 v" inst|reg_2|Q [3] $end
$var wire 1 w" inst|reg_2|Q [2] $end
$var wire 1 x" inst|reg_2|Q [1] $end
$var wire 1 y" inst|reg_2|Q [0] $end
$var wire 1 z" inst|reg_3|Q [8] $end
$var wire 1 {" inst|reg_3|Q [7] $end
$var wire 1 |" inst|reg_3|Q [6] $end
$var wire 1 }" inst|reg_3|Q [5] $end
$var wire 1 ~" inst|reg_3|Q [4] $end
$var wire 1 !# inst|reg_3|Q [3] $end
$var wire 1 "# inst|reg_3|Q [2] $end
$var wire 1 ## inst|reg_3|Q [1] $end
$var wire 1 $# inst|reg_3|Q [0] $end
$var wire 1 %# inst|reg_A|Q [8] $end
$var wire 1 &# inst|reg_A|Q [7] $end
$var wire 1 '# inst|reg_A|Q [6] $end
$var wire 1 (# inst|reg_A|Q [5] $end
$var wire 1 )# inst|reg_A|Q [4] $end
$var wire 1 *# inst|reg_A|Q [3] $end
$var wire 1 +# inst|reg_A|Q [2] $end
$var wire 1 ,# inst|reg_A|Q [1] $end
$var wire 1 -# inst|reg_A|Q [0] $end
$var wire 1 .# inst|BusWires [8] $end
$var wire 1 /# inst|BusWires [7] $end
$var wire 1 0# inst|BusWires [6] $end
$var wire 1 1# inst|BusWires [5] $end
$var wire 1 2# inst|BusWires [4] $end
$var wire 1 3# inst|BusWires [3] $end
$var wire 1 4# inst|BusWires [2] $end
$var wire 1 5# inst|BusWires [1] $end
$var wire 1 6# inst|BusWires [0] $end
$upscope $end
$upscope $end
$enddefinitions $end
#0
$dumpvars
0!
b0 "
0#
0$
x-
x,
x+
x*
x)
x(
x'
x&
x%
0.
0/
10
x1
12
13
14
05
06
x7
x8
x9
x:
x;
x<
x=
x>
x?
0@
0A
0B
0C
0D
1E
0F
0G
0H
0I
0J
0K
0L
0M
1N
0O
0P
0Q
0R
0S
0T
0U
1V
0W
0X
0Y
0Z
0[
0\
0]
0^
0_
0`
1a
0b
0c
1d
0e
0f
0g
1h
0i
0j
0k
0l
0m
0n
1o
0p
0q
xr
0s
1t
1u
0v
0w
0x
0y
0z
0{
0|
0}
0~
0!!
x"!
0#!
0$!
0%!
0&!
0'!
0(!
0)!
0*!
0+!
0,!
0-!
0.!
0/!
00!
01!
02!
03!
04!
05!
06!
07!
08!
09!
0:!
0;!
0<!
x=!
1>!
x?!
0@!
0A!
0B!
0C!
0D!
0E!
xF!
0G!
xH!
0I!
0J!
0K!
0L!
0M!
0N!
xO!
1P!
xQ!
0R!
0S!
0T!
0U!
0V!
0W!
xX!
0Y!
xZ!
0[!
0\!
0]!
0^!
0_!
0`!
xa!
1b!
xc!
0d!
0e!
0f!
0g!
0h!
0i!
xj!
0k!
xl!
0m!
0n!
0o!
0p!
0q!
0r!
xs!
1t!
xu!
0v!
0w!
0x!
0y!
0z!
0{!
x|!
0}!
x~!
0!"
0""
0#"
0$"
0%"
0&"
0/"
0."
0-"
0,"
0+"
0*"
0)"
0("
0'"
01"
00"
0:"
09"
08"
07"
06"
05"
04"
03"
02"
0C"
0B"
0A"
0@"
0?"
0>"
0="
0<"
0;"
0L"
0K"
0J"
0I"
0H"
0G"
0F"
0E"
0D"
0U"
0T"
0S"
0R"
0Q"
0P"
0O"
0N"
0M"
0^"
0]"
0\"
0["
0Z"
0Y"
0X"
0W"
0V"
0g"
0f"
0e"
0d"
0c"
0b"
0a"
0`"
0_"
0p"
0o"
0n"
0m"
0l"
0k"
0j"
0i"
0h"
0y"
0x"
0w"
0v"
0u"
0t"
0s"
0r"
0q"
0$#
0##
0"#
0!#
0~"
0}"
0|"
0{"
0z"
0-#
0,#
0+#
0*#
0)#
0(#
0'#
0&#
0%#
x6#
x5#
x4#
x3#
x2#
x1#
x0#
x/#
x.#
$end
#10000
1!
1@
#20000
1#
1$
b1000000 "
0!
1A
15
1M
0@
1B
#30000
1!
1@
1F"
11"
1f
0N
1O
0E
1G
1C
0B
16
1,!
0h
1(!
1.
0C
1o!
1<!
0t
1q!
0u
0.#
0/#
00#
01#
02#
03#
04#
05#
06#
0?
0>
0=
0<
0;
0:
09
08
07
1r!
0r
0|!
0s!
0j!
0a!
0X!
0O!
0F!
0=!
0%
0&
0'
0(
0)
0*
0+
0,
0-
10#
0~!
0u!
0l!
0c!
0Z!
0Q!
0H!
0?!
0"!
19
1s!
1'
1l!
#40000
b1000100 "
b1000101 "
0$
b101 "
0!
05
1L
1U
0M
0@
1.!
1K!
0o!
17!
1M!
0q!
18!
1N!
0r!
16#
14#
00#
09
1=
1?
1=!
1O!
0s!
1-
1+
0'
1"!
1H!
0l!
#50000
1!
1@
1S"
1U"
01"
0f
0O
1E
0G
1B
06
0,!
1h
0(!
0.
0K!
0<!
0.!
1t
0M!
07!
1u
0N!
08!
#60000
b1101 "
b1001 "
b1000 "
1$
0!
15
0L
0U
1H
0@
#70000
1!
1@
0F"
1I"
11"
1N
0a
1Q
1O
0E
1G
1C
0B
16
1b
13!
1.
0C
1j
1%!
0t
1J!
1<!
1)!
0u
1N!
18!
04#
06#
0?
0=
0O!
0=!
0+
0-
14#
16#
1?
1=
1O!
1=!
1+
1-
0H!
0"!
1H!
1"!
#80000
0$
0!
05
0@
#90000
1!
1@
1-"
1/"
01"
0O
1E
0G
1B
06
0b
03!
0.
0j
0%!
1t
0J!
0<!
0)!
1u
0N!
08!
#100000
b10001000 "
b10000000 "
b10000001 "
1$
0!
15
1L
0H
1D
0@
#110000
1!
1@
1L"
0I"
1E"
11"
1a
0Q
1R
0N
1O
0E
1C
0B
1S
1j
1%!
0t
1J!
1<!
1)!
0u
1N!
18!
04#
06#
0?
0=
0O!
0=!
0+
0-
14#
16#
1?
1=
1O!
1=!
1+
1-
0H!
0"!
1H!
1"!
#120000
0$
0!
05
0@
#130000
1!
1@
1-#
1+#
10"
01"
0>!
0P!
1#!
1~
0R
1N
0"!
0H!
1B
0S
1P
1?!
1Q!
0j
1W
0%!
1t
1/!
0d
0J!
0<!
0)!
10!
0o
0N!
08!
1L!
1:!
14!
1M!
1;!
17!
1N!
1<!
18!
#140000
1$
0!
15
0@
#150000
1!
1@
17"
19"
11"
0#!
0~
1g
0O
1G
0C
0B
16
0h
0P
1(!
1.
0t
0W
00!
0/!
1d
0L!
0:!
04!
1o
0M!
0;!
07!
1p
0N!
08!
1R!
1@!
1W!
1E!
04#
06#
0?
0=
0O!
0=!
0+
0-
13#
15#
1>
1<
1P!
1>!
1X!
1F!
1*
1,
1H!
1"!
#160000
0$
0!
05
0@
#170000
1!
1@
1R"
0S"
1T"
0U"
00"
01"
0g
0N
1E
0G
1B
06
0p
1h
0(!
0.
0R!
0@!
0<!
1t
0W!
0E!
1u
#180000
b11000001 "
b11000000 "
1$
0!
15
0L
1M
0@
#190000
1!
1@
1F"
0L"
11"
1q
1f
1R
1O
0E
1C
0B
1S
1j
1%!
0t
1S!
1A!
1<!
0u
1W!
1E!
03#
05#
0>
0<
0X!
0F!
0*
0,
13#
15#
1>
1<
1X!
1F!
1*
1,
0Q!
0?!
1Q!
1?!
#200000
b1000000 "
b0 "
0$
0!
05
0M
0D
0@
#210000
1!
1@
0-#
1,#
0+#
1*#
10"
01"
1G!
1Y!
1|!
1s!
1j!
1a!
0X!
1O!
0F!
1=!
1#!
1~
1r
0f
0R
1N
0"!
0?!
0H!
0Q!
1B
0P!
0b!
0Y!
0G!
1!!
0S
1b
1u!
1l!
1c!
1Q!
1?!
1"!
1~!
1Y!
1k!
1b!
1P!
0>!
0Q!
0c!
1Z!
1H!
0"!
0b!
0t!
0k!
0Y!
1G!
0Z!
0l!
1c!
1Q!
0?!
1k!
1}!
1t!
1b!
0P!
0c!
0u!
1l!
1Z!
0H!
0t!
0}!
0k!
1Y!
0l!
0~!
1u!
1c!
0Q!
1}!
1t!
0b!
0u!
1~!
1l!
0Z!
0}!
1k!
0~!
1u!
0c!
0t!
1~!
0l!
1}!
0u!
0~!
#220000
1$
0!
15
0@
#230000
1!
1@
07"
09"
11"
0|!
0s!
0j!
0a!
1X!
0O!
1F!
0=!
0#!
0~
0r
1g
0O
1G
0C
0B
16
0}!
1t!
0k!
1b!
1P!
1>!
0!!
0h
0b
1(!
1.
1u!
1l!
1c!
1Z!
1Q!
1H!
1?!
1"!
1~!
0%!
0j
0~!
0u!
0l!
0c!
0Q!
0?!
0"!
0S!
0A!
0<!
1p
0W!
0E!
1<!
03#
05#
0>
0<
0X!
0F!
0*
0,
0Y!
0G!
1Q!
1?!
0Z!
0H!
#240000
0$
0!
05
0@
#250000
b100000000 "
b100100000 "
b100100010 "
b100100011 "
b110100011 "
b111100011 "
1!
1L
1T
1J
1M
1D
1F
1@
0R"
0T"
00"
01"
0g
0N
1E
0G
1B
06
0p
1h
0(!
0.
0<!
1t
1u
#260000
b111110011 "
b111110111 "
1$
b111110110 "
b110110110 "
0!
15
0L
1U
1I
0M
0@
#270000
1!
1@
1J"
1K"
0F"
1G"
1H"
1D"
11"
0V
0q
0a
0E
1C
0B
#280000
b110111110 "
b110101110 "
0$
b110101111 "
b111101111 "
0!
05
1L
1H
0I
1M
0@
#290000
1!
1@
10"
01"
1~
1N
1B
#300000
b101101111 "
b101101011 "
b101100011 "
1$
b101100010 "
b100100010 "
0!
15
0L
0U
0H
0M
0D
0@
#310000
1!
1@
11"
0~
0C
0B
#320000
b100010 "
b10 "
b0 "
b10000000 "
b10000100 "
b10001100 "
0$
b11001100 "
0!
05
0T
1U
1H
0J
1M
1D
0F
0@
#330000
1!
1@
00"
01"
0N
1E
1B
#340000
b11101100 "
b11101110 "
1$
0!
15
1T
1J
0@
#350000
1!
1@
1F"
0H"
1I"
0D"
11"
1q
1f
1Q
1R
1O
0E
1C
0B
1`
1l
11!
0u
0o
1;!
1<!
#360000
b11101010 "
b11001010 "
b11001000 "
0$
0!
05
0T
0U
0J
0@
#370000
1!
1@
0,#
0*#
10"
01"
1|!
1s!
1j!
1a!
1X!
1O!
1F!
1=!
1#!
1~
1r
0f
0R
1N
0?!
0Q!
1B
1!!
0`
1b
1X
1u!
1l!
1c!
1Z!
1Q!
1H!
1?!
1"!
1~!
0>!
0l
1i
0"!
1G!
01!
1u
1*!
0t
0?!
0P!
0;!
1+!
0u
0H!
1Y!
0<!
1:!
0Q!
0b!
1;!
0Z!
1k!
1<!
0c!
0t!
0l!
1}!
0u!
0~!
#380000
b11011000 "
b11010000 "
b11110000 "
1$
0!
15
0H
1I
1J
0@
#390000
1!
1@
11"
0|!
0s!
0j!
0a!
0X!
0O!
0F!
0=!
0#!
0~
0r
1g
0O
1G
0C
0B
16
0}!
1t!
0k!
1b!
0Y!
1P!
0G!
1>!
0!!
0h
0b
0X
12!
1.
1u!
1l!
1c!
1Z!
1Q!
1H!
1?!
1"!
1~!
0*!
0i
0~!
0u!
0l!
0c!
0Z!
0Q!
0H!
0?!
0"!
0+!
1o
0:!
1p
0;!
#400000
b11100000 "
0$
0!
05
0I
0@
#410000
1!
1@
00"
01"
0g
0N
1E
0G
1B
06
0p
1h
02!
0.
0<!
1t
1u
#420000
b11100001 "
b111100001 "
b111101001 "
b111001001 "
1$
0!
15
1L
1H
0J
1F
0@
#430000
1!
1@
0J"
0K"
1L"
0G"
1D"
11"
1V
0q
0E
1C
0B
#440000
b101001001 "
b100001001 "
b100001101 "
b100001111 "
b1111 "
b101111 "
0$
0!
05
1T
1U
1J
0M
0D
0F
0@
#450000
1!
1@
10"
01"
1~
1N
1B
#460000
b111111 "
b10111111 "
b10111011 "
b10111001 "
1$
0!
15
0T
0U
1I
1D
0@
#470000
1!
1@
11"
0~
0C
0B
#480000
b10110001 "
b11110001 "
b111110001 "
b111110101 "
b111110111 "
0$
0!
05
1T
1U
0H
1M
1F
0@
#490000
1!
1@
00"
01"
0N
1E
1B
#500000
b111110110 "
b111010110 "
b111000110 "
b101000110 "
b101001110 "
b1001110 "
b1001100 "
1$
0!
15
0L
0T
1H
0I
0J
0D
0F
0@
#510000
1!
1@
1J"
0L"
0D"
0E"
11"
1_
0V
1f
1O
0E
1G
1C
0B
16
1,!
0h
13!
1.
0C
1o!
1T!
1K!
1<!
0t
1q!
1V!
1M!
0u
1r!
1W!
1N!
10#
13#
14#
1=
1<
19
1s!
1X!
1O!
1'
1*
1+
1l!
1Q!
1H!
#520000
b1001101 "
b1101101 "
b11101101 "
b111101101 "
b111101111 "
0$
0!
05
1L
1T
1J
1D
1F
0@
1.!
1B!
1f!
1x!
1#"
17!
1D!
1h!
1z!
1%"
18!
1E!
1i!
1{!
1&"
16#
15#
11#
1/#
1.#
17
18
1:
1>
1?
1=!
1F!
1j!
1|!
1r
1-
1,
1(
1&
1%
1"!
1?!
1c!
1u!
1~!
#530000
1!
1@
1'"
1("
1)"
1*"
1,"
1."
01"
0f
0O
1E
0G
1B
06
0,!
1h
03!
0.
0#"
0x!
0o!
0f!
0T!
0K!
0B!
0<!
0.!
1t
0%"
0z!
0q!
0h!
0V!
0M!
0D!
07!
1u
0&"
0{!
0r!
0i!
0W!
0N!
0E!
08!
#540000
b111111111 "
b111110111 "
b111110110 "
1$
0!
15
0L
0H
1I
0@
#550000
1!
1@
1K"
1G"
1H"
0I"
1D"
1E"
11"
0_
0Q
0E
1C
0B
#560000
b110110110 "
b110110010 "
b110010010 "
b110000010 "
0$
0!
05
0U
0I
0J
0M
0@
#570000
1!
1@
10"
01"
1~
1N
1B
#580000
b100000010 "
b100001010 "
b101001010 "
b101001110 "
b101101110 "
1$
0!
15
1U
1H
1J
1M
0D
0@
#590000
1!
1@
11"
0~
0C
0B
#600000
b1101110 "
b1101100 "
b1111100 "
b1111000 "
b1011000 "
0$
0!
05
0T
0U
1I
0J
0F
0@
#610000
1!
1@
00"
01"
0N
1E
1B
#620000
b11011000 "
b10011000 "
b10011010 "
b10001010 "
1$
0!
15
1T
0I
0M
1D
0@
#630000
1!
1@
0J"
0F"
0G"
0H"
1I"
0D"
11"
1Q
1R
1O
0E
1C
0B
1S
1W
1/!
0u
0d
10!
0o
1$"
1y!
1p!
1g!
1U!
1L!
1C!
1:!
14!
1%"
1z!
1q!
1h!
1V!
1M!
1D!
1;!
17!
1&"
1{!
1r!
1i!
1W!
1N!
1E!
1<!
18!
#640000
b10000010 "
b110000010 "
b111000010 "
b111000000 "
b111010000 "
0$
0!
05
0T
0H
1I
1M
1F
0@
#650000
1!
1@
1-#
1,#
1+#
1*#
1(#
1'#
1&#
1%#
10"
01"
0>!
1G!
0P!
1Y!
1k!
0t!
1}!
1#!
1~
0R
1N
0"!
0?!
0H!
0Q!
0c!
0l!
0u!
0~!
1B
0S
1b
1X
1?!
1H!
1Q!
1Z!
1l!
1u!
1~!
0W
1[
0/!
1u
00!
1v
0$"
0y!
0p!
0g!
0U!
0L!
0C!
04!
0%"
0z!
0q!
0h!
0V!
0M!
0D!
07!
0&"
0{!
0r!
0i!
0W!
0N!
0E!
08!
0.#
0/#
00#
01#
03#
04#
05#
06#
0?
0>
0=
0<
0:
09
08
07
0r
0|!
0s!
0j!
0X!
0O!
0F!
0=!
0%
0&
0'
0(
0*
0+
0,
0-
0k!
1>!
0~!
0u!
0l!
1c!
0Q!
0H!
0?!
1"!
1t!
0G!
1l!
1?!
0}!
1P!
1u!
1H!
0Y!
1~!
1Q!
0Z!
#660000
b111010001 "
b111010101 "
b111110101 "
b101110101 "
b101111101 "
b101111111 "
b101101111 "
1$
0!
15
1L
1T
1U
1H
0I
1J
0D
0@
#670000
1!
1@
12"
13"
14"
15"
17"
18"
19"
1:"
11"
0#!
0~
1g
0O
1G
0C
0B
16
0h
0b
0X
13!
1.
0t
0[
0u
0v
1d
0:!
1o
0;!
1p
1!"
1v!
1m!
1d!
1R!
1I!
1@!
1$!
1&"
1{!
1r!
1i!
1W!
1N!
1E!
18!
1.#
1/#
10#
11#
13#
14#
15#
16#
1?
1>
1=
1<
1:
19
18
17
1r
1|!
1s!
1j!
1X!
1O!
1F!
1=!
1%
1&
1'
1(
1*
1+
1,
1-
1}!
0t!
1k!
1Y!
0P!
1G!
0>!
0~!
0u!
0l!
0c!
0Q!
0H!
0?!
0"!
1~!
1u!
1l!
1Z!
1Q!
1H!
1?!
