Lab4/simulation/qsim/Lab4.msim.vcd
$comment
	File created using the following command:
		vcd file Lab4.msim.vcd -direction
$end
$date
	Wed Dec 07 22:48:14 2022
$end
$version
	ModelSim Version 2020.1
$end
$timescale
	1ps
$end

$scope module Lab4Part3_vlg_vec_tst $end
$var reg 1 ! Clk $end
$var wire 1 " En $end

$scope module i1 $end
$var wire 1 # gnd $end
$var wire 1 $ vcc $end
$var wire 1 % unknown $end
$var tri1 1 & devclrn $end
$var tri1 1 ' devpor $end
$var tri1 1 ( devoe $end
$var wire 1 ) En~output_o $end
$var wire 1 * Clk~input_o $end
$var wire 1 + inst|C0|Q[0]~26_combout $end
$var wire 1 , inst|C0|Q[0]~27 $end
$var wire 1 - inst|C0|Q[1]~28_combout $end
$var wire 1 . inst|C0|Q[1]~29 $end
$var wire 1 / inst|C0|Q[2]~30_combout $end
$var wire 1 0 inst|C0|Q[2]~31 $end
$var wire 1 1 inst|C0|Q[3]~32_combout $end
$var wire 1 2 inst|C0|Q[3]~33 $end
$var wire 1 3 inst|C0|Q[4]~34_combout $end
$var wire 1 4 inst|C0|Q[4]~35 $end
$var wire 1 5 inst|C0|Q[5]~36_combout $end
$var wire 1 6 inst|C0|Q[5]~37 $end
$var wire 1 7 inst|C0|Q[6]~38_combout $end
$var wire 1 8 inst|C0|Q[6]~39 $end
$var wire 1 9 inst|C0|Q[7]~40_combout $end
$var wire 1 : inst|C0|Q[7]~41 $end
$var wire 1 ; inst|C0|Q[8]~42_combout $end
$var wire 1 < inst|C0|Q[8]~43 $end
$var wire 1 = inst|C0|Q[9]~44_combout $end
$var wire 1 > inst|C0|Q[9]~45 $end
$var wire 1 ? inst|C0|Q[10]~46_combout $end
$var wire 1 @ inst|C0|Q[10]~47 $end
$var wire 1 A inst|C0|Q[11]~48_combout $end
$var wire 1 B inst|C0|Q[11]~49 $end
$var wire 1 C inst|C0|Q[12]~50_combout $end
$var wire 1 D inst|C0|Q[12]~51 $end
$var wire 1 E inst|C0|Q[13]~52_combout $end
$var wire 1 F inst|C0|Q[13]~53 $end
$var wire 1 G inst|C0|Q[14]~54_combout $end
$var wire 1 H inst|C0|Q[14]~55 $end
$var wire 1 I inst|C0|Q[15]~56_combout $end
$var wire 1 J inst|C0|Q[15]~57 $end
$var wire 1 K inst|C0|Q[16]~58_combout $end
$var wire 1 L inst|C0|Q[16]~59 $end
$var wire 1 M inst|C0|Q[17]~60_combout $end
$var wire 1 N inst|C0|Q[17]~61 $end
$var wire 1 O inst|C0|Q[18]~62_combout $end
$var wire 1 P inst|C0|Q[18]~63 $end
$var wire 1 Q inst|C0|Q[19]~64_combout $end
$var wire 1 R inst|C0|Q[19]~65 $end
$var wire 1 S inst|C0|Q[20]~66_combout $end
$var wire 1 T inst|C0|Q[20]~67 $end
$var wire 1 U inst|C0|Q[21]~68_combout $end
$var wire 1 V inst|C0|Q[21]~69 $end
$var wire 1 W inst|C0|Q[22]~70_combout $end
$var wire 1 X inst|C0|Q[22]~71 $end
$var wire 1 Y inst|C0|Q[23]~72_combout $end
$var wire 1 Z inst|C0|Q[23]~73 $end
$var wire 1 [ inst|C0|Q[24]~74_combout $end
$var wire 1 \ inst|C0|Q[24]~75 $end
$var wire 1 ] inst|C0|Q[25]~76_combout $end
$var wire 1 ^ inst|LessThan0~0_combout $end
$var wire 1 _ inst|LessThan0~1_combout $end
$var wire 1 ` inst|LessThan0~2_combout $end
$var wire 1 a inst|LessThan0~3_combout $end
$var wire 1 b inst|LessThan0~4_combout $end
$var wire 1 c inst|LessThan0~5_combout $end
$var wire 1 d inst|LessThan0~6_combout $end
$var wire 1 e inst|LessThan0~7_combout $end
$var wire 1 f inst|LessThan0~8_combout $end
$var wire 1 g inst|Clr~q $end
$var wire 1 h inst|C0|Q [25] $end
$var wire 1 i inst|C0|Q [24] $end
$var wire 1 j inst|C0|Q [23] $end
$var wire 1 k inst|C0|Q [22] $end
$var wire 1 l inst|C0|Q [21] $end
$var wire 1 m inst|C0|Q [20] $end
$var wire 1 n inst|C0|Q [19] $end
$var wire 1 o inst|C0|Q [18] $end
$var wire 1 p inst|C0|Q [17] $end
$var wire 1 q inst|C0|Q [16] $end
$var wire 1 r inst|C0|Q [15] $end
$var wire 1 s inst|C0|Q [14] $end
$var wire 1 t inst|C0|Q [13] $end
$var wire 1 u inst|C0|Q [12] $end
$var wire 1 v inst|C0|Q [11] $end
$var wire 1 w inst|C0|Q [10] $end
$var wire 1 x inst|C0|Q [9] $end
$var wire 1 y inst|C0|Q [8] $end
$var wire 1 z inst|C0|Q [7] $end
$var wire 1 { inst|C0|Q [6] $end
$var wire 1 | inst|C0|Q [5] $end
$var wire 1 } inst|C0|Q [4] $end
$var wire 1 ~ inst|C0|Q [3] $end
$var wire 1 !! inst|C0|Q [2] $end
$var wire 1 "! inst|C0|Q [1] $end
$var wire 1 #! inst|C0|Q [0] $end
$var wire 1 $! inst|counter_50_mil [25] $end
$var wire 1 %! inst|counter_50_mil [24] $end
$var wire 1 &! inst|counter_50_mil [23] $end
$var wire 1 '! inst|counter_50_mil [22] $end
$var wire 1 (! inst|counter_50_mil [21] $end
$var wire 1 )! inst|counter_50_mil [20] $end
$var wire 1 *! inst|counter_50_mil [19] $end
$var wire 1 +! inst|counter_50_mil [18] $end
$var wire 1 ,! inst|counter_50_mil [17] $end
$var wire 1 -! inst|counter_50_mil [16] $end
$var wire 1 .! inst|counter_50_mil [15] $end
$var wire 1 /! inst|counter_50_mil [14] $end
$var wire 1 0! inst|counter_50_mil [13] $end
$var wire 1 1! inst|counter_50_mil [12] $end
$var wire 1 2! inst|counter_50_mil [11] $end
$var wire 1 3! inst|counter_50_mil [10] $end
$var wire 1 4! inst|counter_50_mil [9] $end
$var wire 1 5! inst|counter_50_mil [8] $end
$var wire 1 6! inst|counter_50_mil [7] $end
$var wire 1 7! inst|counter_50_mil [6] $end
$var wire 1 8! inst|counter_50_mil [5] $end
$var wire 1 9! inst|counter_50_mil [4] $end
$var wire 1 :! inst|counter_50_mil [3] $end
$var wire 1 ;! inst|counter_50_mil [2] $end
$var wire 1 <! inst|counter_50_mil [1] $end
$var wire 1 =! inst|counter_50_mil [0] $end
$upscope $end
$upscope $end
$enddefinitions $end
#0
$dumpvars
0!
0"
0#
1$
x%
1&
1'
1(
0)
0*
1+
0,
0-
1.
0/
00
01
12
03
04
05
16
07
08
09
1:
0;
0<
0=
1>
0?
0@
0A
1B
0C
0D
0E
1F
0G
0H
0I
1J
0K
0L
0M
1N
0O
0P
0Q
1R
0S
0T
0U
1V
0W
0X
0Y
1Z
0[
0\
0]
1^
1_
1`
1a
1b
1c
0d
1e
0f
0g
0#!
0"!
0!!
0~
0}
0|
0{
0z
0y
0x
0w
0v
0u
0t
0s
0r
0q
0p
0o
0n
0m
0l
0k
0j
0i
0h
0=!
0<!
0;!
0:!
09!
08!
07!
06!
05!
04!
03!
02!
01!
00!
0/!
0.!
0-!
0,!
0+!
0*!
0)!
0(!
0'!
0&!
0%!
0$!
$end
#500
1!
1*
1#!
1=!
1,
0+
1-
#1000
0!
0*
#1500
1!
1*
1"!
0#!
1<!
0.
0=!
0,
0-
1+
1.
1/
1-
0/
#2000
0!
0*
#2500
1!
1*
1#!
1=!
1,
0+
0.
0-
1/
#3000
0!
0*
#3500
1!
1*
1!!
0"!
0#!
1;!
10
0<!
1.
0=!
0,
0/
1-
1+
00
11
1/
0-
01
#4000
0!
0*
#4500
1!
1*
1#!
1=!
1,
0+
1-
#5000
0!
0*
#5500
1!
1*
1"!
0#!
1<!
0.
0=!
0,
0-
1+
10
1.
0/
1-
00
11
1/
01
#6000
0!
0*
#6500
1!
1*
1#!
1=!
1,
0+
0b
0.
0-
10
0/
11
#7000
0!
0*
#7500
1!
1*
1~
0!!
0"!
0#!
1:!
02
0;!
00
0<!
1.
0=!
0,
01
1/
1-
1+
1d
1b
12
13
11
0/
0-
03
#8000
0!
0*
#8500
1!
1*
1#!
1=!
1,
0+
1-
#9000
0!
0*
#9500
1!
1*
1"!
0#!
1<!
0.
0=!
0,
0-
1+
1.
1/
1-
0/
#10000
0!
0*
#10500
1!
1*
1#!
1=!
1,
0+
0.
0-
1/
#11000
0!
0*
#11500
1!
1*
1!!
0"!
0#!
1;!
10
0<!
1.
0=!
0,
0/
1-
1+
02
00
01
1/
0-
12
13
11
03
#12000
0!
0*
#12500
1!
1*
1#!
1=!
1,
0+
1-
#13000
0!
0*
#13500
1!
1*
1"!
0#!
1<!
0.
0=!
0,
0-
1+
10
1.
0/
1-
02
00
01
1/
12
13
11
03
#14000
0!
0*
#14500
1!
1*
1#!
1=!
1,
0+
0b
0.
0-
10
0/
02
01
13
#15000
0!
0*
#15500
1!
1*
1}
0~
0!!
0"!
0#!
19!
14
0:!
12
0;!
00
0<!
1.
0=!
0,
03
11
1/
1-
1+
04
1b
15
13
01
0/
0-
05
#16000
0!
0*
#16500
1!
1*
1#!
1=!
1,
0+
1-
#17000
0!
0*
#17500
1!
1*
1"!
0#!
1<!
0.
0=!
0,
0-
1+
1.
1/
1-
0/
#18000
0!
0*
#18500
1!
1*
1#!
1=!
1,
0+
0.
0-
1/
#19000
0!
0*
#19500
1!
1*
1!!
0"!
0#!
1;!
10
0<!
1.
0=!
0,
0/
1-
1+
00
11
1/
0-
01
#20000
0!
0*
#20500
1!
1*
1#!
1=!
1,
0+
1-
#21000
0!
0*
#21500
1!
1*
1"!
0#!
1<!
0.
0=!
0,
0-
1+
10
1.
0/
1-
00
11
1/
01
#22000
0!
0*
#22500
1!
1*
1#!
1=!
1,
0+
0b
0.
0-
10
0/
11
#23000
0!
0*
#23500
1!
1*
1~
0!!
0"!
0#!
1:!
02
0;!
00
0<!
1.
0=!
0,
01
1/
1-
1+
14
1b
12
03
11
0/
0-
04
15
13
05
#24000
0!
0*
#24500
1!
1*
1#!
1=!
1,
0+
1-
#25000
0!
0*
#25500
1!
1*
1"!
0#!
1<!
0.
0=!
0,
0-
1+
1.
1/
1-
0/
#26000
0!
0*
#26500
1!
1*
1#!
1=!
1,
0+
0.
0-
1/
#27000
0!
0*
#27500
1!
1*
1!!
0"!
0#!
1;!
10
0<!
1.
0=!
0,
0/
1-
1+
02
00
01
1/
0-
14
12
03
11
04
15
13
05
#28000
0!
0*
#28500
1!
1*
1#!
1=!
1,
0+
1-
#29000
0!
0*
#29500
1!
1*
1"!
0#!
1<!
0.
0=!
0,
0-
1+
10
1.
0/
1-
02
00
01
1/
14
12
03
11
04
15
13
05
#30000
0!
0*
#30500
1!
1*
1#!
1=!
1,
0+
0b
0.
0-
10
0/
02
01
14
03
15
#31000
0!
0*
#31500
1!
1*
1|
0}
0~
0!!
0"!
0#!
18!
06
09!
04
0:!
12
0;!
00
0<!
1.
0=!
0,
05
13
11
1/
1-
1+
16
1b
17
15
03
01
0/
0-
07
#32000
0!
0*
#32500
1!
1*
1#!
1=!
1,
0+
1-
#33000
0!
0*
#33500
1!
1*
1"!
0#!
1<!
0.
0=!
0,
0-
1+
1.
1/
1-
0/
#34000
0!
0*
#34500
1!
1*
1#!
1=!
1,
0+
0.
0-
1/
#35000
0!
0*
#35500
1!
1*
1!!
0"!
0#!
1;!
10
0<!
1.
0=!
0,
0/
1-
1+
00
11
1/
0-
01
#36000
0!
0*
#36500
1!
1*
1#!
1=!
1,
0+
1-
#37000
0!
0*
#37500
1!
1*
1"!
0#!
1<!
0.
0=!
0,
0-
1+
10
1.
0/
1-
00
11
1/
01
#38000
0!
0*
#38500
1!
1*
1#!
1=!
1,
0+
0b
0.
0-
10
0/
11
#39000
0!
0*
#39500
1!
1*
1~
0!!
0"!
0#!
1:!
02
0;!
00
0<!
1.
0=!
0,
01
1/
1-
1+
1b
12
13
11
0/
0-
03
#40000
0!
0*
#40500
1!
1*
1#!
1=!
1,
0+
1-
#41000
0!
0*
#41500
1!
1*
1"!
0#!
1<!
0.
0=!
0,
0-
1+
1.
1/
1-
0/
#42000
0!
0*
#42500
1!
1*
1#!
1=!
1,
0+
0.
0-
1/
#43000
0!
0*
#43500
1!
1*
1!!
0"!
0#!
1;!
10
0<!
1.
0=!
0,
0/
1-
1+
02
00
01
1/
0-
12
13
11
03
#44000
0!
0*
#44500
1!
1*
1#!
1=!
1,
0+
1-
#45000
0!
0*
#45500
1!
1*
1"!
0#!
1<!
0.
0=!
0,
0-
1+
10
1.
0/
1-
02
00
01
1/
12
13
11
03
#46000
0!
0*
#46500
1!
1*
1#!
1=!
1,
0+
0b
0.
0-
10
0/
02
01
13
#47000
0!
0*
#47500
1!
1*
1}
0~
0!!
0"!
0#!
19!
14
0:!
12
0;!
00
0<!
1.
0=!
0,
03
11
1/
1-
1+
06
04
1b
05
13
01
0/
0-
16
17
15
07
#48000
0!
0*
#48500
1!
1*
1#!
1=!
1,
0+
1-
#49000
0!
0*
#49500
1!
1*
1"!
0#!
1<!
0.
0=!
0,
0-
1+
1.
1/
1-
0/
#50000
0!
0*
#50500
1!
1*
1#!
1=!
1,
0+
0.
0-
1/
#51000
0!
0*
#51500
1!
1*
1!!
0"!
0#!
1;!
10
0<!
1.
0=!
0,
0/
1-
1+
00
11
1/
0-
01
#52000
0!
0*
#52500
1!
1*
1#!
1=!
1,
0+
1-
#53000
0!
0*
#53500
1!
1*
1"!
0#!
1<!
0.
0=!
0,
0-
1+
10
1.
0/
1-
00
11
1/
01
#54000
0!
0*
#54500
1!
1*
1#!
1=!
1,
0+
0b
0.
0-
10
0/
11
#55000
0!
0*
#55500
1!
1*
1~
0!!
0"!
0#!
1:!
02
0;!
00
0<!
1.
0=!
0,
01
1/
1-
1+
14
1b
12
03
11
0/
0-
06
04
05
13
16
17
15
07
#56000
0!
0*
#56500
1!
1*
1#!
1=!
1,
0+
1-
#57000
0!
0*
#57500
1!
1*
1"!
0#!
1<!
0.
0=!
0,
0-
1+
1.
1/
1-
0/
#58000
0!
0*
#58500
1!
1*
1#!
1=!
1,
0+
0.
0-
1/
#59000
0!
0*
#59500
1!
1*
1!!
0"!
0#!
1;!
10
0<!
1.
0=!
0,
0/
1-
1+
02
00
01
1/
0-
14
12
03
11
06
04
05
13
16
17
15
07
#60000
0!
0*
#60500
1!
1*
1#!
1=!
1,
0+
1-
#61000
0!
0*
#61500
1!
1*
1"!
0#!
1<!
0.
0=!
0,
0-
1+
10
1.
0/
1-
02
00
01
1/
14
12
03
11
06
04
05
13
16
17
15
07
#62000
0!
0*
#62500
1!
1*
1#!
1=!
1,
0+
0b
0.
0-
10
0/
02
01
14
03
06
05
17
#63000
0!
0*
#63500
1!
1*
1{
0|
0}
0~
0!!
0"!
0#!
17!
18
08!
16
09!
04
0:!
12
0;!
00
0<!
1.
0=!
0,
07
15
13
11
1/
1-
1+
0d
08
19
17
05
03
01
0/
0-
09
#64000
0!
0*
#64500
1!
1*
1#!
1=!
1,
0+
1-
#65000
0!
0*
#65500
1!
1*
1"!
0#!
1<!
0.
0=!
0,
0-
1+
1.
1/
1-
0/
#66000
0!
0*
#66500
1!
1*
1#!
1=!
1,
0+
0.
0-
1/
#67000
0!
0*
#67500
1!
1*
1!!
0"!
0#!
1;!
10
0<!
1.
0=!
0,
0/
1-
1+
00
11
1/
0-
01
#68000
0!
0*
#68500
1!
1*
1#!
1=!
1,
0+
1-
#69000
0!
0*
#69500
1!
1*
1"!
0#!
1<!
0.
0=!
0,
0-
1+
10
1.
0/
1-
00
11
1/
01
#70000
0!
0*
#70500
1!
1*
1#!
1=!
1,
0+
0.
0-
10
0/
11
#71000
0!
0*
#71500
1!
1*
1~
0!!
0"!
0#!
1:!
02
0;!
00
0<!
1.
0=!
0,
01
1/
1-
1+
1d
12
13
11
0/
0-
03
#72000
0!
0*
#72500
1!
1*
1#!
1=!
1,
0+
1-
#73000
0!
0*
#73500
1!
1*
1"!
0#!
1<!
0.
0=!
0,
0-
1+
1.
1/
1-
0/
#74000
0!
0*
#74500
1!
1*
1#!
1=!
1,
0+
0.
0-
1/
#75000
0!
0*
#75500
1!
1*
1!!
0"!
0#!
1;!
10
0<!
1.
0=!
0,
0/
1-
1+
02
00
01
1/
0-
12
13
11
03
#76000
0!
0*
#76500
1!
1*
1#!
1=!
1,
0+
1-
#77000
0!
0*
#77500
1!
1*
1"!
0#!
1<!
0.
0=!
0,
0-
1+
10
1.
0/
1-
02
00
01
1/
12
13
11
03
#78000
0!
0*
#78500
1!
1*
1#!
1=!
1,
0+
0.
0-
10
0/
02
01
13
#79000
0!
0*
#79500
1!
1*
1}
0~
0!!
0"!
0#!
19!
14
0:!
12
0;!
00
0<!
1.
0=!
0,
03
11
1/
1-
1+
04
15
13
01
0/
0-
05
#80000
0!
0*
#80500
1!
1*
1#!
1=!
1,
0+
1-
#81000
0!
0*
#81500
1!
1*
1"!
0#!
1<!
0.
0=!
0,
0-
1+
1.
1/
1-
0/
#82000
0!
0*
#82500
1!
1*
1#!
1=!
1,
0+
0.
0-
1/
#83000
0!
0*
#83500
1!
1*
1!!
0"!
0#!
1;!
10
0<!
1.
0=!
0,
0/
1-
1+
00
11
1/
0-
01
#84000
0!
0*
#84500
1!
1*
1#!
1=!
1,
0+
1-
#85000
0!
0*
#85500
1!
1*
1"!
0#!
1<!
0.
0=!
0,
0-
1+
10
1.
0/
1-
00
11
1/
01
#86000
0!
0*
#86500
1!
1*
1#!
1=!
1,
0+
0.
0-
10
0/
11
#87000
0!
0*
#87500
1!
1*
1~
0!!
0"!
0#!
1:!
02
0;!
00
0<!
1.
0=!
0,
01
1/
1-
1+
14
12
03
11
0/
0-
04
15
13
05
#88000
0!
0*
#88500
1!
1*
1#!
1=!
1,
0+
1-
#89000
0!
0*
#89500
1!
1*
1"!
0#!
1<!
0.
0=!
0,
0-
1+
1.
1/
1-
0/
#90000
0!
0*
#90500
1!
1*
1#!
1=!
1,
0+
0.
0-
1/
#91000
0!
0*
#91500
1!
1*
1!!
0"!
0#!
1;!
10
0<!
1.
0=!
0,
0/
1-
1+
02
00
01
1/
0-
14
12
03
11
04
15
13
05
#92000
0!
0*
#92500
1!
1*
1#!
1=!
1,
0+
1-
#93000
0!
0*
#93500
1!
1*
1"!
0#!
1<!
0.
0=!
0,
0-
1+
10
1.
0/
1-
02
00
01
1/
14
12
03
11
04
15
13
05
#94000
0!
0*
#94500
1!
1*
1#!
1=!
1,
0+
0.
0-
10
0/
02
01
14
03
15
#95000
0!
0*
#95500
1!
1*
1|
0}
0~
0!!
0"!
0#!
18!
06
09!
04
0:!
12
0;!
00
0<!
1.
0=!
0,
05
13
11
1/
1-
1+
18
16
07
15
03
01
0/
0-
08
19
17
09
#96000
0!
0*
#96500
1!
1*
1#!
1=!
1,
0+
1-
#97000
0!
0*
#97500
1!
1*
1"!
0#!
1<!
0.
0=!
0,
0-
1+
1.
1/
1-
0/
#98000
0!
0*
#98500
1!
1*
1#!
1=!
1,
0+
0.
0-
1/
#99000
0!
0*
#99500
1!
1*
1!!
0"!
0#!
1;!
10
0<!
1.
0=!
0,
0/
1-
1+
00
11
1/
0-
01
#100000
0!
0*
#100500
1!
1*
1#!
1=!
1,
0+
1-
#101000
0!
0*
#101500
1!
1*
1"!
0#!
1<!
0.
0=!
0,
0-
1+
10
1.
0/
1-
00
11
1/
01
#102000
0!
0*
#102500
1!
1*
1#!
1=!
1,
0+
0.
0-
10
0/
11
#103000
0!
0*
#103500
1!
1*
1~
0!!
0"!
0#!
1:!
02
0;!
00
0<!
1.
0=!
0,
01
1/
1-
1+
12
13
11
0/
0-
03
#104000
0!
0*
#104500
1!
1*
1#!
1=!
1,
0+
1-
#105000
0!
0*
#105500
1!
1*
1"!
0#!
1<!
0.
0=!
0,
0-
1+
1.
1/
1-
0/
#106000
0!
0*
#106500
1!
1*
1#!
1=!
1,
0+
0.
0-
1/
#107000
0!
0*
#107500
1!
1*
1!!
0"!
0#!
1;!
10
0<!
1.
0=!
0,
0/
1-
1+
02
00
01
1/
0-
12
13
11
03
#108000
0!
0*
#108500
1!
1*
1#!
1=!
1,
0+
1-
#109000
0!
0*
#109500
1!
1*
1"!
0#!
1<!
0.
0=!
0,
0-
1+
10
1.
0/
1-
02
00
01
1/
12
13
11
03
#110000
0!
0*
#110500
1!
1*
1#!
1=!
1,
0+
0.
0-
10
0/
02
01
13
#111000
0!
0*
#111500
1!
1*
1}
0~
0!!
0"!
0#!
19!
14
0:!
12
0;!
00
0<!
1.
0=!
0,
03
11
1/
1-
1+
06
04
05
13
01
0/
0-
18
16
07
15
08
19
17
09
#112000
0!
0*
#112500
1!
1*
1#!
1=!
1,
0+
1-
#113000
0!
0*
#113500
1!
1*
1"!
0#!
1<!
0.
0=!
0,
0-
1+
1.
1/
1-
0/
#114000
0!
0*
#114500
1!
1*
1#!
1=!
1,
0+
0.
0-
1/
#115000
0!
0*
#115500
1!
1*
1!!
0"!
0#!
1;!
10
0<!
1.
0=!
0,
0/
1-
1+
00
11
1/
0-
01
#116000
0!
0*
#116500
1!
1*
1#!
1=!
1,
0+
1-
#117000
0!
0*
#117500
1!
1*
1"!
0#!
1<!
0.
0=!
0,
0-
1+
10
1.
0/
1-
00
11
1/
01
#118000
0!
0*
#118500
1!
1*
1#!
1=!
1,
0+
0.
0-
10
0/
11
#119000
0!
0*
#119500
1!
1*
1~
0!!
0"!
0#!
1:!
02
0;!
00
0<!
1.
0=!
0,
01
1/
1-
1+
14
12
03
11
0/
0-
06
04
05
13
18
16
07
15
08
19
17
09
#120000
0!
0*
#120500
1!
1*
1#!
1=!
1,
0+
1-
#121000
0!
0*
#121500
1!
1*
1"!
0#!
1<!
0.
0=!
0,
0-
1+
1.
1/
1-
0/
#122000
0!
0*
#122500
1!
1*
1#!
1=!
1,
0+
0.
0-
1/
#123000
0!
0*
#123500
1!
1*
1!!
0"!
0#!
1;!
10
0<!
1.
0=!
0,
0/
1-
1+
02
00
01
1/
0-
14
12
03
11
06
04
05
13
18
16
07
15
08
19
17
09
#124000
0!
0*
#124500
1!
1*
1#!
1=!
1,
0+
1-
#125000
0!
0*
#125500
1!
1*
1"!
0#!
1<!
0.
0=!
0,
0-
1+
10
1.
0/
1-
02
00
01
1/
14
12
03
11
06
04
05
13
18
16
07
15
08
19
17
09
#126000
0!
0*
#126500
1!
1*
1#!
1=!
1,
0+
0.
0-
10
0/
02
01
14
03
06
05
18
07
19
#127000
0!
0*
#127500
1!
1*
1z
0{
0|
0}
0~
0!!
0"!
0#!
16!
0:
07!
08
08!
16
09!
04
0:!
12
0;!
00
0<!
1.
0=!
0,
09
17
15
13
11
1/
1-
1+
1b
1:
0d
1;
19
07
05
03
01
0/
0-
0;
#128000
0!
0*
#128500
1!
1*
1#!
1=!
1,
0+
1-
#129000
0!
0*
#129500
1!
1*
1"!
0#!
1<!
0.
0=!
0,
0-
1+
1.
1/
1-
0/
#130000
0!
0*
#130500
1!
1*
1#!
1=!
1,
0+
0.
0-
1/
#131000
0!
0*
#131500
1!
1*
1!!
0"!
0#!
1;!
10
0<!
1.
0=!
0,
0/
1-
1+
00
11
1/
0-
01
#132000
0!
0*
#132500
1!
1*
1#!
1=!
1,
0+
1-
#133000
0!
0*
#133500
1!
1*
1"!
0#!
1<!
0.
0=!
0,
0-
1+
10
1.
0/
1-
00
11
1/
01
#134000
0!
0*
#134500
1!
1*
1#!
1=!
1,
0+
0b
0.
0-
10
0/
11
#135000
0!
0*
#135500
1!
1*
1~
0!!
0"!
0#!
1:!
02
0;!
00
0<!
1.
0=!
0,
01
1/
1-
1+
1d
1b
12
13
11
0/
0-
03
#136000
0!
0*
#136500
1!
1*
1#!
1=!
1,
0+
1-
#137000
0!
0*
#137500
1!
1*
1"!
0#!
1<!
0.
0=!
0,
0-
1+
1.
1/
1-
0/
#138000
0!
0*
#138500
1!
1*
1#!
1=!
1,
0+
0.
0-
1/
#139000
0!
0*
#139500
1!
1*
1!!
0"!
0#!
1;!
10
0<!
1.
0=!
0,
0/
1-
1+
02
00
01
1/
0-
12
13
11
03
#140000
0!
0*
#140500
1!
1*
1#!
1=!
1,
0+
1-
#141000
0!
0*
#141500
1!
1*
1"!
0#!
1<!
0.
0=!
0,
0-
1+
10
1.
0/
1-
02
00
01
1/
12
13
11
03
#142000
0!
0*
#142500
1!
1*
1#!
1=!
1,
0+
0b
0.
0-
10
0/
02
01
13
#143000
0!
0*
#143500
1!
1*
1}
0~
0!!
0"!
0#!
19!
14
0:!
12
0;!
00
0<!
1.
0=!
0,
03
11
1/
1-
1+
04
1b
15
13
01
0/
0-
05
#144000
0!
0*
#144500
1!
1*
1#!
1=!
1,
0+
1-
#145000
0!
0*
#145500
1!
1*
1"!
0#!
1<!
0.
0=!
0,
0-
1+
1.
1/
1-
0/
#146000
0!
0*
#146500
1!
1*
1#!
1=!
1,
0+
0.
0-
1/
#147000
0!
0*
#147500
1!
1*
1!!
0"!
0#!
1;!
10
0<!
1.
0=!
0,
0/
1-
1+
00
11
1/
0-
01
#148000
0!
0*
#148500
1!
1*
1#!
1=!
1,
0+
1-
#149000
0!
0*
#149500
1!
1*
1"!
0#!
1<!
0.
0=!
0,
0-
1+
10
1.
0/
1-
00
11
1/
01
#150000
0!
0*
#150500
1!
1*
1#!
1=!
1,
0+
0b
0.
0-
10
0/
11
#151000
0!
0*
#151500
1!
1*
1~
0!!
0"!
0#!
1:!
02
0;!
00
0<!
1.
0=!
0,
01
1/
1-
1+
14
1b
12
03
11
0/
0-
04
15
13
05
#152000
0!
0*
#152500
1!
1*
1#!
1=!
1,
0+
1-
#153000
0!
0*
#153500
1!
1*
1"!
0#!
1<!
0.
0=!
0,
0-
1+
1.
1/
1-
0/
#154000
0!
0*
#154500
1!
1*
1#!
1=!
1,
0+
0.
0-
1/
#155000
0!
0*
#155500
1!
1*
1!!
0"!
0#!
1;!
10
0<!
1.
0=!
0,
0/
1-
1+
02
00
01
1/
0-
14
12
03
11
04
15
13
05
#156000
0!
0*
#156500
1!
1*
1#!
1=!
1,
0+
1-
#157000
0!
0*
#157500
1!
1*
1"!
0#!
1<!
0.
0=!
0,
0-
1+
10
1.
0/
1-
02
00
01
1/
14
12
03
11
04
15
13
05
#158000
0!
0*
#158500
1!
1*
1#!
1=!
1,
0+
0b
0.
0-
10
0/
02
01
14
03
15
#159000
0!
0*
#159500
1!
1*
1|
0}
0~
0!!
0"!
0#!
18!
06
09!
04
0:!
12
0;!
00
0<!
1.
0=!
0,
05
13
11
1/
1-
1+
16
1b
17
15
03
01
0/
0-
07
#160000
0!
0*
#160500
1!
1*
1#!
1=!
1,
0+
1-
#161000
0!
0*
#161500
1!
1*
1"!
0#!
1<!
0.
0=!
0,
0-
1+
1.
1/
1-
0/
#162000
0!
0*
#162500
1!
1*
1#!
1=!
1,
0+
0.
0-
1/
#163000
0!
0*
#163500
1!
1*
1!!
0"!
0#!
1;!
10
0<!
1.
0=!
0,
0/
1-
1+
00
11
1/
0-
01
#164000
0!
0*
#164500
1!
1*
1#!
1=!
1,
0+
1-
#165000
0!
0*
#165500
1!
1*
1"!
0#!
1<!
0.
0=!
0,
0-
1+
10
1.
0/
1-
00
11
1/
01
#166000
0!
0*
#166500
1!
1*
1#!
1=!
1,
0+
0b
0.
0-
10
0/
11
#167000
0!
0*
#167500
1!
1*
1~
0!!
0"!
0#!
1:!
02
0;!
00
0<!
1.
0=!
0,
01
1/
1-
1+
1b
12
13
11
0/
0-
03
#168000
0!
0*
#168500
1!
1*
1#!
1=!
1,
0+
1-
#169000
0!
0*
#169500
1!
1*
1"!
0#!
1<!
0.
0=!
0,
0-
1+
1.
1/
1-
0/
#170000
0!
0*
#170500
1!
1*
1#!
1=!
1,
0+
0.
0-
1/
#171000
0!
0*
#171500
1!
1*
1!!
0"!
0#!
1;!
10
0<!
1.
0=!
0,
0/
1-
1+
02
00
01
1/
0-
12
13
11
03
#172000
0!
0*
#172500
1!
1*
1#!
1=!
1,
0+
1-
#173000
0!
0*
#173500
1!
1*
1"!
0#!
1<!
0.
0=!
0,
0-
1+
10
1.
0/
1-
02
00
01
1/
12
13
11
03
#174000
0!
0*
#174500
1!
1*
1#!
1=!
1,
0+
0b
0.
0-
10
0/
02
01
13
#175000
0!
0*
#175500
1!
1*
1}
0~
0!!
0"!
0#!
19!
14
0:!
12
0;!
00
0<!
1.
0=!
0,
03
11
1/
1-
1+
06
04
1b
05
13
01
0/
0-
16
17
15
07
#176000
0!
0*
#176500
1!
1*
1#!
1=!
1,
0+
1-
#177000
0!
0*
#177500
1!
1*
1"!
0#!
1<!
0.
0=!
0,
0-
1+
1.
1/
1-
0/
#178000
0!
0*
#178500
1!
1*
1#!
1=!
1,
0+
0.
0-
1/
#179000
0!
0*
#179500
1!
1*
1!!
0"!
0#!
1;!
10
0<!
1.
0=!
0,
0/
1-
1+
00
11
1/
0-
01
#180000
0!
0*
#180500
1!
1*
1#!
1=!
1,
0+
1-
#181000
0!
0*
#181500
1!
1*
1"!
0#!
1<!
0.
0=!
0,
0-
1+
10
1.
0/
1-
00
11
1/
01
#182000
0!
0*
#182500
1!
1*
1#!
1=!
1,
0+
0b
0.
0-
10
0/
11
#183000
0!
0*
#183500
1!
1*
1~
0!!
0"!
0#!
1:!
02
0;!
00
0<!
1.
0=!
0,
01
1/
1-
1+
14
1b
12
03
11
0/
0-
06
04
05
13
16
17
15
07
#184000
0!
0*
#184500
1!
1*
1#!
1=!
1,
0+
1-
#185000
0!
0*
#185500
1!
1*
1"!
0#!
1<!
0.
0=!
0,
0-
1+
1.
1/
1-
0/
#186000
0!
0*
#186500
1!
1*
1#!
1=!
1,
0+
0.
0-
1/
#187000
0!
0*
#187500
1!
1*
1!!
0"!
0#!
1;!
10
0<!
1.
0=!
0,
0/
1-
1+
02
00
01
1/
0-
14
12
03
11
06
04
05
13
16
17
15
07
#188000
0!
0*
