Lab4/simulation/qsim/Lab4.msim.vcd
$comment
	File created using the following command:
		vcd file Lab4.msim.vcd -direction
$end
$date
	Thu Nov 03 16:06:10 2022
$end
$version
	ModelSim Version 2020.1
$end
$timescale
	1ps
$end

$scope module Lab4Part2_vlg_vec_tst $end
$var reg 1 ! Clk $end
$var reg 1 " Clr $end
$var reg 1 # En $end
$var wire 1 $ Q [15] $end
$var wire 1 % Q [14] $end
$var wire 1 & Q [13] $end
$var wire 1 ' Q [12] $end
$var wire 1 ( Q [11] $end
$var wire 1 ) Q [10] $end
$var wire 1 * Q [9] $end
$var wire 1 + Q [8] $end
$var wire 1 , Q [7] $end
$var wire 1 - Q [6] $end
$var wire 1 . Q [5] $end
$var wire 1 / Q [4] $end
$var wire 1 0 Q [3] $end
$var wire 1 1 Q [2] $end
$var wire 1 2 Q [1] $end
$var wire 1 3 Q [0] $end

$scope module i1 $end
$var wire 1 4 gnd $end
$var wire 1 5 vcc $end
$var wire 1 6 unknown $end
$var tri1 1 7 devclrn $end
$var tri1 1 8 devpor $end
$var tri1 1 9 devoe $end
$var wire 1 : Q[15]~output_o $end
$var wire 1 ; Q[14]~output_o $end
$var wire 1 < Q[13]~output_o $end
$var wire 1 = Q[12]~output_o $end
$var wire 1 > Q[11]~output_o $end
$var wire 1 ? Q[10]~output_o $end
$var wire 1 @ Q[9]~output_o $end
$var wire 1 A Q[8]~output_o $end
$var wire 1 B Q[7]~output_o $end
$var wire 1 C Q[6]~output_o $end
$var wire 1 D Q[5]~output_o $end
$var wire 1 E Q[4]~output_o $end
$var wire 1 F Q[3]~output_o $end
$var wire 1 G Q[2]~output_o $end
$var wire 1 H Q[1]~output_o $end
$var wire 1 I Q[0]~output_o $end
$var wire 1 J Clk~input_o $end
$var wire 1 K Clk~inputclkctrl_outclk $end
$var wire 1 L inst|Q[0]~16_combout $end
$var wire 1 M Clr~input_o $end
$var wire 1 N En~input_o $end
$var wire 1 O inst|Q[15]~48_combout $end
$var wire 1 P inst|Q[0]~17 $end
$var wire 1 Q inst|Q[1]~18_combout $end
$var wire 1 R inst|Q[1]~19 $end
$var wire 1 S inst|Q[2]~20_combout $end
$var wire 1 T inst|Q[2]~21 $end
$var wire 1 U inst|Q[3]~22_combout $end
$var wire 1 V inst|Q[3]~23 $end
$var wire 1 W inst|Q[4]~24_combout $end
$var wire 1 X inst|Q[4]~25 $end
$var wire 1 Y inst|Q[5]~26_combout $end
$var wire 1 Z inst|Q[5]~27 $end
$var wire 1 [ inst|Q[6]~28_combout $end
$var wire 1 \ inst|Q[6]~29 $end
$var wire 1 ] inst|Q[7]~30_combout $end
$var wire 1 ^ inst|Q[7]~31 $end
$var wire 1 _ inst|Q[8]~32_combout $end
$var wire 1 ` inst|Q[8]~33 $end
$var wire 1 a inst|Q[9]~34_combout $end
$var wire 1 b inst|Q[9]~35 $end
$var wire 1 c inst|Q[10]~36_combout $end
$var wire 1 d inst|Q[10]~37 $end
$var wire 1 e inst|Q[11]~38_combout $end
$var wire 1 f inst|Q[11]~39 $end
$var wire 1 g inst|Q[12]~40_combout $end
$var wire 1 h inst|Q[12]~41 $end
$var wire 1 i inst|Q[13]~42_combout $end
$var wire 1 j inst|Q[13]~43 $end
$var wire 1 k inst|Q[14]~44_combout $end
$var wire 1 l inst|Q[14]~45 $end
$var wire 1 m inst|Q[15]~46_combout $end
$var wire 1 n inst|Q [15] $end
$var wire 1 o inst|Q [14] $end
$var wire 1 p inst|Q [13] $end
$var wire 1 q inst|Q [12] $end
$var wire 1 r inst|Q [11] $end
$var wire 1 s inst|Q [10] $end
$var wire 1 t inst|Q [9] $end
$var wire 1 u inst|Q [8] $end
$var wire 1 v inst|Q [7] $end
$var wire 1 w inst|Q [6] $end
$var wire 1 x inst|Q [5] $end
$var wire 1 y inst|Q [4] $end
$var wire 1 z inst|Q [3] $end
$var wire 1 { inst|Q [2] $end
$var wire 1 | inst|Q [1] $end
$var wire 1 } inst|Q [0] $end
$upscope $end
$upscope $end
$enddefinitions $end
#0
$dumpvars
0!
0"
1#
03
02
01
00
0/
0.
0-
0,
0+
0*
0)
0(
0'
0&
0%
0$
04
15
x6
17
18
19
0:
0;
0<
0=
0>
0?
0@
0A
0B
0C
0D
0E
0F
0G
0H
0I
0J
0K
1L
0M
1N
1O
0P
0Q
1R
0S
0T
0U
1V
0W
0X
0Y
1Z
0[
0\
0]
1^
0_
0`
0a
1b
0c
0d
0e
1f
0g
0h
0i
1j
0k
0l
0m
0}
0|
0{
0z
0y
0x
0w
0v
0u
0t
0s
0r
0q
0p
0o
0n
$end
#5000
1!
1J
1K
1}
1I
1P
13
0L
1Q
#10000
1"
0!
1M
0J
0K
#15000
1!
1J
1K
0}
0I
0P
03
1L
0Q
#20000
0"
0!
0M
0J
0K
#25000
1!
1J
1K
1}
1I
1P
13
0L
1Q
#30000
0!
0J
0K
#35000
1!
1J
1K
1|
0}
0I
1H
0R
0P
12
03
0Q
1L
1R
1S
1Q
0S
#40000
0!
0J
0K
#45000
1!
1J
1K
1}
1I
1P
13
0L
0R
0Q
1S
#50000
0!
0J
0K
#55000
1!
1J
1K
1{
0|
0}
0I
0H
1G
1T
1R
0P
11
02
03
0S
1Q
1L
0T
1U
1S
0Q
0U
#60000
0!
0J
0K
#65000
1!
1J
1K
1}
1I
1P
13
0L
1Q
#70000
1"
0!
1M
0J
0K
#75000
1!
1J
1K
0{
0}
0I
0G
0P
01
03
0S
1L
0Q
#80000
0"
0!
0M
0J
0K
#85000
1!
1J
1K
1}
1I
1P
13
0L
1Q
#90000
0!
0J
0K
#95000
1!
1J
1K
1|
0}
0I
1H
0R
0P
12
03
0Q
1L
1R
1S
1Q
0S
#100000
0!
0J
0K
#105000
1!
1J
1K
1}
1I
1P
13
0L
0R
0Q
1S
#110000
0!
0J
0K
#115000
1!
1J
1K
1{
0|
0}
0I
0H
1G
1T
1R
0P
11
02
03
0S
1Q
1L
0T
1U
1S
0Q
0U
#120000
0!
0J
0K
#125000
1!
1J
1K
1}
1I
1P
13
0L
1Q
#130000
0!
0J
0K
#135000
1!
1J
1K
1|
0}
0I
1H
0R
0P
12
03
0Q
1L
1T
1R
0S
1Q
0T
1U
1S
0U
#140000
0!
0J
0K
#145000
1!
1J
1K
1}
1I
1P
13
0L
0R
0Q
1T
0S
1U
#150000
0!
0J
0K
#155000
1!
1J
1K
1z
0{
0|
0}
0I
0H
0G
1F
0V
0T
1R
0P
10
01
02
03
0U
1S
1Q
1L
1V
1W
1U
0S
0Q
0W
#160000
0!
0J
0K
#165000
1!
1J
1K
1}
1I
1P
13
0L
1Q
#170000
0!
0J
0K
#175000
1!
1J
1K
1|
0}
0I
1H
0R
0P
12
03
0Q
1L
1R
1S
1Q
0S
#180000
0!
0J
0K
#185000
1!
1J
1K
1}
1I
1P
13
0L
0R
0Q
1S
#190000
0!
0J
0K
#195000
1!
1J
1K
1{
0|
0}
0I
0H
1G
1T
1R
0P
11
02
03
0S
1Q
1L
0V
0T
0U
1S
0Q
1V
1W
1U
0W
#200000
0!
0J
0K
#205000
1!
1J
1K
1}
1I
1P
13
0L
1Q
#210000
0!
0J
0K
#215000
1!
1J
1K
1|
0}
0I
1H
0R
0P
12
03
0Q
1L
1T
1R
0S
1Q
0V
0T
0U
1S
1V
1W
1U
0W
#220000
0!
0J
0K
#225000
1!
1J
1K
1}
1I
1P
13
0L
0R
0Q
1T
0S
0V
0U
1W
#230000
0!
0J
0K
#235000
1!
1J
1K
1y
0z
0{
0|
0}
0I
0H
0G
0F
1E
1X
1V
0T
1R
0P
1/
00
01
02
03
0W
1U
1S
1Q
1L
0X
1Y
1W
0U
0S
0Q
0Y
#240000
0!
0J
0K
#245000
1!
1J
1K
1}
1I
1P
13
0L
1Q
#250000
0!
0J
0K
#255000
1!
1J
1K
1|
0}
0I
1H
0R
0P
12
03
0Q
1L
1R
1S
1Q
0S
#260000
0!
0J
0K
#265000
1!
1J
1K
1}
1I
1P
13
0L
0R
0Q
1S
#270000
0!
0J
0K
#275000
1!
1J
1K
1{
0|
0}
0I
0H
1G
1T
1R
0P
11
02
03
0S
1Q
1L
0T
1U
1S
0Q
0U
#280000
1"
0!
1M
0J
0K
#285000
1!
1J
1K
0y
0{
0G
0E
0/
01
0W
0S
#290000
0"
0!
0M
0J
0K
#295000
1!
1J
1K
1}
1I
1P
13
0L
1Q
#300000
0!
0J
0K
#305000
1!
1J
1K
1|
0}
0I
1H
0R
0P
12
03
0Q
1L
1R
1S
1Q
0S
#310000
0!
0J
0K
#315000
1!
1J
1K
1}
1I
1P
13
0L
0R
0Q
1S
#320000
0!
0J
0K
#325000
1!
1J
1K
1{
0|
0}
0I
0H
1G
1T
1R
0P
11
02
03
0S
1Q
1L
0T
1U
1S
0Q
0U
#330000
0!
0J
0K
#335000
1!
1J
1K
1}
1I
1P
13
0L
1Q
#340000
0!
0J
0K
#345000
1!
1J
1K
1|
0}
0I
1H
0R
0P
12
03
0Q
1L
1T
1R
0S
1Q
0T
1U
1S
0U
#350000
0!
0J
0K
#355000
1!
1J
1K
1}
1I
1P
13
0L
0R
0Q
1T
0S
1U
#360000
0!
0J
0K
#365000
1!
1J
1K
1z
0{
0|
0}
0I
0H
0G
1F
0V
0T
1R
0P
10
01
02
03
0U
1S
1Q
1L
1V
1W
1U
0S
0Q
0W
#370000
0!
0J
0K
#375000
1!
1J
1K
1}
1I
1P
13
0L
1Q
#380000
0!
0J
0K
#385000
1!
1J
1K
1|
0}
0I
1H
0R
0P
12
03
0Q
1L
1R
1S
1Q
0S
#390000
0!
0J
0K
#395000
1!
1J
1K
1}
1I
1P
13
0L
0R
0Q
1S
#400000
0!
0J
0K
#405000
1!
1J
1K
1{
0|
0}
0I
0H
1G
1T
1R
0P
11
02
03
0S
1Q
1L
0V
0T
0U
1S
0Q
1V
1W
1U
0W
#410000
0!
0J
0K
#415000
1!
1J
1K
1}
1I
1P
13
0L
1Q
#420000
0!
0J
0K
#425000
1!
1J
1K
1|
0}
0I
1H
0R
0P
12
03
0Q
1L
1T
1R
0S
1Q
0V
0T
0U
1S
1V
1W
1U
0W
#430000
0!
0J
0K
#435000
1!
1J
1K
1}
1I
1P
13
0L
0R
0Q
1T
0S
0V
0U
1W
#440000
0!
0J
0K
#445000
1!
1J
1K
1y
0z
0{
0|
0}
0I
0H
0G
0F
1E
1X
1V
0T
1R
0P
1/
00
01
02
03
0W
1U
1S
1Q
1L
0X
1Y
1W
0U
0S
0Q
0Y
#450000
0!
0J
0K
#455000
1!
1J
1K
1}
1I
1P
13
0L
1Q
#460000
0!
0J
0K
#465000
1!
1J
1K
1|
0}
0I
1H
0R
0P
12
03
0Q
1L
1R
1S
1Q
0S
#470000
0!
0J
0K
#475000
1!
1J
1K
1}
1I
1P
13
0L
0R
0Q
1S
#480000
0!
0J
0K
#485000
1!
1J
1K
1{
0|
0}
0I
0H
1G
1T
1R
0P
11
02
03
0S
1Q
1L
0T
1U
1S
0Q
0U
#490000
0!
0J
0K
#495000
1!
1J
1K
1}
1I
1P
13
0L
1Q
#500000
0!
0J
0K
#505000
1!
1J
1K
1|
0}
0I
1H
0R
0P
12
03
0Q
1L
1T
1R
0S
1Q
0T
1U
1S
0U
#510000
0!
0J
0K
#515000
1!
1J
1K
1}
1I
1P
13
0L
0R
0Q
1T
0S
1U
#520000
0!
0J
0K
#525000
1!
1J
1K
1z
0{
0|
0}
0I
0H
0G
1F
0V
0T
1R
0P
10
01
02
03
0U
1S
1Q
1L
1X
1V
0W
1U
0S
0Q
0X
1Y
1W
0Y
#530000
0!
0J
0K
#535000
1!
1J
1K
1}
1I
1P
13
0L
1Q
#540000
0!
0J
0K
#545000
1!
1J
1K
1|
0}
0I
1H
0R
0P
12
03
0Q
1L
1R
1S
1Q
0S
#550000
0!
0J
0K
#555000
1!
1J
1K
1}
1I
1P
13
0L
0R
0Q
1S
#560000
0!
0J
0K
#565000
1!
1J
1K
1{
0|
0}
0I
0H
1G
1T
1R
0P
11
02
03
0S
1Q
1L
0V
0T
0U
1S
0Q
1X
1V
0W
1U
0X
1Y
1W
0Y
#570000
0!
0J
0K
#575000
1!
1J
1K
1}
1I
1P
13
0L
1Q
#580000
0!
0J
0K
#585000
1!
1J
1K
1|
0}
0I
1H
0R
0P
12
03
0Q
1L
1T
1R
0S
1Q
0V
0T
0U
1S
1X
1V
0W
1U
0X
1Y
1W
0Y
#590000
0!
0J
0K
#595000
1!
1J
1K
1}
1I
1P
13
0L
0R
0Q
1T
0S
0V
0U
1X
0W
1Y
#600000
0!
0J
0K
#605000
1!
1J
1K
1x
0y
0z
0{
0|
0}
0I
0H
0G
0F
0E
1D
0Z
0X
1V
0T
1R
0P
1.
0/
00
01
02
03
0Y
1W
1U
1S
1Q
1L
1Z
1[
1Y
0W
0U
0S
0Q
0[
#610000
0!
0J
0K
#615000
1!
1J
1K
1}
1I
1P
13
0L
1Q
#620000
0!
0J
0K
#625000
1!
1J
1K
1|
0}
0I
1H
0R
0P
12
03
0Q
1L
1R
1S
1Q
0S
#630000
0!
0J
0K
#635000
1!
1J
1K
1}
1I
1P
13
0L
0R
0Q
1S
#640000
0!
0J
0K
#645000
1!
1J
1K
1{
0|
0}
0I
0H
1G
1T
1R
0P
11
02
03
0S
1Q
1L
0T
1U
1S
0Q
0U
#650000
0!
0J
0K
#655000
1!
1J
1K
1}
1I
1P
13
0L
1Q
#660000
0!
0J
0K
#665000
1!
1J
1K
1|
0}
0I
1H
0R
0P
12
03
0Q
1L
1T
1R
0S
1Q
0T
1U
1S
0U
#670000
0!
0J
0K
#675000
1!
1J
1K
1}
1I
1P
13
0L
0R
0Q
1T
0S
1U
#680000
0!
0J
0K
#685000
1!
1J
1K
1z
0{
0|
0}
0I
0H
0G
1F
0V
0T
1R
0P
10
01
02
03
0U
1S
1Q
1L
1V
1W
1U
0S
0Q
0W
#690000
0!
0J
0K
#695000
1!
1J
1K
1}
1I
1P
13
0L
1Q
#700000
0!
0J
0K
#705000
1!
1J
1K
1|
0}
0I
1H
0R
0P
12
03
0Q
1L
1R
1S
1Q
0S
#710000
0!
0J
0K
#715000
1!
1J
1K
1}
1I
1P
13
0L
0R
0Q
1S
#720000
0!
0J
0K
#725000
1!
1J
1K
1{
0|
0}
0I
0H
1G
1T
1R
0P
11
02
03
0S
1Q
1L
0V
0T
0U
1S
0Q
1V
1W
1U
0W
#730000
0!
0J
0K
#735000
1!
1J
1K
1}
1I
1P
13
0L
1Q
#740000
0!
0J
0K
#745000
1!
1J
1K
1|
0}
0I
1H
0R
0P
12
03
0Q
1L
1T
1R
0S
1Q
0V
0T
0U
1S
1V
1W
1U
0W
#750000
0!
0J
0K
#755000
1!
1J
1K
1}
1I
1P
13
0L
0R
0Q
1T
0S
0V
0U
1W
#760000
0!
0J
0K
#765000
1!
1J
1K
1y
0z
0{
0|
0}
0I
0H
0G
0F
1E
1X
1V
0T
1R
0P
1/
00
01
02
03
0W
1U
1S
1Q
1L
0Z
0X
0Y
1W
0U
0S
0Q
1Z
1[
1Y
0[
#770000
0!
0J
0K
#775000
1!
1J
1K
1}
1I
1P
13
0L
1Q
#780000
0!
0J
0K
#785000
1!
1J
1K
1|
0}
0I
1H
0R
0P
12
03
0Q
1L
1R
1S
1Q
0S
#790000
0!
0J
0K
#795000
1!
1J
1K
1}
1I
1P
13
0L
0R
0Q
1S
#800000
0!
0J
0K
#805000
1!
1J
1K
1{
0|
0}
0I
0H
1G
1T
1R
0P
11
02
03
0S
1Q
1L
0T
1U
1S
0Q
0U
#810000
0!
0J
0K
#815000
1!
1J
1K
1}
1I
1P
13
0L
1Q
#820000
0!
0J
0K
#825000
1!
1J
1K
1|
0}
0I
1H
0R
0P
12
03
0Q
1L
1T
1R
0S
1Q
0T
1U
1S
0U
#830000
0!
0J
0K
#835000
1!
1J
1K
1}
1I
1P
13
0L
0R
0Q
1T
0S
1U
#840000
0!
0J
0K
#845000
1!
1J
1K
1z
0{
0|
0}
0I
0H
0G
1F
0V
0T
1R
0P
10
01
02
03
0U
1S
1Q
1L
1X
1V
0W
1U
0S
0Q
0Z
0X
0Y
1W
1Z
1[
1Y
0[
#850000
0!
0J
0K
#855000
1!
1J
1K
1}
1I
1P
13
0L
1Q
#860000
0!
0J
0K
#865000
1!
1J
1K
1|
0}
0I
1H
0R
0P
12
03
0Q
1L
1R
1S
1Q
0S
#870000
0!
0J
0K
#875000
1!
1J
1K
1}
1I
1P
13
0L
0R
0Q
1S
#880000
0!
0J
0K
#885000
1!
1J
1K
1{
0|
0}
0I
0H
1G
1T
1R
0P
11
02
03
0S
1Q
1L
0V
0T
0U
1S
0Q
1X
1V
0W
1U
0Z
0X
0Y
1W
1Z
1[
1Y
0[
#890000
0!
0J
0K
#895000
1!
1J
1K
1}
1I
1P
13
0L
1Q
#900000
0!
0J
0K
#905000
1!
1J
1K
1|
0}
0I
1H
0R
0P
12
03
0Q
1L
1T
1R
0S
1Q
0V
0T
0U
1S
1X
1V
0W
1U
0Z
0X
0Y
1W
1Z
1[
1Y
0[
#910000
0!
0J
0K
#915000
1!
1J
1K
1}
1I
1P
13
0L
0R
0Q
1T
0S
0V
0U
1X
0W
0Z
0Y
1[
#920000
0!
0J
0K
#925000
1!
1J
1K
1w
0x
0y
0z
0{
0|
0}
0I
0H
0G
0F
0E
0D
1C
1\
1Z
0X
1V
0T
1R
0P
1-
0.
0/
00
01
02
03
0[
1Y
1W
1U
1S
1Q
1L
0\
1]
1[
0Y
0W
0U
0S
0Q
0]
#930000
0!
0J
0K
#935000
1!
1J
1K
1}
1I
1P
13
0L
1Q
#940000
0!
0J
0K
#945000
1!
1J
1K
1|
0}
0I
1H
0R
0P
12
03
0Q
1L
1R
1S
1Q
0S
#950000
0!
0J
0K
#955000
1!
1J
1K
1}
1I
1P
13
0L
0R
0Q
1S
#960000
0!
0J
0K
#965000
1!
1J
1K
1{
0|
0}
0I
0H
1G
1T
1R
0P
11
02
03
0S
1Q
1L
0T
1U
1S
0Q
0U
#970000
0!
0J
0K
#975000
1!
1J
1K
1}
1I
1P
13
0L
1Q
#980000
0!
0J
0K
#985000
1!
1J
1K
1|
0}
0I
1H
0R
0P
12
03
0Q
1L
1T
1R
0S
1Q
0T
1U
1S
0U
#990000
0!
0J
0K
#995000
1!
1J
1K
1}
1I
1P
13
0L
0R
0Q
1T
0S
1U
